<?xml version="1.0" encoding="UTF-8"?>
<svg width="244px" height="144px" viewBox="0 0 244 144" version="1.1" xmlns="http://www.w3.org/2000/svg" xmlns:xlink="http://www.w3.org/1999/xlink">
    <!-- Generator: Sketch 50.2 (55047) - http://www.bohemiancoding.com/sketch -->
    <title>Karta</title>
    <desc>Created with Sketch.</desc>
    <defs>
        <linearGradient x1="100%" y1="50%" x2="0%" y2="50%" id="linearGradient-1">
            <stop stop-color="#61A3FA" offset="0%"></stop>
            <stop stop-color="#2AA9EE" offset="100%"></stop>
        </linearGradient>
    </defs>
    <g id="Symbols" stroke="none" stroke-width="1" fill="none" fill-rule="evenodd">
        <g id="Card" transform="translate(-3.000000, -3.000000)">
            <g id="Karta" transform="translate(3.000000, 3.000000)">
                <path d="M17,3.5 C9.54415588,3.5 3.5,9.54415588 3.5,17 L3.5,27.2411844 C3.5,28.0696115 2.82842712,28.7411844 2,28.7411844 C1.17157288,28.7411844 0.5,28.0696115 0.5,27.2411844 L0.5,17 C0.5,7.88730163 7.88730163,0.5 17,0.5 L137,0.5 C137.828427,0.5 138.5,1.17157288 138.5,2 C138.5,2.82842712 137.828427,3.5 137,3.5 L17,3.5 Z M157,3.5 C156.171573,3.5 155.5,2.82842712 155.5,2 C155.5,1.17157288 156.171573,0.5 157,0.5 L227,0.5 C236.112698,0.5 243.5,7.88730163 243.5,17 L243.5,43.5862719 C243.5,44.414699 242.828427,45.0862719 242,45.0862719 C241.171573,45.0862719 240.5,44.414699 240.5,43.5862719 L240.5,17 C240.5,9.54415588 234.455844,3.5 227,3.5 L157,3.5 Z M240.5,63.5862719 C240.5,62.7578447 241.171573,62.0862719 242,62.0862719 C242.828427,62.0862719 243.5,62.7578447 243.5,63.5862719 L243.5,127 C243.5,136.112698 236.112698,143.5 227,143.5 L193.827456,143.5 C192.999029,143.5 192.327456,142.828427 192.327456,142 C192.327456,141.171573 192.999029,140.5 193.827456,140.5 L227,140.5 C234.455844,140.5 240.5,134.455844 240.5,127 L240.5,63.5862719 Z M173.827456,140.5 C174.655883,140.5 175.327456,141.171573 175.327456,142 C175.327456,142.828427 174.655883,143.5 173.827456,143.5 L53.8274563,143.5 C52.9990292,143.5 52.3274563,142.828427 52.3274563,142 C52.3274563,141.171573 52.9990292,140.5 53.8274563,140.5 L173.827456,140.5 Z M33.8274563,140.5 C34.6558834,140.5 35.3274563,141.171573 35.3274563,142 C35.3274563,142.828427 34.6558834,143.5 33.8274563,143.5 L17,143.5 C7.88730163,143.5 0.5,136.112698 0.5,127 L0.5,47.2411844 C0.5,46.4127573 1.17157288,45.7411844 2,45.7411844 C2.82842712,45.7411844 3.5,46.4127573 3.5,47.2411844 L3.5,127 C3.5,134.455844 9.54415588,140.5 17,140.5 L33.8274563,140.5 Z" id="Rectangle-3" fill="url(#linearGradient-1)" fill-rule="nonzero"></path>
                <g id="PayLane" transform="translate(22.000000, 23.000000)">
                    <path d="M43.96,16.396 C43.515,16.305 43.181,16.26 42.959,16.26 C40.898,16.26 39.868,16.935 39.868,18.285 C39.868,19.287 40.449,19.789 41.612,19.789 C43.178,19.789 43.96,19.006 43.96,17.44 L43.96,16.396 Z M44.211,20.541 C43.975,20.931 43.562,21.249 42.974,21.496 C42.386,21.742 41.771,21.866 41.131,21.866 C39.927,21.866 38.981,21.565 38.292,20.963 C37.603,20.361 37.258,19.507 37.258,18.4 C37.258,17.106 37.744,16.093 38.714,15.362 C39.686,14.631 41.065,14.266 42.854,14.266 C43.16,14.266 43.522,14.318 43.94,14.423 C43.94,13.107 43.108,12.449 41.444,12.449 C40.463,12.449 39.642,12.613 38.981,12.94 L38.417,10.914 C39.315,10.483 40.383,10.268 41.622,10.268 C43.327,10.268 44.577,10.655 45.37,11.432 C46.164,12.207 46.56,13.678 46.56,15.842 L46.56,18.233 C46.56,19.723 46.859,20.659 47.458,21.042 C47.242,21.418 47.002,21.648 46.738,21.736 C46.473,21.822 46.17,21.866 45.83,21.866 C45.454,21.866 45.116,21.726 44.817,21.449 C44.517,21.17 44.315,20.867 44.211,20.541 Z" id="Fill-1" fill="#545554"></path>
                    <polyline id="Fill-2" fill="#545554" points="58.948 21.658 58.948 6.363 61.663 6.363 61.663 19.246 68.574 19.246 68.574 21.658 58.948 21.658"></polyline>
                    <path d="M76.046,16.396 C75.601,16.305 75.267,16.26 75.044,16.26 C72.984,16.26 71.955,16.935 71.955,18.285 C71.955,19.287 72.536,19.789 73.699,19.789 C75.263,19.789 76.046,19.006 76.046,17.44 L76.046,16.396 Z M76.298,20.541 C76.061,20.931 75.648,21.249 75.06,21.496 C74.472,21.742 73.858,21.866 73.218,21.866 C72.013,21.866 71.067,21.565 70.378,20.963 C69.689,20.361 69.344,19.507 69.344,18.4 C69.344,17.106 69.83,16.093 70.8,15.362 C71.772,14.631 73.152,14.266 74.941,14.266 C75.247,14.266 75.609,14.318 76.027,14.423 C76.027,13.107 75.195,12.449 73.531,12.449 C72.55,12.449 71.728,12.613 71.067,12.94 L70.503,10.914 C71.402,10.483 72.47,10.268 73.709,10.268 C75.414,10.268 76.664,10.655 77.456,11.432 C78.249,12.207 78.646,13.678 78.646,15.842 L78.646,18.233 C78.646,19.723 78.946,20.659 79.544,21.042 C79.329,21.418 79.089,21.648 78.824,21.736 C78.56,21.822 78.257,21.866 77.915,21.866 C77.54,21.866 77.203,21.726 76.904,21.449 C76.603,21.17 76.402,20.867 76.298,20.541 Z" id="Fill-3" fill="#545554"></path>
                    <path d="M87.877,21.658 L87.877,15.195 C87.877,14.242 87.693,13.545 87.328,13.107 C86.962,12.668 86.366,12.449 85.538,12.449 C85.155,12.449 84.746,12.557 84.311,12.773 C83.877,12.989 83.537,13.257 83.293,13.577 L83.293,21.658 L80.683,21.658 L80.683,10.476 L82.562,10.476 L83.043,11.52 C83.752,10.685 84.8,10.268 86.185,10.268 C87.514,10.268 88.564,10.666 89.334,11.463 C90.102,12.26 90.486,13.372 90.486,14.798 L90.486,21.658 L87.877,21.658" id="Fill-4" fill="#545554"></path>
                    <path d="M35.317,7.37 C34.2,6.629 32.434,6.258 30.019,6.258 C29.712,6.258 28.654,6.296 26.845,6.373 L26.845,21.658 L29.559,21.658 L29.559,8.722 C29.824,8.687 30.099,8.67 30.384,8.67 C32.938,8.67 34.216,9.463 34.216,11.05 C34.216,11.983 33.93,12.656 33.359,13.071 C33.08,13.274 32.719,13.426 32.278,13.53 L32.278,16.016 C35.42,15.624 36.993,13.9 36.993,10.842 C36.993,9.269 36.434,8.111 35.317,7.37" id="Fill-5" fill="#545554"></path>
                    <polyline id="Fill-6" fill="#545554" points="51.259 14.964 49.477 10.476 46.773 10.476 49.978 18.393 51.259 14.964"></polyline>
                    <path d="M55.272,10.476 L52.526,18.201 L52.523,18.195 L51.104,22.234 C50.697,23.26 50.091,23.735 48.089,23.735 L48.089,26.043 C49.307,26.043 50.374,25.797 51.289,25.307 C52.204,24.816 52.801,24.198 53.079,23.453 L57.976,10.476 L55.272,10.476" id="Fill-7" fill="#545554"></path>
                    <path d="M102.723,15.414 C102.723,13.918 102.232,12.686 101.25,11.719 C100.269,10.751 98.967,10.268 97.345,10.268 C95.822,10.268 94.515,10.814 93.425,11.907 C92.336,12.999 91.791,14.426 91.791,16.187 C91.791,17.976 92.288,19.369 93.279,20.368 C94.271,21.367 95.62,21.866 97.326,21.866 C99.149,21.866 100.52,21.494 101.439,20.75 L100.426,18.756 C99.807,19.375 98.902,19.685 97.711,19.685 C96.757,19.685 95.999,19.437 95.435,18.943 C94.986,18.549 94.706,18.023 94.585,17.377 C94.584,17.377 94.58,17.377 94.578,17.377 C94.231,15.518 94.815,14.215 94.815,14.215 L94.822,14.215 C95.275,13.042 96.127,12.449 97.388,12.449 C99.016,12.449 99.92,13.267 100.102,14.903 L96.971,14.903 L96.971,16.866 L102.503,16.866 C102.649,16.218 102.723,15.735 102.723,15.414" id="Fill-8" fill="#545554"></path>
                    <path d="M0,1.386 C0,1.386 16.908,3.07 8.681,22.198 L16.957,22.198 C16.957,22.198 21.525,1.066 0,1.386" id="Fill-9" fill="#545554"></path>
                    <path d="M21.848,3.995 L15.445,3.995 C13.074,1.933 9.558,0.515 4.403,0.362 C19.732,3.282 19.485,14.31 17.752,22.198 L21.848,22.198 C22.507,22.198 23.042,21.664 23.042,21.004 L23.042,5.189 C23.042,4.529 22.507,3.995 21.848,3.995" id="Fill-10" fill="#FBCD20"></path>
                    <path d="M6.105,3.995 L6.026,3.995 C5.367,3.995 4.832,4.529 4.832,5.189 L4.832,21.004 C4.832,21.664 5.367,22.198 6.026,22.198 L6.133,22.198 C7.56,20.221 14.048,10.328 6.105,3.995" id="Fill-11" fill="#FBCD20"></path>
                </g>
                <path d="M26.03,117.58 C26.1020004,117.58 26.1579998,117.598 26.198,117.634 C26.2380002,117.67 26.258,117.722 26.258,117.79 C26.258,117.858 26.2380002,117.91 26.198,117.946 C26.1579998,117.982 26.1020004,118 26.03,118 L23.84,118 C23.7719997,118 23.7150002,117.979 23.669,117.937 C23.6229998,117.895 23.6,117.84 23.6,117.772 L23.6,116.23 L23.312,116.398 C23.2719998,116.422 23.2320002,116.434 23.192,116.434 C23.1359997,116.434 23.0900002,116.414 23.054,116.374 C23.0179998,116.334 23,116.288 23,116.236 C23,116.16 23.0379996,116.098 23.114,116.05 L23.6,115.774 L23.6,113.992 C23.6,113.916 23.6219998,113.855 23.666,113.809 C23.7100002,113.763 23.7699996,113.74 23.846,113.74 C23.9260004,113.74 23.9869998,113.763 24.029,113.809 C24.0710002,113.855 24.092,113.916 24.092,113.992 L24.092,115.492 L24.956,114.994 C25.0000002,114.97 25.0379998,114.958 25.07,114.958 C25.1220003,114.958 25.1669998,114.978 25.205,115.018 C25.2430002,115.058 25.262,115.104 25.262,115.156 C25.262,115.228 25.2260004,115.286 25.154,115.33 L24.092,115.948 L24.092,117.58 L26.03,117.58 Z M29.928,115.018 C30.0040004,115.018 30.0629998,115.04 30.105,115.084 C30.1470002,115.128 30.168,115.186 30.168,115.258 L30.168,117.796 C30.168,117.864 30.1470002,117.92 30.105,117.964 C30.0629998,118.008 30.0040004,118.03 29.928,118.03 C29.8559996,118.03 29.7990002,118.009 29.757,117.967 C29.7149998,117.925 29.694,117.87 29.694,117.802 L29.694,117.502 C29.6019995,117.678001 29.4730008,117.812 29.307,117.904 C29.1409992,117.996 28.954001,118.042 28.746,118.042 C28.3979983,118.042 28.1360009,117.945001 27.96,117.751 C27.7839991,117.556999 27.696,117.270002 27.696,116.89 L27.696,115.258 C27.696,115.186 27.7179998,115.128 27.762,115.084 C27.8060002,115.04 27.8659996,115.018 27.942,115.018 C28.0180004,115.018 28.0769998,115.04 28.119,115.084 C28.1610002,115.128 28.182,115.186 28.182,115.258 L28.182,116.878 C28.182,117.138001 28.2339995,117.328999 28.338,117.451 C28.4420005,117.573001 28.6059989,117.634 28.83,117.634 C29.0860013,117.634 29.2919992,117.551001 29.448,117.385 C29.6040008,117.218999 29.682,117.000001 29.682,116.728 L29.682,115.258 C29.682,115.186 29.7039998,115.128 29.748,115.084 C29.7920002,115.04 29.8519996,115.018 29.928,115.018 Z M34.408,117.616 C34.4720003,117.676 34.504,117.74 34.504,117.808 C34.504,117.868 34.4830002,117.92 34.441,117.964 C34.3989998,118.008 34.3480003,118.03 34.288,118.03 C34.2359997,118.03 34.1820003,118.006 34.126,117.958 L32.56,116.608 L32.56,117.79 C32.56,117.866 32.5370002,117.925 32.491,117.967 C32.4449998,118.009 32.3880003,118.03 32.32,118.03 C32.2479996,118.03 32.1890002,118.009 32.143,117.967 C32.0969998,117.925 32.074,117.866 32.074,117.79 L32.074,113.98 C32.074,113.904 32.0969998,113.845 32.143,113.803 C32.1890002,113.761 32.2479996,113.74 32.32,113.74 C32.3880003,113.74 32.4449998,113.761 32.491,113.803 C32.5370002,113.845 32.56,113.904 32.56,113.98 L32.56,116.416 L33.994,115.102 C34.0420002,115.054 34.0959997,115.03 34.156,115.03 C34.2160003,115.03 34.2679998,115.052 34.312,115.096 C34.3560002,115.14 34.378,115.192 34.378,115.252 C34.378,115.32 34.3500003,115.38 34.294,115.432 L33.112,116.488 L34.408,117.616 Z M37.244,115.006 C37.9760037,115.006 38.342,115.389996 38.342,116.158 L38.342,117.79 C38.342,117.862 38.3210002,117.92 38.279,117.964 C38.2369998,118.008 38.1800004,118.03 38.108,118.03 C38.0359996,118.03 37.9780002,118.008 37.934,117.964 C37.8899998,117.92 37.868,117.862 37.868,117.79 L37.868,117.502 C37.7919996,117.674001 37.6760008,117.807 37.52,117.901 C37.3639992,117.995 37.184001,118.042 36.98,118.042 C36.7919991,118.042 36.6190008,118.004 36.461,117.928 C36.3029992,117.852 36.1780005,117.746001 36.086,117.61 C35.9939995,117.473999 35.948,117.324001 35.948,117.16 C35.948,116.939999 36.0039994,116.769001 36.116,116.647 C36.2280006,116.524999 36.4119987,116.437 36.668,116.383 C36.9240013,116.329 37.2799977,116.302 37.736,116.302 L37.868,116.302 L37.868,116.104 C37.868,115.863999 37.8190005,115.688001 37.721,115.576 C37.6229995,115.463999 37.4640011,115.408 37.244,115.408 C36.9719986,115.408 36.6960014,115.481999 36.416,115.63 C36.3079995,115.698 36.2320002,115.732 36.188,115.732 C36.1399998,115.732 36.1000002,115.714 36.068,115.678 C36.0359998,115.642 36.02,115.596 36.02,115.54 C36.02,115.484 36.0369998,115.435 36.071,115.393 C36.1050002,115.351 36.1599996,115.308 36.236,115.264 C36.3760007,115.184 36.5349991,115.121 36.713,115.075 C36.8910009,115.029 37.0679991,115.006 37.244,115.006 Z M37.046,117.658 C37.2860012,117.658 37.4829992,117.577001 37.637,117.415 C37.7910008,117.252999 37.868,117.044001 37.868,116.788 L37.868,116.614 L37.76,116.614 C37.4079982,116.614 37.1400009,116.629 36.956,116.659 C36.7719991,116.689 36.6410004,116.739 36.563,116.809 C36.4849996,116.879 36.446,116.981999 36.446,117.118 C36.446,117.274001 36.5029994,117.402999 36.617,117.505 C36.7310006,117.607001 36.8739991,117.658 37.046,117.658 Z M41.214,118.042 C41.0299991,118.042 40.8550008,118.02 40.689,117.976 C40.5229992,117.932 40.3760006,117.87 40.248,117.79 C40.1759996,117.742 40.1250001,117.697 40.095,117.655 C40.0649998,117.613 40.05,117.562 40.05,117.502 C40.05,117.45 40.0649998,117.407 40.095,117.373 C40.1250001,117.339 40.1639998,117.322 40.212,117.322 C40.2600002,117.322 40.3299995,117.352 40.422,117.412 C40.5420006,117.484 40.6609994,117.541 40.779,117.583 C40.8970006,117.625 41.0439991,117.646 41.22,117.646 C41.4360011,117.646 41.6039994,117.608 41.724,117.532 C41.8440006,117.456 41.904,117.346001 41.904,117.202 C41.904,117.114 41.8820002,117.043 41.838,116.989 C41.7939998,116.935 41.7180005,116.887 41.61,116.845 C41.5019995,116.803 41.344001,116.76 41.136,116.716 C40.7839982,116.64 40.5320008,116.538001 40.38,116.41 C40.2279992,116.281999 40.152,116.108001 40.152,115.888 C40.152,115.715999 40.1999995,115.564001 40.296,115.432 C40.3920005,115.299999 40.5249991,115.196 40.695,115.12 C40.8650008,115.044 41.0579989,115.006 41.274,115.006 C41.4300008,115.006 41.5809993,115.027 41.727,115.069 C41.8730007,115.111 42.0019994,115.17 42.114,115.246 C42.2500007,115.342 42.318,115.441999 42.318,115.546 C42.318,115.598 42.3020002,115.642 42.27,115.678 C42.2379998,115.714 42.2000002,115.732 42.156,115.732 C42.1079998,115.732 42.0360005,115.698 41.94,115.63 C41.8279994,115.558 41.7220005,115.502 41.622,115.462 C41.5219995,115.422 41.3980007,115.402 41.25,115.402 C41.0619991,115.402 40.9110006,115.444 40.797,115.528 C40.6829994,115.612 40.626,115.723999 40.626,115.864 C40.626,115.952 40.6469998,116.023 40.689,116.077 C40.7310002,116.131 40.8009995,116.179 40.899,116.221 C40.9970005,116.263 41.1379991,116.304 41.322,116.344 C41.5940014,116.404 41.8049992,116.47 41.955,116.542 C42.1050007,116.614 42.2119997,116.701999 42.276,116.806 C42.3400003,116.910001 42.372,117.041999 42.372,117.202 C42.372,117.454001 42.2660011,117.656999 42.054,117.811 C41.8419989,117.965001 41.5620017,118.042 41.214,118.042 Z M46.228,117.616 C46.2960003,117.616 46.3479998,117.633 46.384,117.667 C46.4200002,117.701 46.438,117.748 46.438,117.808 C46.438,117.868 46.4200002,117.915 46.384,117.949 C46.3479998,117.983 46.2960003,118 46.228,118 L44.128,118 C44.0599997,118 44.0040002,117.979 43.96,117.937 C43.9159998,117.895 43.894,117.844 43.894,117.784 C43.894,117.72 43.9179998,117.658 43.966,117.598 L45.742,115.462 L44.098,115.462 C44.0299997,115.462 43.9770002,115.445 43.939,115.411 C43.9009998,115.377 43.882,115.332 43.882,115.276 C43.882,115.216 43.9009998,115.168 43.939,115.132 C43.9770002,115.096 44.0299997,115.078 44.098,115.078 L46.132,115.078 C46.2040004,115.078 46.2619998,115.099 46.306,115.141 C46.3500002,115.183 46.372,115.234 46.372,115.294 C46.372,115.358 46.3480002,115.42 46.3,115.48 L44.518,117.616 L46.228,117.616 Z M53.334,117.586 C53.4060004,117.586 53.4619998,117.604 53.502,117.64 C53.5420002,117.676 53.562,117.726 53.562,117.79 C53.562,117.858 53.5420002,117.91 53.502,117.946 C53.4619998,117.982 53.4060004,118 53.334,118 L50.652,118 C50.5799996,118 50.5230002,117.98 50.481,117.94 C50.4389998,117.9 50.418,117.85 50.418,117.79 C50.418,117.73 50.4399998,117.668 50.484,117.604 L52.884,114.184 L50.652,114.184 C50.5799996,114.184 50.5240002,114.166 50.484,114.13 C50.4439998,114.094 50.424,114.044 50.424,113.98 C50.424,113.912 50.4439998,113.86 50.484,113.824 C50.5240002,113.788 50.5799996,113.77 50.652,113.77 L53.268,113.77 C53.3400004,113.77 53.3969998,113.79 53.439,113.83 C53.4810002,113.87 53.502,113.92 53.502,113.98 C53.502,114.036 53.4800002,114.096 53.436,114.16 L51.03,117.586 L53.334,117.586 Z M56.32,115.006 C57.0520037,115.006 57.418,115.389996 57.418,116.158 L57.418,117.79 C57.418,117.862 57.3970002,117.92 57.355,117.964 C57.3129998,118.008 57.2560004,118.03 57.184,118.03 C57.1119996,118.03 57.0540002,118.008 57.01,117.964 C56.9659998,117.92 56.944,117.862 56.944,117.79 L56.944,117.502 C56.8679996,117.674001 56.7520008,117.807 56.596,117.901 C56.4399992,117.995 56.260001,118.042 56.056,118.042 C55.8679991,118.042 55.6950008,118.004 55.537,117.928 C55.3789992,117.852 55.2540005,117.746001 55.162,117.61 C55.0699995,117.473999 55.024,117.324001 55.024,117.16 C55.024,116.939999 55.0799994,116.769001 55.192,116.647 C55.3040006,116.524999 55.4879987,116.437 55.744,116.383 C56.0000013,116.329 56.3559977,116.302 56.812,116.302 L56.944,116.302 L56.944,116.104 C56.944,115.863999 56.8950005,115.688001 56.797,115.576 C56.6989995,115.463999 56.5400011,115.408 56.32,115.408 C56.0479986,115.408 55.7720014,115.481999 55.492,115.63 C55.3839995,115.698 55.3080002,115.732 55.264,115.732 C55.2159998,115.732 55.1760002,115.714 55.144,115.678 C55.1119998,115.642 55.096,115.596 55.096,115.54 C55.096,115.484 55.1129998,115.435 55.147,115.393 C55.1810002,115.351 55.2359996,115.308 55.312,115.264 C55.4520007,115.184 55.6109991,115.121 55.789,115.075 C55.9670009,115.029 56.1439991,115.006 56.32,115.006 Z M56.122,117.658 C56.3620012,117.658 56.5589992,117.577001 56.713,117.415 C56.8670008,117.252999 56.944,117.044001 56.944,116.788 L56.944,116.614 L56.836,116.614 C56.4839982,116.614 56.2160009,116.629 56.032,116.659 C55.8479991,116.689 55.7170004,116.739 55.639,116.809 C55.5609996,116.879 55.522,116.981999 55.522,117.118 C55.522,117.274001 55.5789994,117.402999 55.693,117.505 C55.8070006,117.607001 55.9499991,117.658 56.122,117.658 Z M62.558,115.006 C63.2060032,115.006 63.53,115.391996 63.53,116.164 L63.53,117.79 C63.53,117.866 63.5080002,117.925 63.464,117.967 C63.4199998,118.009 63.3620004,118.03 63.29,118.03 C63.2179996,118.03 63.1590002,118.009 63.113,117.967 C63.0669998,117.925 63.044,117.866 63.044,117.79 L63.044,116.176 C63.044,115.907999 62.9960005,115.714001 62.9,115.594 C62.8039995,115.473999 62.654001,115.414 62.45,115.414 C62.2059988,115.414 62.0140007,115.495999 61.874,115.66 C61.7339993,115.824001 61.664,116.045999 61.664,116.326 L61.664,117.79 C61.664,117.866 61.6410002,117.925 61.595,117.967 C61.5489998,118.009 61.4900004,118.03 61.418,118.03 C61.3459996,118.03 61.2880002,118.009 61.244,117.967 C61.1999998,117.925 61.178,117.866 61.178,117.79 L61.178,116.176 C61.178,115.907999 61.1300005,115.714001 61.034,115.594 C60.9379995,115.473999 60.786001,115.414 60.578,115.414 C60.3379988,115.414 60.1470007,115.495999 60.005,115.66 C59.8629993,115.824001 59.792,116.045999 59.792,116.326 L59.792,117.79 C59.792,117.866 59.7700002,117.925 59.726,117.967 C59.6819998,118.009 59.6240004,118.03 59.552,118.03 C59.4799996,118.03 59.4210002,118.009 59.375,117.967 C59.3289998,117.925 59.306,117.866 59.306,117.79 L59.306,115.258 C59.306,115.186 59.3289998,115.128 59.375,115.084 C59.4210002,115.04 59.4799996,115.018 59.552,115.018 C59.6200003,115.018 59.6759998,115.039 59.72,115.081 C59.7640002,115.123 59.786,115.18 59.786,115.252 L59.786,115.54 C59.8740004,115.367999 59.9959992,115.236 60.152,115.144 C60.3080008,115.052 60.487999,115.006 60.692,115.006 C61.1480023,115.006 61.4459993,115.197998 61.586,115.582 C61.6700004,115.405999 61.7979991,115.266001 61.97,115.162 C62.1420009,115.057999 62.3379989,115.006 62.558,115.006 Z M66.63,118.042 C66.3539986,118.042 66.111001,117.980001 65.901,117.856 C65.6909989,117.731999 65.5290006,117.555001 65.415,117.325 C65.3009994,117.094999 65.244,116.828002 65.244,116.524 C65.244,116.219998 65.3009994,115.953001 65.415,115.723 C65.5290006,115.492999 65.6909989,115.316001 65.901,115.192 C66.111001,115.067999 66.3539986,115.006 66.63,115.006 C66.9060014,115.006 67.1499989,115.067999 67.362,115.192 C67.5740011,115.316001 67.7369994,115.492999 67.851,115.723 C67.9650006,115.953001 68.022,116.219998 68.022,116.524 C68.022,116.828002 67.9650006,117.094999 67.851,117.325 C67.7369994,117.555001 67.5740011,117.731999 67.362,117.856 C67.1499989,117.980001 66.9060014,118.042 66.63,118.042 Z M66.63,117.64 C66.9180014,117.64 67.1389992,117.545001 67.293,117.355 C67.4470008,117.164999 67.524,116.888002 67.524,116.524 C67.524,116.167998 67.4460008,115.893001 67.29,115.699 C67.1339992,115.504999 66.9140014,115.408 66.63,115.408 C66.3459986,115.408 66.1260008,115.504999 65.97,115.699 C65.8139992,115.893001 65.736,116.167998 65.736,116.524 C65.736,116.884002 65.8129992,117.159999 65.967,117.352 C66.1210008,117.544001 66.3419986,117.64 66.63,117.64 Z M71.83,117.616 C71.8980003,117.616 71.9499998,117.633 71.986,117.667 C72.0220002,117.701 72.04,117.748 72.04,117.808 C72.04,117.868 72.0220002,117.915 71.986,117.949 C71.9499998,117.983 71.8980003,118 71.83,118 L69.73,118 C69.6619997,118 69.6060002,117.979 69.562,117.937 C69.5179998,117.895 69.496,117.844 69.496,117.784 C69.496,117.72 69.5199998,117.658 69.568,117.598 L71.344,115.462 L69.7,115.462 C69.6319997,115.462 69.5790002,115.445 69.541,115.411 C69.5029998,115.377 69.484,115.332 69.484,115.276 C69.484,115.216 69.5029998,115.168 69.541,115.132 C69.5790002,115.096 69.6319997,115.078 69.7,115.078 L71.734,115.078 C71.8060004,115.078 71.8639998,115.099 71.908,115.141 C71.9520002,115.183 71.974,115.234 71.974,115.294 C71.974,115.358 71.9500002,115.42 71.902,115.48 L70.12,117.616 L71.83,117.616 Z M70.768,114.388 C70.6719995,114.388 70.5940003,114.36 70.534,114.304 C70.4739997,114.248 70.444,114.174 70.444,114.082 C70.444,113.994 70.4739997,113.922 70.534,113.866 C70.5940003,113.81 70.6719995,113.782 70.768,113.782 C70.8640005,113.782 70.9419997,113.81 71.002,113.866 C71.0620003,113.922 71.092,113.994 71.092,114.082 C71.092,114.174 71.0620003,114.248 71.002,114.304 C70.9419997,114.36 70.8640005,114.388 70.768,114.388 Z M75.17,115.006 C75.8700035,115.006 76.22,115.391996 76.22,116.164 L76.22,117.79 C76.22,117.866 76.1990002,117.925 76.157,117.967 C76.1149998,118.009 76.0560004,118.03 75.98,118.03 C75.9039996,118.03 75.8440002,118.009 75.8,117.967 C75.7559998,117.925 75.734,117.866 75.734,117.79 L75.734,116.194 C75.734,115.921999 75.6810005,115.724001 75.575,115.6 C75.4689995,115.475999 75.3000012,115.414 75.068,115.414 C74.7999987,115.414 74.5860008,115.495999 74.426,115.66 C74.2659992,115.824001 74.186,116.045999 74.186,116.326 L74.186,117.79 C74.186,117.866 74.1650002,117.925 74.123,117.967 C74.0809998,118.009 74.0220004,118.03 73.946,118.03 C73.8699996,118.03 73.8100002,118.009 73.766,117.967 C73.7219998,117.925 73.7,117.866 73.7,117.79 L73.7,115.258 C73.7,115.186 73.7219998,115.128 73.766,115.084 C73.8100002,115.04 73.8699996,115.018 73.946,115.018 C74.0180004,115.018 74.0749998,115.04 74.117,115.084 C74.1590002,115.128 74.18,115.184 74.18,115.252 L74.18,115.558 C74.2760005,115.377999 74.4099991,115.241 74.582,115.147 C74.7540009,115.053 74.9499989,115.006 75.17,115.006 Z M80.214,115.168 C80.2580002,115.072 80.3279995,115.024 80.424,115.024 C80.4840003,115.024 80.5379998,115.044 80.586,115.084 C80.6340002,115.124 80.658,115.174 80.658,115.234 C80.658,115.27 80.6500001,115.302 80.634,115.33 L78.948,118.966 C78.9279999,119.01 78.8990002,119.044 78.861,119.068 C78.8229998,119.092 78.7840002,119.104 78.744,119.104 C78.6839997,119.104 78.6310002,119.085 78.585,119.047 C78.5389998,119.009 78.516,118.96 78.516,118.9 C78.516,118.868 78.5239999,118.836 78.54,118.804 L78.96,117.898 L77.772,115.33 C77.7559999,115.302 77.748,115.272 77.748,115.24 C77.748,115.18 77.7749997,115.128 77.829,115.084 C77.8830003,115.04 77.9419997,115.018 78.006,115.018 C78.0460002,115.018 78.0849998,115.03 78.123,115.054 C78.1610002,115.078 78.1899999,115.112 78.21,115.156 L79.212,117.406 L80.214,115.168 Z" id="Łukasz-Zamożny" fill="#000000"></path>
                <path d="M29.112,103.034 C29.2800008,103.034 29.4106662,103.076 29.504,103.16 C29.5973338,103.244 29.644,103.360666 29.644,103.51 C29.644,103.836668 29.4666684,104 29.112,104 L23.624,104 C23.4653325,104 23.3346672,103.951 23.232,103.853 C23.1293328,103.755 23.078,103.636001 23.078,103.496 C23.078,103.318666 23.1433327,103.164667 23.274,103.034 L26.648,99.324 C27.114669,98.8013307 27.452999,98.3323354 27.663,97.917 C27.8730011,97.5016646 27.978,97.0840021 27.978,96.664 C27.978,96.122664 27.8216682,95.7073348 27.509,95.418 C27.1963318,95.1286652 26.7553362,94.984 26.186,94.984 C25.7379978,94.984 25.3086687,95.0656659 24.898,95.229 C24.4873313,95.3923342 24.0766687,95.6419983 23.666,95.978 C23.5259993,96.0900006 23.3953339,96.146 23.274,96.146 C23.1713328,96.146 23.082667,96.0970005 23.008,95.999 C22.933333,95.9009995 22.896,95.7820007 22.896,95.642 C22.896,95.445999 22.9706659,95.2873339 23.12,95.166 C23.5026686,94.8113316 23.9693306,94.5313344 24.52,94.326 C25.0706694,94.1206656 25.6353304,94.018 26.214,94.018 C27.1006711,94.018 27.807664,94.251331 28.335,94.718 C28.862336,95.184669 29.126,95.8146627 29.126,96.608 C29.126,97.1773362 28.997668,97.7233307 28.741,98.246 C28.4843321,98.7686693 28.0620029,99.3519968 27.474,99.996 L24.674,103.034 L29.112,103.034 Z M36.378,97.812 C37.0033365,97.812 37.5516643,97.9426654 38.023,98.204 C38.4943357,98.4653346 38.8583321,98.8316643 39.115,99.303 C39.371668,99.7743357 39.5,100.317997 39.5,100.934 C39.5,101.550003 39.3600014,102.098331 39.08,102.579 C38.7999986,103.059669 38.4103358,103.432999 37.911,103.699 C37.4116642,103.965001 36.8353366,104.098 36.182,104.098 C35.6033304,104.098 35.0386694,103.995334 34.488,103.79 C33.9373306,103.584666 33.4706686,103.304668 33.088,102.95 C32.9386659,102.809999 32.864,102.651334 32.864,102.474 C32.864,102.333999 32.901333,102.217334 32.976,102.124 C33.050667,102.030666 33.1393328,101.984 33.242,101.984 C33.3726673,101.984 33.5033327,102.035333 33.634,102.138 C34.0446687,102.474002 34.4553313,102.723666 34.866,102.887 C35.2766687,103.050334 35.7059978,103.132 36.154,103.132 C36.8446701,103.132 37.385998,102.936002 37.778,102.544 C38.170002,102.151998 38.366,101.620003 38.366,100.948 C38.366,100.294663 38.170002,99.7673353 37.778,99.366 C37.385998,98.9646647 36.85867,98.764 36.196,98.764 C35.3466624,98.764 34.6560027,99.0906634 34.124,99.744 C33.9933327,99.8840007 33.8346676,99.954 33.648,99.954 C33.5173327,99.954 33.4076671,99.9143337 33.319,99.835 C33.2303329,99.7556663 33.186,99.6460007 33.186,99.506 L33.186,94.676 C33.186,94.5173325 33.2349995,94.3866672 33.333,94.284 C33.4310005,94.1813328 33.5686658,94.13 33.746,94.13 L38.674,94.13 C38.8420008,94.13 38.9749995,94.1719996 39.073,94.256 C39.1710005,94.3400004 39.22,94.4566659 39.22,94.606 C39.22,94.7553341 39.1710005,94.8719996 39.073,94.956 C38.9749995,95.0400004 38.8420008,95.082 38.674,95.082 L34.32,95.082 L34.32,98.596 C34.5813346,98.3439987 34.8869983,98.150334 35.237,98.015 C35.5870018,97.879666 35.9673313,97.812 36.378,97.812 Z M47.116,98.932 C47.7133363,99.1000008 48.1683318,99.3893313 48.481,99.8 C48.7936682,100.210669 48.95,100.71933 48.95,101.326 C48.95,102.184671 48.6606696,102.861331 48.082,103.356 C47.5033304,103.850669 46.7146717,104.098 45.716,104.098 C45.1093303,104.098 44.5283361,103.995334 43.973,103.79 C43.4176639,103.584666 42.9486686,103.304668 42.566,102.95 C42.4166659,102.809999 42.342,102.651334 42.342,102.474 C42.342,102.333999 42.379333,102.217334 42.454,102.124 C42.528667,102.030666 42.6173328,101.984 42.72,101.984 C42.8506673,101.984 42.9813327,102.035333 43.112,102.138 C43.5413355,102.483335 43.9613313,102.735333 44.372,102.894 C44.7826687,103.052667 45.2259976,103.132 45.702,103.132 C46.3926701,103.132 46.9176649,102.973335 47.277,102.656 C47.6363351,102.338665 47.816,101.881336 47.816,101.284 C47.816,100.079994 47.0600076,99.478 45.548,99.478 L44.806,99.478 C44.6566659,99.478 44.5376671,99.4290005 44.449,99.331 C44.3603329,99.2329995 44.316,99.1186673 44.316,98.988 C44.316,98.8573327 44.3603329,98.7453338 44.449,98.652 C44.5376671,98.5586662 44.6566659,98.512 44.806,98.512 L45.324,98.512 C46.0520036,98.512 46.611998,98.3510016 47.004,98.029 C47.396002,97.7069984 47.592,97.2426697 47.592,96.636 C47.592,96.1039973 47.4333349,95.6956681 47.116,95.411 C46.7986651,95.1263319 46.3506696,94.984 45.772,94.984 C45.3333311,94.984 44.9086687,95.0656659 44.498,95.229 C44.0873313,95.3923342 43.6766687,95.6419983 43.266,95.978 C43.1353327,96.0806672 43.0046673,96.132 42.874,96.132 C42.7713328,96.132 42.682667,96.0853338 42.608,95.992 C42.533333,95.8986662 42.496,95.7820007 42.496,95.642 C42.496,95.4646658 42.5706659,95.3060007 42.72,95.166 C43.1026686,94.8113316 43.5669973,94.5313344 44.113,94.326 C44.6590027,94.1206656 45.2213304,94.018 45.8,94.018 C46.6960045,94.018 47.407664,94.2443311 47.935,94.697 C48.462336,95.1496689 48.726,95.7586628 48.726,96.524 C48.726,97.0933362 48.5836681,97.5903312 48.299,98.015 C48.0143319,98.4396688 47.6200025,98.7453324 47.116,98.932 Z M58.862,100.906 C59.0300008,100.906 59.1606662,100.950333 59.254,101.039 C59.3473338,101.127667 59.394,101.241999 59.394,101.382 C59.394,101.699335 59.2166684,101.858 58.862,101.858 L57.812,101.858 L57.812,103.482 C57.812,103.668668 57.7583339,103.813333 57.651,103.916 C57.5436661,104.018667 57.4060008,104.07 57.238,104.07 C57.0699992,104.07 56.9346672,104.018667 56.832,103.916 C56.7293328,103.813333 56.678,103.668668 56.678,103.482 L56.678,101.858 L52.534,101.858 C52.3659992,101.858 52.2353338,101.811334 52.142,101.718 C52.0486662,101.624666 52.002,101.508001 52.002,101.368 C52.002,101.237333 52.0533328,101.092667 52.156,100.934 L56.734,94.312 C56.8646673,94.1439992 57.0326656,94.06 57.238,94.06 C57.3966675,94.06 57.5319994,94.1113328 57.644,94.214 C57.7560006,94.3166672 57.812,94.4613324 57.812,94.648 L57.812,100.906 L58.862,100.906 Z M53.304,100.906 L56.678,100.906 L56.678,96.048 L53.304,100.906 Z M73.1,103.034 C73.2680008,103.034 73.3986662,103.076 73.492,103.16 C73.5853338,103.244 73.632,103.360666 73.632,103.51 C73.632,103.668667 73.5876671,103.79 73.499,103.874 C73.4103329,103.958 73.2773342,104 73.1,104 L68.466,104 C68.2886658,104 68.1556671,103.958 68.067,103.874 C67.9783329,103.79 67.934,103.668667 67.934,103.51 C67.934,103.360666 67.9806662,103.244 68.074,103.16 C68.1673338,103.076 68.2979992,103.034 68.466,103.034 L70.202,103.034 L70.202,95.53 L68.676,96.524 C68.601333,96.5706669 68.526667,96.594 68.452,96.594 C68.3213327,96.594 68.2070005,96.5333339 68.109,96.412 C68.0109995,96.2906661 67.962,96.1600007 67.962,96.02 C67.962,95.823999 68.0366659,95.6840004 68.186,95.6 L70.314,94.214 C70.4726675,94.1113328 70.6359992,94.06 70.804,94.06 C70.9626675,94.06 71.0933328,94.1113328 71.196,94.214 C71.2986672,94.3166672 71.35,94.4613324 71.35,94.648 L71.35,103.034 L73.1,103.034 Z M83.054,94.13 C83.2220008,94.13 83.3503329,94.1743329 83.439,94.263 C83.5276671,94.3516671 83.572,94.4659993 83.572,94.606 C83.572,94.7366673 83.5300004,94.8813325 83.446,95.04 L78.798,103.79 C78.6859994,103.995334 78.5226677,104.098 78.308,104.098 C78.1586659,104.098 78.0256673,104.046667 77.909,103.944 C77.7923328,103.841333 77.734,103.715334 77.734,103.566 C77.734,103.463333 77.7666663,103.360667 77.832,103.258 L82.2,95.096 L77.37,95.096 C77.2019992,95.096 77.0736671,95.0540004 76.985,94.97 C76.8963329,94.8859996 76.852,94.7693341 76.852,94.62 C76.852,94.4613325 76.8963329,94.3400004 76.985,94.256 C77.0736671,94.1719996 77.2019992,94.13 77.37,94.13 L83.054,94.13 Z M91.72,98.932 C92.2986696,99.1093342 92.7489984,99.4126645 93.071,99.842 C93.3930016,100.271335 93.554,100.784664 93.554,101.382 C93.554,102.231338 93.2460031,102.896331 92.63,103.377 C92.0139969,103.857669 91.141339,104.098 90.012,104.098 C88.882661,104.098 88.0100031,103.857669 87.394,103.377 C86.7779969,102.896331 86.47,102.231338 86.47,101.382 C86.47,100.77533 86.6333317,100.257335 86.96,99.828 C87.2866683,99.3986645 87.7393304,99.1000008 88.318,98.932 C87.8233309,98.7453324 87.4313348,98.4513353 87.142,98.05 C86.8526652,97.6486647 86.708,97.177336 86.708,96.636 C86.708,95.8333293 86.9996638,95.1963357 87.583,94.725 C88.1663363,94.2536643 88.9759948,94.018 90.012,94.018 C91.0480052,94.018 91.8576638,94.2536643 92.441,94.725 C93.0243363,95.1963357 93.316,95.8333293 93.316,96.636 C93.316,97.177336 93.1713348,97.650998 92.882,98.057 C92.5926652,98.463002 92.2053358,98.7546658 91.72,98.932 Z M87.842,96.72 C87.842,97.2986696 88.0263315,97.7419985 88.395,98.05 C88.7636685,98.3580015 89.3026631,98.512 90.012,98.512 C90.7213369,98.512 91.2603315,98.3580015 91.629,98.05 C91.9976685,97.7419985 92.182,97.2986696 92.182,96.72 C92.182,96.1693306 91.9976685,95.7400015 91.629,95.432 C91.2603315,95.1239985 90.7213369,94.97 90.012,94.97 C89.3026631,94.97 88.7636685,95.1239985 88.395,95.432 C88.0263315,95.7400015 87.842,96.1693306 87.842,96.72 Z M90.012,103.146 C91.6173414,103.146 92.42,102.534673 92.42,101.312 C92.42,100.089327 91.6173414,99.478 90.012,99.478 C88.4066586,99.478 87.604,100.089327 87.604,101.312 C87.604,102.534673 88.4066586,103.146 90.012,103.146 Z M100.218,97.798 C100.815336,97.798 101.347331,97.9286654 101.814,98.19 C102.280669,98.4513346 102.644665,98.8199976 102.906,99.296 C103.167335,99.7720024 103.298,100.317997 103.298,100.934 C103.298,101.54067 103.162668,102.086664 102.892,102.572 C102.621332,103.057336 102.243336,103.435332 101.758,103.706 C101.272664,103.976668 100.72667,104.112 100.12,104.112 C98.9253274,104.112 98.0036699,103.696671 97.355,102.866 C96.7063301,102.035329 96.382,100.850008 96.382,99.31 C96.382,98.2086612 96.5313318,97.2613373 96.83,96.468 C97.1286682,95.6746627 97.5626638,95.0680021 98.132,94.648 C98.7013362,94.2279979 99.3779961,94.018 100.162,94.018 C100.694003,94.018 101.223664,94.1206656 101.751,94.326 C102.278336,94.5313344 102.728665,94.8113316 103.102,95.166 C103.260667,95.3153341 103.34,95.4739992 103.34,95.642 C103.34,95.7820007 103.302667,95.8986662 103.228,95.992 C103.153333,96.0853338 103.064667,96.132 102.962,96.132 C102.831333,96.132 102.696001,96.0806672 102.556,95.978 C101.743996,95.31533 100.955337,94.984 100.19,94.984 C99.3593292,94.984 98.710669,95.3619962 98.244,96.118 C97.777331,96.8740038 97.544,97.9333265 97.544,99.296 L97.544,99.478 C97.7586677,98.9553307 98.1063309,98.5446682 98.587,98.246 C99.0676691,97.9473318 99.6113303,97.798 100.218,97.798 Z M100.064,103.146 C100.69867,103.146 101.207331,102.945335 101.59,102.544 C101.972669,102.142665 102.164,101.61067 102.164,100.948 C102.164,100.28533 101.970335,99.7556687 101.583,99.359 C101.195665,98.9623314 100.68467,98.764 100.05,98.764 C99.4059968,98.764 98.881002,98.966998 98.475,99.373 C98.068998,99.779002 97.866,100.303997 97.866,100.948 C97.866,101.601337 98.068998,102.130998 98.475,102.537 C98.881002,102.943002 99.4106634,103.146 100.064,103.146 Z M114.302,94.018 C115.496673,94.018 116.41833,94.4333292 117.067,95.264 C117.71567,96.0946708 118.04,97.2799923 118.04,98.82 C118.04,99.9213388 117.890668,100.868663 117.592,101.662 C117.293332,102.455337 116.859336,103.061998 116.29,103.482 C115.720664,103.902002 115.044004,104.112 114.26,104.112 C113.727997,104.112 113.198336,104.009334 112.671,103.804 C112.143664,103.598666 111.693335,103.318668 111.32,102.964 C111.161333,102.814666 111.082,102.656001 111.082,102.488 C111.082,102.347999 111.119333,102.231334 111.194,102.138 C111.268667,102.044666 111.357333,101.998 111.46,101.998 C111.590667,101.998 111.725999,102.049333 111.866,102.152 C112.678004,102.81467 113.466663,103.146 114.232,103.146 C115.062671,103.146 115.711331,102.768004 116.178,102.012 C116.644669,101.255996 116.878,100.196673 116.878,98.834 L116.878,98.652 C116.663332,99.1746693 116.315669,99.5853318 115.835,99.884 C115.354331,100.182668 114.81067,100.332 114.204,100.332 C113.606664,100.332 113.074669,100.201335 112.608,99.94 C112.141331,99.6786654 111.777335,99.3100024 111.516,98.834 C111.254665,98.3579976 111.124,97.8120031 111.124,97.196 C111.124,96.5893303 111.259332,96.0433358 111.53,95.558 C111.800668,95.0726642 112.178664,94.694668 112.664,94.424 C113.149336,94.153332 113.69533,94.018 114.302,94.018 Z M114.372,99.366 C115.016003,99.366 115.540998,99.163002 115.947,98.757 C116.353002,98.350998 116.556,97.8260032 116.556,97.182 C116.556,96.5286634 116.353002,95.999002 115.947,95.593 C115.540998,95.186998 115.011337,94.984 114.358,94.984 C113.72333,94.984 113.214669,95.1846647 112.832,95.586 C112.449331,95.9873353 112.258,96.51933 112.258,97.182 C112.258,97.84467 112.451665,98.3743314 112.839,98.771 C113.226335,99.1676687 113.73733,99.366 114.372,99.366 Z M126.118,98.932 C126.69667,99.1093342 127.146998,99.4126645 127.469,99.842 C127.791002,100.271335 127.952,100.784664 127.952,101.382 C127.952,102.231338 127.644003,102.896331 127.028,103.377 C126.411997,103.857669 125.539339,104.098 124.41,104.098 C123.280661,104.098 122.408003,103.857669 121.792,103.377 C121.175997,102.896331 120.868,102.231338 120.868,101.382 C120.868,100.77533 121.031332,100.257335 121.358,99.828 C121.684668,99.3986645 122.13733,99.1000008 122.716,98.932 C122.221331,98.7453324 121.829335,98.4513353 121.54,98.05 C121.250665,97.6486647 121.106,97.177336 121.106,96.636 C121.106,95.8333293 121.397664,95.1963357 121.981,94.725 C122.564336,94.2536643 123.373995,94.018 124.41,94.018 C125.446005,94.018 126.255664,94.2536643 126.839,94.725 C127.422336,95.1963357 127.714,95.8333293 127.714,96.636 C127.714,97.177336 127.569335,97.650998 127.28,98.057 C126.990665,98.463002 126.603336,98.7546658 126.118,98.932 Z M122.24,96.72 C122.24,97.2986696 122.424331,97.7419985 122.793,98.05 C123.161669,98.3580015 123.700663,98.512 124.41,98.512 C125.119337,98.512 125.658331,98.3580015 126.027,98.05 C126.395669,97.7419985 126.58,97.2986696 126.58,96.72 C126.58,96.1693306 126.395669,95.7400015 126.027,95.432 C125.658331,95.1239985 125.119337,94.97 124.41,94.97 C123.700663,94.97 123.161669,95.1239985 122.793,95.432 C122.424331,95.7400015 122.24,96.1693306 122.24,96.72 Z M124.41,103.146 C126.015341,103.146 126.818,102.534673 126.818,101.312 C126.818,100.089327 126.015341,99.478 124.41,99.478 C122.804659,99.478 122.002,100.089327 122.002,101.312 C122.002,102.534673 122.804659,103.146 124.41,103.146 Z M137.052,94.13 C137.220001,94.13 137.348333,94.1743329 137.437,94.263 C137.525667,94.3516671 137.57,94.4659993 137.57,94.606 C137.57,94.7366673 137.528,94.8813325 137.444,95.04 L132.796,103.79 C132.683999,103.995334 132.520668,104.098 132.306,104.098 C132.156666,104.098 132.023667,104.046667 131.907,103.944 C131.790333,103.841333 131.732,103.715334 131.732,103.566 C131.732,103.463333 131.764666,103.360667 131.83,103.258 L136.198,95.096 L131.368,95.096 C131.199999,95.096 131.071667,95.0540004 130.983,94.97 C130.894333,94.8859996 130.85,94.7693341 130.85,94.62 C130.85,94.4613325 130.894333,94.3400004 130.983,94.256 C131.071667,94.1719996 131.199999,94.13 131.368,94.13 L137.052,94.13 Z M144.416,97.798 C145.013336,97.798 145.545331,97.9286654 146.012,98.19 C146.478669,98.4513346 146.842665,98.8199976 147.104,99.296 C147.365335,99.7720024 147.496,100.317997 147.496,100.934 C147.496,101.54067 147.360668,102.086664 147.09,102.572 C146.819332,103.057336 146.441336,103.435332 145.956,103.706 C145.470664,103.976668 144.92467,104.112 144.318,104.112 C143.123327,104.112 142.20167,103.696671 141.553,102.866 C140.90433,102.035329 140.58,100.850008 140.58,99.31 C140.58,98.2086612 140.729332,97.2613373 141.028,96.468 C141.326668,95.6746627 141.760664,95.0680021 142.33,94.648 C142.899336,94.2279979 143.575996,94.018 144.36,94.018 C144.892003,94.018 145.421664,94.1206656 145.949,94.326 C146.476336,94.5313344 146.926665,94.8113316 147.3,95.166 C147.458667,95.3153341 147.538,95.4739992 147.538,95.642 C147.538,95.7820007 147.500667,95.8986662 147.426,95.992 C147.351333,96.0853338 147.262667,96.132 147.16,96.132 C147.029333,96.132 146.894001,96.0806672 146.754,95.978 C145.941996,95.31533 145.153337,94.984 144.388,94.984 C143.557329,94.984 142.908669,95.3619962 142.442,96.118 C141.975331,96.8740038 141.742,97.9333265 141.742,99.296 L141.742,99.478 C141.956668,98.9553307 142.304331,98.5446682 142.785,98.246 C143.265669,97.9473318 143.80933,97.798 144.416,97.798 Z M144.262,103.146 C144.89667,103.146 145.405331,102.945335 145.788,102.544 C146.170669,102.142665 146.362,101.61067 146.362,100.948 C146.362,100.28533 146.168335,99.7556687 145.781,99.359 C145.393665,98.9623314 144.88267,98.764 144.248,98.764 C143.603997,98.764 143.079002,98.966998 142.673,99.373 C142.266998,99.779002 142.064,100.303997 142.064,100.948 C142.064,101.601337 142.266998,102.130998 142.673,102.537 C143.079002,102.943002 143.608663,103.146 144.262,103.146 Z M161.72,103.034 C161.888001,103.034 162.018666,103.076 162.112,103.16 C162.205334,103.244 162.252,103.360666 162.252,103.51 C162.252,103.836668 162.074668,104 161.72,104 L156.232,104 C156.073333,104 155.942667,103.951 155.84,103.853 C155.737333,103.755 155.686,103.636001 155.686,103.496 C155.686,103.318666 155.751333,103.164667 155.882,103.034 L159.256,99.324 C159.722669,98.8013307 160.060999,98.3323354 160.271,97.917 C160.481001,97.5016646 160.586,97.0840021 160.586,96.664 C160.586,96.122664 160.429668,95.7073348 160.117,95.418 C159.804332,95.1286652 159.363336,94.984 158.794,94.984 C158.345998,94.984 157.916669,95.0656659 157.506,95.229 C157.095331,95.3923342 156.684669,95.6419983 156.274,95.978 C156.133999,96.0900006 156.003334,96.146 155.882,96.146 C155.779333,96.146 155.690667,96.0970005 155.616,95.999 C155.541333,95.9009995 155.504,95.7820007 155.504,95.642 C155.504,95.445999 155.578666,95.2873339 155.728,95.166 C156.110669,94.8113316 156.577331,94.5313344 157.128,94.326 C157.678669,94.1206656 158.24333,94.018 158.822,94.018 C159.708671,94.018 160.415664,94.251331 160.943,94.718 C161.470336,95.184669 161.734,95.8146627 161.734,96.608 C161.734,97.1773362 161.605668,97.7233307 161.349,98.246 C161.092332,98.7686693 160.670003,99.3519968 160.082,99.996 L157.282,103.034 L161.72,103.034 Z M171.87,100.906 C172.038001,100.906 172.168666,100.950333 172.262,101.039 C172.355334,101.127667 172.402,101.241999 172.402,101.382 C172.402,101.699335 172.224668,101.858 171.87,101.858 L170.82,101.858 L170.82,103.482 C170.82,103.668668 170.766334,103.813333 170.659,103.916 C170.551666,104.018667 170.414001,104.07 170.246,104.07 C170.077999,104.07 169.942667,104.018667 169.84,103.916 C169.737333,103.813333 169.686,103.668668 169.686,103.482 L169.686,101.858 L165.542,101.858 C165.373999,101.858 165.243334,101.811334 165.15,101.718 C165.056666,101.624666 165.01,101.508001 165.01,101.368 C165.01,101.237333 165.061333,101.092667 165.164,100.934 L169.742,94.312 C169.872667,94.1439992 170.040666,94.06 170.246,94.06 C170.404667,94.06 170.539999,94.1113328 170.652,94.214 C170.764001,94.3166672 170.82,94.4613324 170.82,94.648 L170.82,100.906 L171.87,100.906 Z M166.312,100.906 L169.686,100.906 L169.686,96.048 L166.312,100.906 Z M178.786,97.812 C179.411336,97.812 179.959664,97.9426654 180.431,98.204 C180.902336,98.4653346 181.266332,98.8316643 181.523,99.303 C181.779668,99.7743357 181.908,100.317997 181.908,100.934 C181.908,101.550003 181.768001,102.098331 181.488,102.579 C181.207999,103.059669 180.818336,103.432999 180.319,103.699 C179.819664,103.965001 179.243337,104.098 178.59,104.098 C178.01133,104.098 177.446669,103.995334 176.896,103.79 C176.345331,103.584666 175.878669,103.304668 175.496,102.95 C175.346666,102.809999 175.272,102.651334 175.272,102.474 C175.272,102.333999 175.309333,102.217334 175.384,102.124 C175.458667,102.030666 175.547333,101.984 175.65,101.984 C175.780667,101.984 175.911333,102.035333 176.042,102.138 C176.452669,102.474002 176.863331,102.723666 177.274,102.887 C177.684669,103.050334 178.113998,103.132 178.562,103.132 C179.25267,103.132 179.793998,102.936002 180.186,102.544 C180.578002,102.151998 180.774,101.620003 180.774,100.948 C180.774,100.294663 180.578002,99.7673353 180.186,99.366 C179.793998,98.9646647 179.26667,98.764 178.604,98.764 C177.754662,98.764 177.064003,99.0906634 176.532,99.744 C176.401333,99.8840007 176.242668,99.954 176.056,99.954 C175.925333,99.954 175.815667,99.9143337 175.727,99.835 C175.638333,99.7556663 175.594,99.6460007 175.594,99.506 L175.594,94.676 C175.594,94.5173325 175.643,94.3866672 175.741,94.284 C175.839,94.1813328 175.976666,94.13 176.154,94.13 L181.082,94.13 C181.250001,94.13 181.383,94.1719996 181.481,94.256 C181.579,94.3400004 181.628,94.4566659 181.628,94.606 C181.628,94.7553341 181.579,94.8719996 181.481,94.956 C181.383,95.0400004 181.250001,95.082 181.082,95.082 L176.728,95.082 L176.728,98.596 C176.989335,98.3439987 177.294998,98.150334 177.645,98.015 C177.995002,97.879666 178.375331,97.812 178.786,97.812 Z M187.9,94.018 C189.094673,94.018 190.01633,94.4333292 190.665,95.264 C191.31367,96.0946708 191.638,97.2799923 191.638,98.82 C191.638,99.9213388 191.488668,100.868663 191.19,101.662 C190.891332,102.455337 190.457336,103.061998 189.888,103.482 C189.318664,103.902002 188.642004,104.112 187.858,104.112 C187.325997,104.112 186.796336,104.009334 186.269,103.804 C185.741664,103.598666 185.291335,103.318668 184.918,102.964 C184.759333,102.814666 184.68,102.656001 184.68,102.488 C184.68,102.347999 184.717333,102.231334 184.792,102.138 C184.866667,102.044666 184.955333,101.998 185.058,101.998 C185.188667,101.998 185.323999,102.049333 185.464,102.152 C186.276004,102.81467 187.064663,103.146 187.83,103.146 C188.660671,103.146 189.309331,102.768004 189.776,102.012 C190.242669,101.255996 190.476,100.196673 190.476,98.834 L190.476,98.652 C190.261332,99.1746693 189.913669,99.5853318 189.433,99.884 C188.952331,100.182668 188.40867,100.332 187.802,100.332 C187.204664,100.332 186.672669,100.201335 186.206,99.94 C185.739331,99.6786654 185.375335,99.3100024 185.114,98.834 C184.852665,98.3579976 184.722,97.8120031 184.722,97.196 C184.722,96.5893303 184.857332,96.0433358 185.128,95.558 C185.398668,95.0726642 185.776664,94.694668 186.262,94.424 C186.747336,94.153332 187.29333,94.018 187.9,94.018 Z M187.97,99.366 C188.614003,99.366 189.138998,99.163002 189.545,98.757 C189.951002,98.350998 190.154,97.8260032 190.154,97.182 C190.154,96.5286634 189.951002,95.999002 189.545,95.593 C189.138998,95.186998 188.609337,94.984 187.956,94.984 C187.32133,94.984 186.812669,95.1846647 186.43,95.586 C186.047331,95.9873353 185.856,96.51933 185.856,97.182 C185.856,97.84467 186.049665,98.3743314 186.437,98.771 C186.824335,99.1676687 187.33533,99.366 187.97,99.366 Z" id="2534-1786-9876-2459" fill="#000000"></path>
                <path d="M108.13,112.64 C108.166667,112.56 108.225,112.52 108.305,112.52 C108.355,112.52 108.4,112.536666 108.44,112.57 C108.48,112.603334 108.5,112.645 108.5,112.695 C108.5,112.725 108.493333,112.751667 108.48,112.775 L107.505,114.875 C107.485,114.918334 107.455,114.9525 107.415,114.9775 C107.375,115.0025 107.331667,115.015 107.285,115.015 C107.241666,115.015 107.2,115.0025 107.16,114.9775 C107.12,114.9525 107.088333,114.918334 107.065,114.875 L106.095,112.775 C106.081667,112.751667 106.075,112.726667 106.075,112.7 C106.075,112.65 106.0975,112.606667 106.1425,112.57 C106.1875,112.533333 106.236666,112.515 106.29,112.515 C106.323334,112.515 106.355833,112.525 106.3875,112.545 C106.419167,112.565 106.443333,112.593333 106.46,112.63 L107.295,114.505 L108.13,112.64 Z M110.895,112.505 C111.505003,112.505 111.81,112.824997 111.81,113.465 L111.81,114.825 C111.81,114.885 111.7925,114.933333 111.7575,114.97 C111.7225,115.006667 111.675,115.025 111.615,115.025 C111.555,115.025 111.506667,115.006667 111.47,114.97 C111.433333,114.933333 111.415,114.885 111.415,114.825 L111.415,114.585 C111.351666,114.728334 111.255001,114.839166 111.125,114.9175 C110.994999,114.995834 110.845001,115.035 110.675,115.035 C110.518333,115.035 110.374167,115.003334 110.2425,114.94 C110.110833,114.876666 110.006667,114.788334 109.93,114.675 C109.853333,114.561666 109.815,114.436667 109.815,114.3 C109.815,114.116666 109.861666,113.974167 109.955,113.8725 C110.048334,113.770833 110.201666,113.6975 110.415,113.6525 C110.628334,113.6075 110.924998,113.585 111.305,113.585 L111.415,113.585 L111.415,113.42 C111.415,113.219999 111.374167,113.073334 111.2925,112.98 C111.210833,112.886666 111.078334,112.84 110.895,112.84 C110.668332,112.84 110.438334,112.901666 110.205,113.025 C110.115,113.081667 110.051667,113.11 110.015,113.11 C109.975,113.11 109.941667,113.095 109.915,113.065 C109.888333,113.035 109.875,112.996667 109.875,112.95 C109.875,112.903333 109.889167,112.8625 109.9175,112.8275 C109.945833,112.7925 109.991666,112.756667 110.055,112.72 C110.171667,112.653333 110.304166,112.600834 110.4525,112.5625 C110.600834,112.524166 110.748333,112.505 110.895,112.505 Z M110.73,114.715 C110.930001,114.715 111.094166,114.647501 111.2225,114.5125 C111.350834,114.377499 111.415,114.203334 111.415,113.99 L111.415,113.845 L111.325,113.845 C111.031665,113.845 110.808334,113.8575 110.655,113.8825 C110.501666,113.9075 110.3925,113.949166 110.3275,114.0075 C110.2625,114.065834 110.23,114.151666 110.23,114.265 C110.23,114.395001 110.2775,114.5025 110.3725,114.5875 C110.4675,114.6725 110.586666,114.715 110.73,114.715 Z M113.755,115.025 C113.695,115.025 113.645834,115.0075 113.6075,114.9725 C113.569166,114.9375 113.55,114.888334 113.55,114.825 L113.55,111.65 C113.55,111.586666 113.569166,111.5375 113.6075,111.5025 C113.645834,111.4675 113.695,111.45 113.755,111.45 C113.811667,111.45 113.859166,111.4675 113.8975,111.5025 C113.935834,111.5375 113.955,111.586666 113.955,111.65 L113.955,114.825 C113.955,114.888334 113.935834,114.9375 113.8975,114.9725 C113.859166,115.0075 113.811667,115.025 113.755,115.025 Z M115.915,115.025 C115.855,115.025 115.805834,115.0075 115.7675,114.9725 C115.729166,114.9375 115.71,114.888334 115.71,114.825 L115.71,112.715 C115.71,112.651666 115.729166,112.6025 115.7675,112.5675 C115.805834,112.5325 115.855,112.515 115.915,112.515 C115.975,112.515 116.023333,112.5325 116.06,112.5675 C116.096667,112.6025 116.115,112.651666 116.115,112.715 L116.115,114.825 C116.115,114.891667 116.096667,114.941666 116.06,114.975 C116.023333,115.008334 115.975,115.025 115.915,115.025 Z M115.915,111.99 C115.835,111.99 115.77,111.966667 115.72,111.92 C115.67,111.873333 115.645,111.811667 115.645,111.735 C115.645,111.661666 115.67,111.601667 115.72,111.555 C115.77,111.508333 115.835,111.485 115.915,111.485 C115.995,111.485 116.06,111.508333 116.11,111.555 C116.16,111.601667 116.185,111.661666 116.185,111.735 C116.185,111.811667 116.16,111.873333 116.11,111.92 C116.06,111.966667 115.995,111.99 115.915,111.99 Z M119.825,111.45 C119.888334,111.45 119.938333,111.468333 119.975,111.505 C120.011667,111.541667 120.03,111.588333 120.03,111.645 L120.03,114.825 C120.03,114.885 120.011667,114.933333 119.975,114.97 C119.938333,115.006667 119.888334,115.025 119.825,115.025 C119.761666,115.025 119.7125,115.006667 119.6775,114.97 C119.6425,114.933333 119.625,114.885 119.625,114.825 L119.625,114.555 C119.551666,114.708334 119.444167,114.826666 119.3025,114.91 C119.160833,114.993334 118.995001,115.035 118.805,115.035 C118.591666,115.035 118.403334,114.981667 118.24,114.875 C118.076666,114.768333 117.95,114.619168 117.86,114.4275 C117.77,114.235832 117.725,114.013335 117.725,113.76 C117.725,113.509999 117.77,113.290001 117.86,113.1 C117.95,112.909999 118.076666,112.763334 118.24,112.66 C118.403334,112.556666 118.591666,112.505 118.805,112.505 C118.995001,112.505 119.160833,112.546666 119.3025,112.63 C119.444167,112.713334 119.551666,112.831666 119.625,112.985 L119.625,111.645 C119.625,111.585 119.6425,111.5375 119.6775,111.5025 C119.7125,111.4675 119.761666,111.45 119.825,111.45 Z M118.885,114.7 C119.121668,114.7 119.304166,114.619167 119.4325,114.4575 C119.560834,114.295833 119.625,114.066668 119.625,113.77 C119.625,113.473332 119.560834,113.245001 119.4325,113.085 C119.304166,112.924999 119.121668,112.845 118.885,112.845 C118.648332,112.845 118.464167,112.924999 118.3325,113.085 C118.200833,113.245001 118.135,113.469999 118.135,113.76 C118.135,114.056668 118.200833,114.287499 118.3325,114.4525 C118.464167,114.617501 118.648332,114.7 118.885,114.7 Z M107.5,119.705 C107.616667,119.715 107.675,119.768333 107.675,119.865 C107.675,119.921667 107.654167,119.964167 107.6125,119.9925 C107.570833,120.020833 107.508334,120.031667 107.425,120.025 L107.29,120.015 C107.023332,119.995 106.826667,119.915001 106.7,119.775 C106.573333,119.634999 106.51,119.423335 106.51,119.14 L106.51,117.885 L106.175,117.885 C106.118333,117.885 106.074167,117.870833 106.0425,117.8425 C106.010833,117.814167 105.995,117.776667 105.995,117.73 C105.995,117.68 106.010833,117.64 106.0425,117.61 C106.074167,117.58 106.118333,117.565 106.175,117.565 L106.51,117.565 L106.51,117 C106.51,116.936666 106.528333,116.8875 106.565,116.8525 C106.601667,116.8175 106.651666,116.8 106.715,116.8 C106.775,116.8 106.823333,116.8175 106.86,116.8525 C106.896667,116.8875 106.915,116.936666 106.915,117 L106.915,117.565 L107.47,117.565 C107.523334,117.565 107.565833,117.58 107.5975,117.61 C107.629167,117.64 107.645,117.68 107.645,117.73 C107.645,117.776667 107.629167,117.814167 107.5975,117.8425 C107.565833,117.870833 107.523334,117.885 107.47,117.885 L106.915,117.885 L106.915,119.16 C106.915,119.343334 106.9525,119.475833 107.0275,119.5575 C107.1025,119.639167 107.214999,119.685 107.365,119.695 L107.5,119.705 Z M110.305,117.505 C110.591668,117.505 110.808333,117.585833 110.955,117.7475 C111.101667,117.909167 111.175,118.149998 111.175,118.47 L111.175,119.825 C111.175,119.888334 111.156667,119.9375 111.12,119.9725 C111.083333,120.0075 111.035,120.025 110.975,120.025 C110.911666,120.025 110.861667,120.0075 110.825,119.9725 C110.788333,119.9375 110.77,119.888334 110.77,119.825 L110.77,118.48 C110.77,118.263332 110.725834,118.103334 110.6375,118 C110.549166,117.896666 110.408334,117.845 110.215,117.845 C109.991666,117.845 109.813334,117.913333 109.68,118.05 C109.546666,118.186667 109.48,118.371666 109.48,118.605 L109.48,119.825 C109.48,119.888334 109.4625,119.9375 109.4275,119.9725 C109.3925,120.0075 109.343334,120.025 109.28,120.025 C109.216666,120.025 109.166667,120.0075 109.13,119.9725 C109.093333,119.9375 109.075,119.888334 109.075,119.825 L109.075,116.645 C109.075,116.588333 109.094166,116.541667 109.1325,116.505 C109.170834,116.468333 109.22,116.45 109.28,116.45 C109.343334,116.45 109.3925,116.4675 109.4275,116.5025 C109.4625,116.5375 109.48,116.585 109.48,116.645 L109.48,117.955 C109.56,117.808333 109.671666,117.696667 109.815,117.62 C109.958334,117.543333 110.121666,117.505 110.305,117.505 Z M114.12,117.515 C114.260001,117.505 114.33,117.561666 114.33,117.685 C114.33,117.738334 114.315,117.780833 114.285,117.8125 C114.255,117.844167 114.203334,117.863333 114.13,117.87 L113.98,117.885 C113.756666,117.905 113.590834,117.984166 113.4825,118.1225 C113.374166,118.260834 113.32,118.423332 113.32,118.61 L113.32,119.825 C113.32,119.891667 113.301667,119.941666 113.265,119.975 C113.228333,120.008334 113.18,120.025 113.12,120.025 C113.06,120.025 113.010834,120.0075 112.9725,119.9725 C112.934166,119.9375 112.915,119.888334 112.915,119.825 L112.915,117.715 C112.915,117.651666 112.935,117.6025 112.975,117.5675 C113.015,117.5325 113.063333,117.515 113.12,117.515 C113.173334,117.515 113.218333,117.5325 113.255,117.5675 C113.291667,117.6025 113.31,117.65 113.31,117.71 L113.31,117.99 C113.38,117.843333 113.479166,117.731667 113.6075,117.655 C113.735834,117.578333 113.883332,117.533333 114.05,117.52 L114.12,117.515 Z M117.53,117.515 C117.593334,117.515 117.6425,117.533333 117.6775,117.57 C117.7125,117.606667 117.73,117.655 117.73,117.715 L117.73,119.83 C117.73,119.886667 117.7125,119.933333 117.6775,119.97 C117.6425,120.006667 117.593334,120.025 117.53,120.025 C117.47,120.025 117.4225,120.0075 117.3875,119.9725 C117.3525,119.9375 117.335,119.891667 117.335,119.835 L117.335,119.585 C117.258333,119.731667 117.150834,119.843333 117.0125,119.92 C116.874166,119.996667 116.718334,120.035 116.545,120.035 C116.254999,120.035 116.036667,119.954167 115.89,119.7925 C115.743333,119.630833 115.67,119.391668 115.67,119.075 L115.67,117.715 C115.67,117.655 115.688333,117.606667 115.725,117.57 C115.761667,117.533333 115.811666,117.515 115.875,117.515 C115.938334,117.515 115.9875,117.533333 116.0225,117.57 C116.0575,117.606667 116.075,117.655 116.075,117.715 L116.075,119.065 C116.075,119.281668 116.118333,119.440833 116.205,119.5425 C116.291667,119.644167 116.428332,119.695 116.615,119.695 C116.828334,119.695 116.999999,119.625834 117.13,119.4875 C117.260001,119.349166 117.325,119.166668 117.325,118.94 L117.325,117.715 C117.325,117.655 117.343333,117.606667 117.38,117.57 C117.416667,117.533333 117.466666,117.515 117.53,117.515 Z" id="valid-thru" fill="#000000"></path>
                <path d="M128.8,118.048 C128.315998,118.048 127.948001,117.864002 127.696,117.496 C127.443999,117.127998 127.318,116.592004 127.318,115.888 C127.318,115.179996 127.443999,114.642002 127.696,114.274 C127.948001,113.905998 128.315998,113.722 128.8,113.722 C129.284002,113.722 129.651999,113.904998 129.904,114.271 C130.156001,114.637002 130.282,115.173996 130.282,115.882 C130.282,116.590004 130.156001,117.127998 129.904,117.496 C129.651999,117.864002 129.284002,118.048 128.8,118.048 Z M128.8,117.634 C129.136002,117.634 129.383999,117.492001 129.544,117.208 C129.704001,116.923999 129.784,116.482003 129.784,115.882 C129.784,115.277997 129.705001,114.836001 129.547,114.556 C129.388999,114.275999 129.140002,114.136 128.8,114.136 C128.463998,114.136 128.216001,114.276999 128.056,114.559 C127.895999,114.841001 127.816,115.281997 127.816,115.882 C127.816,116.482003 127.895999,116.923999 128.056,117.208 C128.216001,117.492001 128.463998,117.634 128.8,117.634 Z M133.574,115.342 C133.830001,115.342 134.057999,115.397999 134.258,115.51 C134.458001,115.622001 134.613999,115.779999 134.726,115.984 C134.838001,116.188001 134.894,116.421999 134.894,116.686 C134.894,116.946001 134.836001,117.179999 134.72,117.388 C134.603999,117.596001 134.442001,117.757999 134.234,117.874 C134.025999,117.990001 133.792001,118.048 133.532,118.048 C133.019997,118.048 132.625001,117.870002 132.347,117.514 C132.068999,117.157998 131.93,116.650003 131.93,115.99 C131.93,115.517998 131.993999,115.112002 132.122,114.772 C132.250001,114.431998 132.435999,114.172001 132.68,113.992 C132.924001,113.811999 133.213998,113.722 133.55,113.722 C133.778001,113.722 134.004999,113.766 134.231,113.854 C134.457001,113.942 134.649999,114.061999 134.81,114.214 C134.878,114.278 134.912,114.346 134.912,114.418 C134.912,114.478 134.896,114.528 134.864,114.568 C134.832,114.608 134.794,114.628 134.75,114.628 C134.694,114.628 134.636,114.606 134.576,114.562 C134.227998,114.277999 133.890002,114.136 133.562,114.136 C133.205998,114.136 132.928001,114.297998 132.728,114.622 C132.527999,114.946002 132.428,115.399997 132.428,115.984 L132.428,116.062 C132.52,115.837999 132.668999,115.662001 132.875,115.534 C133.081001,115.405999 133.313999,115.342 133.574,115.342 Z M133.508,117.634 C133.780001,117.634 133.997999,117.548001 134.162,117.376 C134.326001,117.203999 134.408,116.976001 134.408,116.692 C134.408,116.407999 134.325001,116.181001 134.159,116.011 C133.992999,115.840999 133.774001,115.756 133.502,115.756 C133.225999,115.756 133.001001,115.842999 132.827,116.017 C132.652999,116.191001 132.566,116.415999 132.566,116.692 C132.566,116.972001 132.652999,117.198999 132.827,117.373 C133.001001,117.547001 133.227999,117.634 133.508,117.634 Z M136.53,118.216 C136.514,118.268 136.488,118.308 136.452,118.336 C136.416,118.364 136.376,118.378 136.332,118.378 C136.276,118.378 136.226,118.358 136.182,118.318 C136.138,118.278 136.116,118.228 136.116,118.168 C136.116,118.144 136.122,118.116 136.134,118.084 L137.55,113.656 C137.566,113.604 137.592,113.564 137.628,113.536 C137.664,113.508 137.704,113.494 137.748,113.494 C137.804,113.494 137.854,113.514 137.898,113.554 C137.942,113.594 137.964,113.646 137.964,113.71 C137.964,113.722 137.96,113.748 137.952,113.788 L136.53,118.216 Z M141.94,117.586 C142.012,117.586 142.068,117.604 142.108,117.64 C142.148,117.676 142.168,117.726 142.168,117.79 C142.168,117.930001 142.092001,118 141.94,118 L139.588,118 C139.52,118 139.464,117.979 139.42,117.937 C139.376,117.895 139.354,117.844 139.354,117.784 C139.354,117.708 139.382,117.642 139.438,117.586 L140.884,115.996 C141.084001,115.771999 141.229,115.571001 141.319,115.393 C141.409,115.214999 141.454,115.036001 141.454,114.856 C141.454,114.623999 141.387001,114.446001 141.253,114.322 C141.118999,114.197999 140.930001,114.136 140.686,114.136 C140.493999,114.136 140.310001,114.171 140.134,114.241 C139.957999,114.311 139.782001,114.417999 139.606,114.562 C139.546,114.61 139.49,114.634 139.438,114.634 C139.394,114.634 139.356,114.613 139.324,114.571 C139.292,114.529 139.276,114.478 139.276,114.418 C139.276,114.334 139.308,114.266 139.372,114.214 C139.536001,114.061999 139.735999,113.942 139.972,113.854 C140.208001,113.766 140.449999,113.722 140.698,113.722 C141.078002,113.722 141.380999,113.821999 141.607,114.022 C141.833001,114.222001 141.946,114.491998 141.946,114.832 C141.946,115.076001 141.891001,115.309999 141.781,115.534 C141.670999,115.758001 141.490001,116.007999 141.238,116.284 L140.038,117.586 L141.94,117.586 Z M146.444,117.586 C146.516,117.586 146.572,117.604 146.612,117.64 C146.652,117.676 146.672,117.726 146.672,117.79 C146.672,117.858 146.653,117.91 146.615,117.946 C146.577,117.982 146.52,118 146.444,118 L144.458,118 C144.382,118 144.325,117.982 144.287,117.946 C144.249,117.91 144.23,117.858 144.23,117.79 C144.23,117.726 144.25,117.676 144.29,117.64 C144.33,117.604 144.386,117.586 144.458,117.586 L145.202,117.586 L145.202,114.37 L144.548,114.796 C144.516,114.816 144.484,114.826 144.452,114.826 C144.396,114.826 144.347,114.8 144.305,114.748 C144.263,114.696 144.242,114.64 144.242,114.58 C144.242,114.496 144.274,114.436 144.338,114.4 L145.25,113.806 C145.318,113.762 145.388,113.74 145.46,113.74 C145.528,113.74 145.584,113.762 145.628,113.806 C145.672,113.85 145.694,113.912 145.694,113.992 L145.694,117.586 L146.444,117.586 Z" id="06/21" fill="#000000"></path>
            </g>
        </g>
    </g>
</svg>