<?xml version="1.0" encoding="UTF-8"?>
<svg width="185px" height="123px" viewBox="0 0 185 123" version="1.1" xmlns="http://www.w3.org/2000/svg" xmlns:xlink="http://www.w3.org/1999/xlink">
    <!-- Generator: Sketch 50.2 (55047) - http://www.bohemiancoding.com/sketch -->
    <title>icons8-airplane-take-off</title>
    <desc>Created with Sketch.</desc>
    <defs>
        <linearGradient x1="50%" y1="0%" x2="50%" y2="100%" id="linearGradient-1">
            <stop stop-color="#61A3FA" offset="0%"></stop>
            <stop stop-color="#2AA9EE" offset="100%"></stop>
        </linearGradient>
    </defs>
    <g id="Płatności" stroke="none" stroke-width="1" fill="none" fill-rule="evenodd">
        <g id="Desktop-HD" transform="translate(-1130.000000, -1081.000000)" fill="url(#linearGradient-1)" fill-rule="nonzero" stroke="#FFFFFF" stroke-width="2">
            <g id="icons8-airplane-take-off" transform="translate(1237.481462, 1149.006923) scale(-1, 1) rotate(30.000000) translate(-1237.481462, -1149.006923) translate(1147.981462, 1083.506923)">
                <path d="M157.677505,0.00520019954 C150.026462,-0.114482222 142.429838,1.83306654 135.71477,5.70640236 L107.167564,22.2007201 L41.4208384,18.6864287 C38.2972968,18.5232285 35.1737552,19.4153999 32.6052686,21.1888662 L25.8575496,25.8455733 C24.1270855,27.0423892 23.2128784,29.0878586 23.4740804,31.1768487 C23.7352825,33.2658389 25.1174772,35.0175462 27.0982606,35.7682763 L61.4027934,48.6068613 L45.8177392,57.6047517 L11.8614758,54.0142986 C8.84676698,53.6987747 5.88647735,54.3298224 3.26357437,55.8421649 L2.81735494,56.1032887 C1.17395816,57.049863 0.118266777,58.7471675 0.0094324598,60.6403134 C-0.099401857,62.5443415 0.738621449,64.3613284 2.26229993,65.4928647 L27.707732,84.5222583 C32.0828646,87.7971848 37.8184264,88.7764003 43.0315842,87.1334959 L86.1952176,73.5550602 C86.3258186,73.5115396 86.4455369,73.4680189 86.5761379,73.4027394 L78.2067904,123.52762 C77.8476355,125.703651 78.7400772,127.836162 80.5467231,129.087381 C81.5262321,129.761952 82.6472248,130.099234 83.757332,130.099234 C84.7259555,130.099234 85.7054645,129.848993 86.5870207,129.337625 L95.6855579,124.082508 C98.0907925,122.700728 100.01716,120.666141 101.257868,118.196344 L139.306296,42.981821 L157.557787,32.4389469 C164.947628,28.1848077 171.292662,22.5488851 176.396984,15.7270261 L176.614652,15.4332639 C178.377767,13.0722678 178.802219,10.0367062 177.746528,7.30578611 C176.690837,4.5639866 174.340019,2.58379667 171.466796,2.01802851 L165.339431,0.810333196 C162.792713,0.30984459 160.235109,0.0378413663 157.677505,0.00520019954 Z M157.601321,5.56496102 C159.821538,5.59760219 162.052641,5.83696425 164.25109,6.27217052 L170.389337,7.47986862 C171.390612,7.67571005 172.174218,8.3394017 172.544255,9.2968555 C172.91429,10.2543093 172.761924,11.2661632 172.152452,12.0930551 L171.934784,12.3759378 C167.276681,18.5993875 161.508468,23.723942 154.771632,27.6081573 L146.1302,32.60215 L121.457491,46.5287507 C120.11883,47.2794808 119.650845,48.9876675 120.412683,50.3150453 C120.924204,51.2289784 121.860177,51.7403465 122.839686,51.7403465 C123.307674,51.7403465 123.775658,51.6206641 124.200112,51.3704198 L130.643096,47.7473283 L96.2841466,115.672148 C95.5331914,117.173608 94.3577823,118.403068 92.899403,119.251719 L83.7137984,124.430673 L93.0408867,68.5066674 C93.2150214,67.4404135 92.7688019,66.3632772 91.8872458,65.7539885 C91.4083754,65.4275824 90.8533204,65.2534999 90.2873827,65.2534999 C89.8085123,65.2534999 89.3296419,65.3731823 88.8943052,65.634306 L84.2253197,68.3325849 L41.3555365,81.8239794 C37.8401919,82.9228745 33.9983461,82.2591856 31.0489392,80.0613954 L5.6143926,60.9231988 L6.04972931,60.6620751 C7.6387097,59.7481419 9.44535565,59.3564563 11.2737698,59.5522977 L46.1333576,63.2297921 C46.710178,63.2950716 47.3087667,63.175392 47.8094025,62.8816271 L69.4674052,50.3803276 C69.478288,50.3694453 69.4891707,50.3694453 69.5000562,50.3585659 L138.500925,10.537192 C144.345319,7.16434477 150.940669,5.46704031 157.601321,5.56496102 Z M141.439446,15.2156608 C141.080294,15.2591814 140.732025,15.3788611 140.394638,15.5747053 C139.055977,16.3363149 138.598875,18.0445016 139.371598,19.3718793 L142.157753,24.2026689 C142.680157,25.0948432 143.605247,25.595329 144.57387,25.595329 C145.041858,25.595329 145.531611,25.4647671 145.966948,25.2145228 C147.305609,24.4420338 147.751828,22.7447293 146.979105,21.4173488 L144.19295,16.5865592 C143.627012,15.5855847 142.516905,15.0850989 141.439446,15.2156608 Z M129.380619,22.1789612 C129.021467,22.2224818 128.662315,22.3421614 128.335811,22.5380056 C126.99715,23.2996152 126.540048,25.0078019 127.301886,26.3351797 L130.088041,31.1659693 C130.610445,32.0581435 131.54642,32.5586294 132.515044,32.5586294 C132.983031,32.5586294 133.461902,32.4280675 133.908121,32.1778232 C135.235899,31.4053341 135.693002,29.7080297 134.920278,28.3806491 L132.134123,23.5498595 C131.557303,22.5488851 130.447196,22.0483993 129.380619,22.1789612 Z M41.1269854,24.257069 L98.3084609,27.3035129 L67.6498738,44.9946493 L29.0355076,30.4261186 L35.7723439,25.7694115 C37.3286733,24.6922753 39.2223866,24.1591483 41.1269854,24.257069 Z M117.31091,29.1422615 C116.951758,29.1857821 116.592603,29.3054618 116.266102,29.501306 C114.92744,30.2629156 114.470338,31.9711023 115.243059,33.29848 L118.029214,38.1292696 C118.551618,39.0214439 119.47671,39.5219297 120.445334,39.5219297 C120.913322,39.5219297 121.403075,39.3913678 121.838411,39.1411235 C123.177073,38.3686345 123.623292,36.67133 122.850569,35.3439495 L120.064414,30.5131599 C119.487593,29.5121855 118.388369,29.0116996 117.31091,29.1422615 Z M105.252083,36.1055619 C104.882045,36.1490825 104.533776,36.2687621 104.207275,36.4646063 C102.868614,37.2262159 102.411511,38.9344026 103.173349,40.2617804 L105.959504,45.09257 C106.481908,45.9847442 107.417884,46.4852301 108.386507,46.4852301 C108.854495,46.4852301 109.333365,46.3546682 109.779585,46.1044239 C111.10736,45.3319348 111.564465,43.6346304 110.791742,42.3072499 L108.005587,37.4764602 C107.428766,36.4754858 106.318656,35.975 105.252083,36.1055619 Z M93.1823732,43.0688622 C92.8232183,43.1123828 92.474949,43.2320625 92.1375651,43.4279067 C90.798904,44.1895163 90.3417991,45.897703 91.1145224,47.2250807 L93.9006774,52.0558703 C94.4230814,52.9480446 95.3481713,53.4485304 96.3167975,53.4485304 C96.7847824,53.4485304 97.2745383,53.3179685 97.709875,53.0677242 C99.0485333,52.2952352 99.4947555,50.5979307 98.7329149,49.2705502 L95.9467599,44.4397606 C95.3590568,43.4387862 94.2598295,42.9383003 93.1823732,43.0688622 Z M81.1126608,50.0321626 C80.7643915,50.0756832 80.4052394,50.1953628 80.0678527,50.3912071 C78.7291944,51.1528166 78.2829722,52.8610033 79.0556956,54.1883811 L81.8418505,59.0191707 C82.3533719,59.911345 83.2893444,60.4118308 84.2470851,60.4118308 C84.7259555,60.4118308 85.2048259,60.2812689 85.6401626,60.0310246 C86.9788237,59.2585355 87.4359286,57.5612311 86.6632053,56.2338506 L83.8770503,51.4030609 C83.3002299,50.4020865 82.1901199,49.9016007 81.1126608,50.0321626 Z M69.053834,56.9954629 C68.6946819,57.0389836 68.3355298,57.1586632 67.9981431,57.3545074 C66.6703676,58.116117 66.2132626,59.8243037 66.985986,61.1516814 L69.7721409,65.9824711 C70.294545,66.8746453 71.2196348,67.3751311 72.1882583,67.3751311 C72.6562459,67.3751311 73.1351163,67.2445692 73.570453,66.9943249 C74.9091141,66.2218359 75.3662163,64.5245314 74.6043784,63.1971509 L71.8182235,58.3663613 C71.2305175,57.3653869 70.131293,56.864901 69.053834,56.9954629 Z" id="Shape"></path>
            </g>
        </g>
    </g>
</svg>