<?xml version="1.0" encoding="UTF-8"?>
<svg width="118px" height="91px" viewBox="0 0 118 91" version="1.1" xmlns="http://www.w3.org/2000/svg" xmlns:xlink="http://www.w3.org/1999/xlink">
    <!-- Generator: Sketch 50.2 (55047) - http://www.bohemiancoding.com/sketch -->
    <title>Mastercard-logo</title>
    <desc>Created with Sketch.</desc>
    <defs></defs>
    <g id="Welcome-V2" stroke="none" stroke-width="1" fill="none" fill-rule="evenodd">
        <g id="Desktop-STRONA-GLOWNA-1" transform="translate(-1105.000000, -2937.000000)">
            <g id="3-waluty" transform="translate(23.000000, 1830.000000)">
                <g id="Logos" transform="translate(44.000000, 1105.000000)">
                    <g id="Mastercard-logo" transform="translate(1037.000000, 0.000000)">
                        <g>
                            <g id="g15" transform="translate(6.379778, 78.465265)" fill="#000000" fill-rule="nonzero">
                                <path d="M15.9783571,14.1694865 L15.9783571,8.13991778 C15.9783571,5.8285831 14.5714578,4.32119092 12.1596303,4.32119092 C10.9537165,4.32119092 9.64730996,4.72316217 8.74287465,6.02956873 C8.03942497,4.92414779 7.03449685,4.32119092 5.52710466,4.32119092 C4.52217654,4.32119092 3.51724842,4.62266936 2.71330593,5.72809029 L2.71330593,4.52217654 L0.602956873,4.52217654 L0.602956873,14.1694865 L2.71330593,14.1694865 L2.71330593,8.84336746 C2.71330593,7.13498966 3.61774124,6.33104716 5.0246406,6.33104716 C6.43153997,6.33104716 7.13498966,7.23548247 7.13498966,8.84336746 L7.13498966,14.1694865 L9.24533871,14.1694865 L9.24533871,8.84336746 C9.24533871,7.13498966 10.2502668,6.33104716 11.5566734,6.33104716 C12.9635728,6.33104716 13.6670224,7.23548247 13.6670224,8.84336746 L13.6670224,14.1694865 L15.9783571,14.1694865 Z M47.2316217,4.52217654 L43.8148661,4.52217654 L43.8148661,1.60788499 L41.704517,1.60788499 L41.704517,4.52217654 L39.7951536,4.52217654 L39.7951536,6.43153997 L41.704517,6.43153997 L41.704517,10.8532237 C41.704517,13.0640656 42.6089523,14.3704721 45.0207798,14.3704721 C45.9252151,14.3704721 46.9301432,14.0689937 47.6335929,13.6670224 L47.0306361,11.8581518 C46.4276792,12.2601231 45.7242295,12.3606159 45.2217654,12.3606159 C44.2168373,12.3606159 43.8148661,11.757659 43.8148661,10.7527309 L43.8148661,6.43153997 L47.2316217,6.43153997 L47.2316217,4.52217654 Z M65.1193422,4.32119092 C63.9134285,4.32119092 63.109486,4.92414779 62.6070219,5.72809029 L62.6070219,4.52217654 L60.4966729,4.52217654 L60.4966729,14.1694865 L62.6070219,14.1694865 L62.6070219,8.74287465 C62.6070219,7.13498966 63.3104716,6.23055435 64.6168782,6.23055435 C65.0188494,6.23055435 65.5213135,6.33104716 65.9232847,6.43153997 L66.5262416,4.42168373 C66.1242704,4.32119092 65.5213135,4.32119092 65.1193422,4.32119092 Z M38.0867758,5.32611904 C37.0818477,4.62266936 35.6749483,4.32119092 34.1675561,4.32119092 C31.7557286,4.32119092 30.1478436,5.52710466 30.1478436,7.43646809 C30.1478436,9.04435309 31.3537574,9.9487884 33.4641064,10.2502668 L34.4690345,10.3507596 C35.5744555,10.5517453 36.1774124,10.8532237 36.1774124,11.3556878 C36.1774124,12.0591375 35.3734699,12.5616015 33.9665705,12.5616015 C32.5596711,12.5616015 31.4542502,12.0591375 30.7508005,11.5566734 L29.7458724,13.1645584 C30.8512933,13.9685009 32.3586855,14.3704721 33.8660777,14.3704721 C36.6798764,14.3704721 38.2877614,13.0640656 38.2877614,11.255195 C38.2877614,9.54681715 36.9813548,8.64238184 34.9714986,8.3409034 L33.9665705,8.24041059 C33.0621352,8.13991778 32.3586855,7.93893215 32.3586855,7.33597528 C32.3586855,6.6325256 33.0621352,6.23055435 34.1675561,6.23055435 C35.3734699,6.23055435 36.5793836,6.73301841 37.1823405,7.03449685 L38.0867758,5.32611904 Z M94.1617649,4.32119092 C92.9558512,4.32119092 92.1519087,4.92414779 91.6494446,5.72809029 L91.6494446,4.52217654 L89.5390956,4.52217654 L89.5390956,14.1694865 L91.6494446,14.1694865 L91.6494446,8.74287465 C91.6494446,7.13498966 92.3528943,6.23055435 93.6593009,6.23055435 C94.0612721,6.23055435 94.5637362,6.33104716 94.9657074,6.43153997 L95.5686643,4.42168373 C95.166693,4.32119092 94.5637362,4.32119092 94.1617649,4.32119092 Z M67.2296913,9.34583152 C67.2296913,12.2601231 69.2395475,14.3704721 72.3548247,14.3704721 C73.7617241,14.3704721 74.7666522,14.0689937 75.7715803,13.2650512 L74.7666522,11.5566734 C73.9627097,12.1596303 73.1587672,12.4611087 72.2543319,12.4611087 C70.5459541,12.4611087 69.3400403,11.255195 69.3400403,9.34583152 C69.3400403,7.53696091 70.5459541,6.33104716 72.2543319,6.23055435 C73.1587672,6.23055435 73.9627097,6.53203279 74.7666522,7.13498966 L75.7715803,5.42661185 C74.7666522,4.62266936 73.7617241,4.32119092 72.3548247,4.32119092 C69.2395475,4.32119092 67.2296913,6.43153997 67.2296913,9.34583152 Z M86.7252968,9.34583152 L86.7252968,4.52217654 L84.6149478,4.52217654 L84.6149478,5.72809029 C83.9114981,4.82365498 82.90657,4.32119092 81.6001634,4.32119092 C78.8868575,4.32119092 76.7765084,6.43153997 76.7765084,9.34583152 C76.7765084,12.2601231 78.8868575,14.3704721 81.6001634,14.3704721 C83.0070628,14.3704721 84.0119909,13.8680081 84.6149478,12.9635728 L84.6149478,14.1694865 L86.7252968,14.1694865 L86.7252968,9.34583152 Z M78.9873503,9.34583152 C78.9873503,7.63745372 80.0927712,6.23055435 81.9016418,6.23055435 C83.6100197,6.23055435 84.8159334,7.53696091 84.8159334,9.34583152 C84.8159334,11.0542093 83.6100197,12.4611087 81.9016418,12.4611087 C80.0927712,12.3606159 78.9873503,11.0542093 78.9873503,9.34583152 Z M53.7636545,4.32119092 C50.9498557,4.32119092 48.9399995,6.33104716 48.9399995,9.34583152 C48.9399995,12.3606159 50.9498557,14.3704721 53.8641473,14.3704721 C55.2710466,14.3704721 56.677946,13.9685009 57.7833669,13.0640656 L56.7784388,11.5566734 C55.9744963,12.1596303 54.9695682,12.5616015 53.9646401,12.5616015 C52.6582335,12.5616015 51.351827,11.9586446 51.0503485,10.2502668 L58.1853382,10.2502668 C58.1853382,9.9487884 58.1853382,9.74780277 58.1853382,9.44632434 C58.285831,6.33104716 56.4769604,4.32119092 53.7636545,4.32119092 Z M53.7636545,6.13006154 C55.070061,6.13006154 55.9744963,6.93400403 56.175482,8.44139622 L51.1508414,8.44139622 C51.351827,7.13498966 52.2562623,6.13006154 53.7636545,6.13006154 Z M106.12041,9.34583152 L106.12041,0.703449685 L104.010061,0.703449685 L104.010061,5.72809029 C103.306611,4.82365498 102.301683,4.32119092 100.995276,4.32119092 C98.2819702,4.32119092 96.1716212,6.43153997 96.1716212,9.34583152 C96.1716212,12.2601231 98.2819702,14.3704721 100.995276,14.3704721 C102.402176,14.3704721 103.407104,13.8680081 104.010061,12.9635728 L104.010061,14.1694865 L106.12041,14.1694865 L106.12041,9.34583152 Z M98.382463,9.34583152 C98.382463,7.63745372 99.487884,6.23055435 101.296755,6.23055435 C103.005132,6.23055435 104.211046,7.53696091 104.211046,9.34583152 C104.211046,11.0542093 103.005132,12.4611087 101.296755,12.4611087 C99.487884,12.3606159 98.382463,11.0542093 98.382463,9.34583152 Z M27.8365089,9.34583152 L27.8365089,4.52217654 L25.7261599,4.52217654 L25.7261599,5.72809029 C25.0227102,4.82365498 24.0177821,4.32119092 22.7113755,4.32119092 C19.9980696,4.32119092 17.8877206,6.43153997 17.8877206,9.34583152 C17.8877206,12.2601231 19.9980696,14.3704721 22.7113755,14.3704721 C24.1182749,14.3704721 25.123203,13.8680081 25.7261599,12.9635728 L25.7261599,14.1694865 L27.8365089,14.1694865 L27.8365089,9.34583152 Z M19.9980696,9.34583152 C19.9980696,7.63745372 21.1034905,6.23055435 22.9123612,6.23055435 C24.620739,6.23055435 25.8266527,7.53696091 25.8266527,9.34583152 C25.8266527,11.0542093 24.620739,12.4611087 22.9123612,12.4611087 C21.1034905,12.3606159 19.9980696,11.0542093 19.9980696,9.34583152 Z" id="XMLID_1775_"></path>
                            </g>
                            <g id="XMLID_328_" transform="translate(0.350210, 1.085800)" fill-rule="nonzero">
                                <rect id="rect19" fill="#FF5F00" x="43.4129049" y="8.64239189" width="31.6552358" height="56.8789296"></rect>
                                <path d="M45.4227511,37.0818477 C45.4227511,25.5251743 50.8493629,15.2749074 59.1902663,8.64238184 C53.0602048,3.81872686 45.3222583,0.904435309 36.880862,0.904435309 C16.8827924,0.904435309 0.703449685,17.0837781 0.703449685,37.0818477 C0.703449685,57.0799173 16.8827924,73.25926 36.880862,73.25926 C45.3222583,73.25926 53.0602048,70.3449685 59.1902663,65.5213135 C50.8493629,58.9892807 45.4227511,48.638521 45.4227511,37.0818477 Z" id="XMLID_330_" fill="#EB001B"></path>
                                <path d="M117.777576,37.0818477 C117.777576,57.0799173 101.598233,73.25926 81.6001634,73.25926 C73.1587672,73.25926 65.4208207,70.3449685 59.2907591,65.5213135 C67.7321553,58.8887879 73.0582744,48.638521 73.0582744,37.0818477 C73.0582744,25.5251743 67.6316625,15.2749074 59.2907591,8.64238184 C65.4208207,3.81872686 73.1587672,0.904435309 81.6001634,0.904435309 C101.598233,0.904435309 117.777576,17.1842709 117.777576,37.0818477 Z" id="path22" fill="#F79E1B"></path>
                            </g>
                        </g>
                    </g>
                </g>
            </g>
        </g>
    </g>
</svg>