<?xml version="1.0" encoding="UTF-8"?>
<svg width="107px" height="50px" viewBox="0 0 107 50" version="1.1" xmlns="http://www.w3.org/2000/svg" xmlns:xlink="http://www.w3.org/1999/xlink">
    <!-- Generator: Sketch 50.2 (55047) - http://www.bohemiancoding.com/sketch -->
    <title>ApplePay</title>
    <desc>Created with Sketch.</desc>
    <defs></defs>
    <g id="Welcome-V2" stroke="none" stroke-width="1" fill="none" fill-rule="evenodd">
        <g id="Desktop-STRONA-GLOWNA-1" transform="translate(-1559.000000, -2958.000000)" fill="#0B0B09">
            <g id="3-waluty" transform="translate(23.000000, 1830.000000)">
                <g id="Logos" transform="translate(44.000000, 1105.000000)">
                    <g id="ApplePay" transform="translate(1492.000000, 23.000000)">
                        <g>
                            <path d="M23.062,6.553 C24.455,4.919 25.393,2.645 25.137,0.382 C23.129,0.46 20.7,1.678 19.259,3.311 C17.968,4.757 16.837,7.072 17.142,9.29 C19.381,9.458 21.668,8.188 23.062,6.553 M28.083,20.916 C28.139,26.766 33.381,28.712 33.439,28.737 C33.394,28.874 32.601,31.511 30.677,34.234 C29.014,36.589 27.288,38.935 24.569,38.983 C21.897,39.031 21.038,37.448 17.983,37.448 C14.929,37.448 13.975,38.935 11.445,39.031 C8.821,39.127 6.822,36.485 5.145,34.139 C1.718,29.34 -0.901,20.579 2.616,14.665 C4.363,11.728 7.484,9.868 10.873,9.82 C13.45,9.773 15.883,11.5 17.458,11.5 C19.033,11.5 21.989,9.423 25.097,9.728 C26.398,9.78 30.05,10.237 32.396,13.562 C32.207,13.675 28.038,16.026 28.083,20.916" id="Fill-17"></path>
                            <path d="M45.741,21.28 C46.346,21.453 47.022,21.574 47.77,21.644 C48.517,21.713 49.317,21.748 50.171,21.748 C53.375,21.748 55.857,21.018 57.619,19.558 C59.381,18.098 60.262,15.96 60.262,13.144 C60.262,11.788 60.031,10.605 59.568,9.597 C59.105,8.588 58.447,7.763 57.593,7.119 C56.739,6.476 55.725,5.99 54.55,5.659 C53.376,5.329 52.076,5.163 50.652,5.163 C49.514,5.163 48.535,5.207 47.716,5.294 C46.897,5.381 46.239,5.476 45.741,5.58 L45.741,21.28 Z M43.23,3.756 C44.263,3.582 45.402,3.426 46.648,3.287 C47.893,3.148 49.264,3.078 50.759,3.078 C52.895,3.078 54.737,3.33 56.286,3.834 C57.834,4.338 59.106,5.06 60.102,5.999 C60.957,6.833 61.625,7.824 62.105,8.971 C62.585,10.119 62.825,11.44 62.825,12.935 C62.825,14.743 62.496,16.326 61.838,17.681 C61.179,19.038 60.281,20.176 59.142,21.097 C58.003,22.018 56.65,22.705 55.084,23.157 C53.518,23.609 51.809,23.835 49.958,23.835 C48.285,23.835 46.879,23.713 45.741,23.47 L45.741,38.49 L43.23,38.49 L43.23,3.756 Z" id="Fill-18"></path>
                            <path d="M80.275,25.087 C78.922,25.052 77.507,25.104 76.03,25.243 C74.553,25.382 73.192,25.687 71.946,26.156 C70.7,26.626 69.668,27.312 68.849,28.216 C68.031,29.121 67.621,30.32 67.621,31.815 C67.621,33.588 68.137,34.892 69.169,35.727 C70.201,36.561 71.358,36.978 72.64,36.978 C73.672,36.978 74.597,36.839 75.416,36.561 C76.234,36.282 76.946,35.908 77.551,35.439 C78.156,34.97 78.663,34.44 79.073,33.849 C79.482,33.258 79.794,32.65 80.008,32.024 C80.186,31.328 80.275,30.823 80.275,30.51 L80.275,25.087 Z M82.785,32.544 C82.785,33.553 82.802,34.562 82.838,35.57 C82.873,36.578 82.98,37.551 83.158,38.49 L80.808,38.49 L80.435,34.944 L80.328,34.944 C80.007,35.431 79.598,35.918 79.1,36.405 C78.602,36.891 78.023,37.334 77.365,37.734 C76.707,38.134 75.959,38.456 75.122,38.699 C74.285,38.942 73.369,39.063 72.373,39.063 C71.127,39.063 70.032,38.864 69.089,38.464 C68.145,38.065 67.371,37.543 66.766,36.9 C66.161,36.256 65.707,35.517 65.405,34.683 C65.102,33.849 64.951,33.015 64.951,32.18 C64.951,29.225 66.223,26.947 68.768,25.348 C71.314,23.748 75.149,22.983 80.275,23.053 L80.275,22.375 C80.275,21.714 80.213,20.958 80.088,20.106 C79.963,19.254 79.687,18.445 79.26,17.681 C78.833,16.916 78.193,16.273 77.338,15.752 C76.484,15.23 75.327,14.969 73.867,14.969 C72.764,14.969 71.67,15.134 70.585,15.464 C69.499,15.794 68.511,16.255 67.621,16.846 L66.82,15.02 C67.959,14.256 69.134,13.709 70.344,13.379 C71.554,13.048 72.818,12.883 74.134,12.883 C75.914,12.883 77.365,13.178 78.486,13.769 C79.607,14.36 80.488,15.125 81.129,16.064 C81.77,17.002 82.206,18.054 82.438,19.219 C82.669,20.384 82.785,21.54 82.785,22.687 L82.785,32.544 Z" id="Fill-19"></path>
                            <path d="M87.693,13.456 L94.206,29.729 C94.562,30.633 94.901,31.563 95.221,32.519 C95.542,33.475 95.826,34.353 96.075,35.153 L96.182,35.153 C96.431,34.388 96.716,33.527 97.036,32.571 C97.357,31.615 97.712,30.633 98.104,29.623 L104.191,13.456 L106.86,13.456 L99.44,31.815 C98.691,33.762 97.988,35.527 97.33,37.109 C96.671,38.691 96.004,40.117 95.328,41.386 C94.652,42.655 93.966,43.776 93.272,44.75 C92.578,45.723 91.804,46.575 90.949,47.305 C89.953,48.174 89.036,48.808 88.2,49.209 C87.364,49.609 86.803,49.861 86.518,49.965 L85.663,47.93 C86.304,47.652 87.016,47.287 87.799,46.835 C88.582,46.383 89.348,45.792 90.095,45.062 C90.736,44.436 91.439,43.61 92.204,42.585 C92.97,41.559 93.655,40.316 94.26,38.855 C94.474,38.299 94.581,37.934 94.581,37.76 C94.581,37.517 94.474,37.152 94.26,36.665 L85.023,13.456 L87.693,13.456" id="Fill-20"></path>
                        </g>
                    </g>
                </g>
            </g>
        </g>
    </g>
</svg>