<?xml version="1.0" encoding="UTF-8"?>
<svg width="192px" height="30px" viewBox="0 0 192 30" version="1.1" xmlns="http://www.w3.org/2000/svg" xmlns:xlink="http://www.w3.org/1999/xlink">
    <!-- Generator: Sketch 50.2 (55047) - http://www.bohemiancoding.com/sketch -->
    <title>Idea Bank</title>
    <desc>Created with Sketch.</desc>
    <defs></defs>
    <g id="Welcome-V2" stroke="none" stroke-width="1" fill="none" fill-rule="evenodd">
        <g id="Desktop-STRONA-GLOWNA-1" transform="translate(-563.000000, -2968.000000)" fill="#009DE0">
            <g id="3-waluty" transform="translate(23.000000, 1830.000000)">
                <g id="Logos" transform="translate(44.000000, 1105.000000)">
                    <g id="Idea-Bank" transform="translate(496.000000, 33.000000)">
                        <g>
                            <g id="Group" transform="translate(109.500000, 0.000000)" fill-rule="nonzero">
                                <path d="M0.9705,0.6825 L11.0295,0.6825 C12.534,0.6825 13.86,0.8655 15.0015,1.2285 C16.1415,1.5915 17.0955,2.112 17.8605,2.787 C18.6285,3.465 19.2045,4.272 19.593,5.214 C19.9845,6.1545 20.181,7.2015 20.181,8.352 C20.181,9.132 20.079,9.8265 19.8765,10.44 C19.677,11.055 19.4025,11.5995 19.05,12.0795 C18.699,12.555 18.2895,12.969 17.826,13.317 C17.3625,13.668 16.8795,13.9575 16.3815,14.1855 L16.3815,14.2575 C17.0085,14.4105 17.601,14.6655 18.165,15.033 C18.732,15.396 19.2345,15.849 19.674,16.3845 C20.1105,16.926 20.4555,17.5575 20.709,18.2895 C20.958,19.017 21.084,19.8195 21.084,20.6955 C21.084,21.999 20.844,23.1615 20.367,24.1755 C19.8915,25.1925 19.215,26.058 18.351,26.7735 C17.484,27.4905 16.4445,28.035 15.243,28.413 C14.0385,28.788 12.7095,28.977 11.25,28.977 L0.9675,28.977 L0.9705,0.6825 Z M10.0485,12.3 C11.4045,12.3 12.495,12.0045 13.3095,11.4135 C14.127,10.8225 14.535,9.966 14.535,8.838 C14.535,7.6575 14.1525,6.807 13.3845,6.279 C12.6165,5.754 11.6655,5.493 10.5375,5.493 L6.615,5.493 L6.615,12.3 L10.0485,12.3 Z M10.3485,24.1665 C12.1305,24.1665 13.3875,23.823 14.115,23.133 C14.844,22.443 15.21,21.5955 15.21,20.592 C15.21,20.1375 15.1335,19.6935 14.9835,19.2525 C14.8335,18.81 14.58,18.4155 14.232,18.066 C13.878,17.715 13.4235,17.4315 12.876,17.2185 C12.3195,17.004 11.631,16.9005 10.8015,16.9005 L6.615,16.9005 L6.615,24.1695 L10.3485,24.1665 Z" id="Shape"></path>
                                <path d="M35.322,26.445 L35.2395,26.4735 C34.3365,27.6495 33.2895,28.449 32.097,28.878 C30.9075,29.3025 29.7465,29.514 28.6215,29.514 C27.8685,29.514 27.09,29.415 26.2845,29.2155 C25.482,29.0115 24.7515,28.683 24.0855,28.215 C23.424,27.75 22.878,27.144 22.467,26.3895 C22.056,25.6335 21.8475,24.7095 21.8475,23.6025 C21.8475,23.076 21.924,22.494 22.0725,21.8535 C22.2225,21.2115 22.5735,20.604 23.127,20.0265 C23.6745,19.4475 24.504,18.939 25.608,18.4995 C26.709,18.0615 28.203,17.781 30.0825,17.6565 L35.0865,17.3535 L35.0865,16.449 C35.0865,15.2925 34.7535,14.433 34.086,13.869 C33.4275,13.302 32.49,13.023 31.284,13.023 C30.1545,13.023 29.2785,13.2825 28.6515,13.8 C28.0245,14.319 27.684,15.018 27.6315,15.9045 L22.443,15.9045 C22.4895,15.15 22.674,14.3745 22.9845,13.5855 C23.301,12.7965 23.808,12.063 24.513,11.3985 C25.212,10.7355 26.1285,10.1865 27.2565,9.759 C28.3845,9.336 29.805,9.117 31.5075,9.117 C32.715,9.117 33.846,9.2385 34.8975,9.474 C35.955,9.7125 36.8805,10.083 37.689,10.5825 C38.4885,11.088 39.1245,11.73 39.591,12.5205 C40.0575,13.3065 40.29,14.2545 40.29,15.36 L40.29,26.5635 C40.29,27.0675 40.3155,27.507 40.362,27.885 C40.4115,28.2645 40.4715,28.6275 40.5465,28.98 L35.3205,28.98 L35.3205,26.445 L35.322,26.445 Z M35.0925,20.5665 L30.573,20.9775 C29.319,21.1035 28.455,21.354 27.9795,21.732 C27.4995,22.1055 27.261,22.647 27.261,23.3505 C27.261,23.7765 27.354,24.1335 27.543,24.4215 C27.7305,24.711 27.9735,24.942 28.275,25.119 C28.575,25.2945 28.932,25.4205 29.3475,25.497 C29.763,25.5705 30.1905,25.608 30.645,25.608 C31.071,25.608 31.542,25.5465 32.052,25.4205 C32.568,25.2945 33.054,25.101 33.5055,24.8385 C33.9585,24.573 34.335,24.2325 34.6335,23.82 C34.932,23.4075 35.088,22.914 35.088,22.335 L35.0925,20.5665 Z" id="Shape"></path>
                                <path d="M54.873,17.208 C54.873,16.503 54.78,15.9135 54.591,15.4365 C54.4035,14.964 54.147,14.5785 53.82,14.2905 C53.4945,14.0025 53.1285,13.7925 52.728,13.6665 C52.3275,13.542 51.9105,13.479 51.4875,13.479 C50.3865,13.479 49.5195,13.9005 48.8925,14.742 C48.2655,15.5835 47.949,16.6635 47.949,17.994 L47.949,28.9755 L42.5415,28.9755 L42.5415,9.6255 L47.721,9.6255 L47.721,12.1635 L47.8125,12.1635 C48.615,10.986 49.491,10.1805 50.4465,9.756 C51.396,9.333 52.4235,9.114 53.5275,9.114 C54.681,9.114 55.6845,9.291 56.5335,9.645 C57.381,9.9915 58.0905,10.479 58.6575,11.0925 C59.2185,11.706 59.631,12.4215 59.8965,13.2375 C60.1575,14.052 60.291,14.9235 60.291,15.852 L60.291,28.98 L54.8775,28.98 L54.8775,17.2095 L54.873,17.2095 L54.873,17.208 Z" id="Shape"></path>
                                <polygon id="Shape" points="67.8885 19.5015 67.809 19.4955 67.809 28.977 62.4015 28.977 62.4015 0.6825 67.809 0.6825 67.809 18.105 67.8885 18.1035 73.725 9.6255 80.007 9.6405 73.5375 18.3585 80.274 28.977 73.6125 28.977"></polygon>
                            </g>
                            <path d="M13.578,6.7815 C13.578,10.4385 10.605,13.41 6.948,13.41 C3.288,13.41 0.3195,10.4415 0.3195,6.7815 C0.3195,3.117 3.288,0.153 6.948,0.153 C10.605,0.153 13.578,3.1155 13.578,6.7815 M29.694,6.7815 C29.694,3.117 26.7255,0.153 23.067,0.153 C19.41,0.153 16.443,3.117 16.443,6.7815 C16.443,10.4385 19.41,13.41 23.067,13.41 C26.727,13.4085 29.694,10.44 29.694,6.7815 M13.578,22.902 C13.578,19.242 10.605,16.278 6.948,16.278 C3.288,16.278 0.3195,19.242 0.3195,22.902 C0.3195,26.562 3.288,29.5305 6.948,29.5305 C10.605,29.5305 13.578,26.5635 13.578,22.902 M29.694,22.902 C29.694,19.242 26.7255,16.278 23.067,16.278 C19.41,16.278 16.443,19.242 16.443,22.902 C16.443,26.562 19.41,29.5305 23.067,29.5305 C26.727,29.5305 29.694,26.5635 29.694,22.902" id="Shape" fill-rule="nonzero"></path>
                            <path d="M186.2715,19.2105 C186.2715,18.8355 186.342,18.4905 186.48,18.1635 C186.621,17.835 186.8115,17.55 187.0575,17.307 C187.3005,17.0655 187.5885,16.872 187.9125,16.7325 C188.235,16.593 188.583,16.521 188.955,16.521 C189.327,16.521 189.678,16.593 190.0035,16.7325 C190.329,16.872 190.6125,17.0655 190.854,17.307 C191.097,17.55 191.289,17.838 191.43,18.1635 C191.571,18.489 191.643,18.8355 191.643,19.2105 C191.643,19.5825 191.571,19.929 191.43,20.253 C191.289,20.58 191.097,20.8635 190.854,21.1065 C190.6125,21.351 190.3245,21.54 190.0035,21.6795 C189.678,21.8265 189.327,21.894 188.955,21.894 C188.583,21.894 188.235,21.8265 187.9125,21.6795 C187.5855,21.54 187.3005,21.351 187.0575,21.1065 C186.8115,20.8635 186.621,20.577 186.48,20.253 C186.342,19.9305 186.2715,19.5825 186.2715,19.2105 Z M191.247,19.2105 C191.247,18.8715 191.1885,18.564 191.0655,18.279 C190.9515,17.997 190.788,17.748 190.59,17.544 C190.383,17.3385 190.14,17.178 189.8655,17.058 C189.5835,16.941 189.2805,16.8825 188.9595,16.8825 C188.631,16.8825 188.3325,16.941 188.0535,17.058 C187.7745,17.178 187.536,17.34 187.3335,17.544 C187.128,17.748 186.9705,17.997 186.8505,18.279 C186.735,18.564 186.678,18.873 186.678,19.2105 C186.678,19.5435 186.735,19.8555 186.8505,20.136 C186.9705,20.418 187.1295,20.667 187.3335,20.871 C187.539,21.0795 187.7775,21.2385 188.0535,21.357 C188.3325,21.474 188.631,21.5325 188.9595,21.5325 C189.282,21.5325 189.5835,21.474 189.8655,21.357 C190.1445,21.2385 190.3875,21.0765 190.59,20.871 C190.791,20.6655 190.9515,20.418 191.0655,20.136 C191.187,19.854 191.247,19.542 191.247,19.2105 Z M188.961,19.4235 L188.307,19.4235 L188.307,20.784 L187.905,20.784 L187.905,17.6085 L189.1515,17.6085 C189.5235,17.6085 189.801,17.682 189.978,17.8275 C190.1595,17.9775 190.2495,18.1995 190.2495,18.4995 C190.2495,18.6495 190.2225,18.78 190.182,18.8865 C190.1325,18.993 190.071,19.0845 189.9975,19.161 C189.9165,19.2375 189.8295,19.2945 189.723,19.338 C189.6285,19.377 189.5235,19.407 189.4155,19.422 L190.314,20.7855 L189.834,20.7855 L188.961,19.4235 Z M189.0075,19.0665 C189.1425,19.0665 189.2595,19.059 189.3645,19.0425 C189.465,19.029 189.555,19.0035 189.6285,18.9645 C189.702,18.9255 189.7575,18.8715 189.7905,18.807 C189.8265,18.7335 189.8475,18.648 189.8475,18.528 C189.8475,18.4155 189.831,18.3195 189.801,18.246 C189.7665,18.171 189.7185,18.1155 189.6585,18.0735 C189.594,18.0345 189.5235,18.0075 189.435,17.988 C189.348,17.973 189.2505,17.964 189.1395,17.964 L188.307,17.964 L188.307,19.0605 L189.0075,19.0605 L189.0075,19.0665 Z" id="Shape" fill-rule="nonzero"></path>
                            <path d="M35.5125,0.6825 L41.1555,0.6825 L41.1555,28.977 L35.5125,28.977 L35.5125,0.6825 Z M58.563,26.259 L58.4775,26.274 C57.699,27.4305 56.7705,28.2555 55.695,28.758 C54.615,29.2605 53.448,29.511 52.194,29.511 C50.838,29.511 49.6095,29.229 48.504,28.665 C47.4015,28.1025 46.452,27.3495 45.6645,26.4075 C44.871,25.4685 44.2575,24.3825 43.818,23.1525 C43.3785,21.9255 43.161,20.628 43.161,19.278 C43.161,17.922 43.368,16.635 43.7805,15.4215 C44.196,14.2035 44.7855,13.125 45.5535,12.186 C46.3155,11.244 47.253,10.497 48.357,9.9465 C49.458,9.396 50.712,9.117 52.119,9.117 C53.373,9.117 54.483,9.345 55.4505,9.7965 C56.4195,10.2495 57.3525,11.079 58.257,12.282 L58.3305,12.282 L58.3305,0.6825 L63.741,0.6825 L63.741,28.977 L58.5645,28.977 L58.563,26.259 Z M58.5165,19.3515 C58.5165,18.627 58.4175,17.9235 58.2135,17.2485 C58.0125,16.572 57.705,15.9705 57.2925,15.444 C56.88,14.9175 56.364,14.4975 55.749,14.1855 C55.134,13.872 54.402,13.716 53.5485,13.716 C52.77,13.716 52.086,13.8765 51.495,14.2035 C50.907,14.532 50.4135,14.9565 50.01,15.4845 C49.611,16.011 49.3065,16.6185 49.107,17.3085 C48.9075,17.9985 48.8055,18.7095 48.8055,19.431 C48.8055,20.184 48.9135,20.904 49.125,21.594 C49.3425,22.284 49.653,22.8915 50.0685,23.4165 C50.4795,23.9445 50.988,24.3615 51.591,24.675 C52.194,24.9885 52.896,25.1445 53.7015,25.1445 C54.477,25.1445 55.161,24.993 55.752,24.6915 C56.3385,24.393 56.8425,23.979 57.2565,23.451 C57.6675,22.9245 57.981,22.311 58.1985,21.609 C58.4085,20.907 58.5165,20.157 58.5165,19.3515 Z M71.0415,20.844 C71.091,21.426 71.226,21.987 71.4375,22.527 C71.652,23.064 71.94,23.544 72.303,23.961 C72.6675,24.372 73.119,24.7155 73.6545,24.9795 C74.1975,25.245 74.829,25.3755 75.561,25.3755 C76.386,25.3755 77.145,25.1805 77.8365,24.7935 C78.525,24.4035 79.0575,23.832 79.4355,23.0775 L84.7035,23.4915 C84.051,25.4715 82.893,26.9685 81.222,27.9855 C79.557,29.0025 77.5785,29.508 75.297,29.508 C73.8405,29.508 72.5055,29.271 71.289,28.7925 C70.071,28.3155 69.0315,27.633 68.1645,26.7405 C67.299,25.8525 66.6225,24.786 66.1335,23.544 C65.6445,22.3005 65.4015,20.9025 65.4015,19.347 C65.4015,17.793 65.6445,16.3785 66.1335,15.1155 C66.6225,13.845 67.299,12.7725 68.1645,11.88 C69.0315,10.989 70.071,10.305 71.289,9.8295 C72.5055,9.354 73.8405,9.111 75.297,9.111 C76.7535,9.111 78.0855,9.3495 79.3065,9.8295 C80.5215,10.302 81.564,10.986 82.428,11.874 C83.292,12.768 83.9685,13.8435 84.4605,15.1065 C84.9495,16.377 85.1925,17.787 85.1925,19.3395 L85.1925,20.841 L71.0415,20.844 Z M79.7715,17.3865 C79.7235,16.9125 79.5975,16.4265 79.3995,15.9375 C79.1955,15.45 78.9195,15.0045 78.567,14.6025 C78.2145,14.199 77.79,13.875 77.286,13.6275 C76.785,13.377 76.2075,13.2495 75.5595,13.2495 C74.8545,13.2495 74.2395,13.3635 73.713,13.59 C73.1865,13.8165 72.7365,14.115 72.36,14.49 C71.9805,14.8665 71.688,15.3045 71.475,15.8055 C71.2605,16.3065 71.118,16.8375 71.0415,17.3865 L79.7715,17.3865 Z M99.8925,26.445 L99.81,26.4735 C98.904,27.6495 97.857,28.449 96.666,28.878 C95.475,29.3025 94.3185,29.514 93.1875,29.514 C92.4375,29.514 91.6575,29.415 90.855,29.2155 C90.0525,29.0115 89.3205,28.683 88.6545,28.215 C87.99,27.75 87.45,27.144 87.036,26.3895 C86.625,25.6335 86.4165,24.7095 86.4165,23.6025 C86.4165,23.076 86.493,22.494 86.6415,21.8535 C86.7915,21.2115 87.141,20.604 87.693,20.0265 C88.2465,19.4475 89.073,18.939 90.18,18.4995 C91.2795,18.0615 92.772,17.781 94.653,17.6565 L99.654,17.3535 L99.654,16.449 C99.654,15.2925 99.3225,14.433 98.658,13.869 C97.995,13.3005 97.0605,13.02 95.856,13.02 C94.7265,13.02 93.849,13.2795 93.222,13.797 C92.595,14.316 92.2575,15.015 92.205,15.9015 L87.015,15.9015 C87.0645,15.147 87.2475,14.3715 87.561,13.5825 C87.8745,12.7935 88.38,12.06 89.085,11.3955 C89.7885,10.7325 90.702,10.1835 91.833,9.756 C92.961,9.333 94.377,9.114 96.084,9.114 C97.29,9.114 98.418,9.2355 99.471,9.471 C100.5285,9.7095 101.4555,10.08 102.2595,10.5795 C103.065,11.085 103.698,11.727 104.1645,12.5175 C104.631,13.3035 104.865,14.2515 104.865,15.357 L104.865,26.5605 C104.865,27.0645 104.889,27.504 104.9355,27.882 C104.9835,28.2615 105.0465,28.6245 105.12,28.977 L99.8955,28.977 L99.8925,26.445 Z M99.6585,20.5665 L95.1435,20.9775 C93.8895,21.1035 93.021,21.354 92.5455,21.732 C92.0685,22.1055 91.83,22.647 91.83,23.3505 C91.83,23.7765 91.923,24.1335 92.112,24.4215 C92.2995,24.711 92.544,24.942 92.8455,25.119 C93.144,25.2945 93.5025,25.4205 93.9195,25.497 C94.3335,25.5705 94.767,25.608 95.2155,25.608 C95.643,25.608 96.114,25.5465 96.627,25.4205 C97.1385,25.2945 97.623,25.101 98.073,24.8385 C98.529,24.573 98.904,24.2325 99.204,23.82 C99.5055,23.4075 99.657,22.914 99.657,22.335 L99.6585,20.5665 Z" id="Shape" fill-rule="nonzero"></path>
                        </g>
                    </g>
                </g>
            </g>
        </g>
    </g>
</svg>