<?xml version="1.0" encoding="UTF-8"?>
<svg width="15px" height="15px" viewBox="0 0 15 15" version="1.1" xmlns="http://www.w3.org/2000/svg" xmlns:xlink="http://www.w3.org/1999/xlink">
    <!-- Generator: Sketch 50.2 (55047) - http://www.bohemiancoding.com/sketch -->
    <title>check-circle</title>
    <desc>Created with Sketch.</desc>
    <defs></defs>
    <g id="Symbols" stroke="none" stroke-width="1" fill="none" fill-rule="evenodd" stroke-linecap="round" stroke-linejoin="round">
        <g id="Stopka" transform="translate(-652.000000, -208.000000)" stroke="#FFFFFF">
            <g id="Newletter" transform="translate(640.000000, 61.000000)">
                <g id="Group" transform="translate(13.000000, 148.000000)">
                    <g id="check-circle">
                        <path d="M13.333371,6.0574899 L13.333371,6.67082324 C13.3316828,9.62328048 11.3882336,12.2229652 8.55693925,13.0600905 C5.72564488,13.8972159 2.68096667,12.7723647 1.0740077,10.2955341 C-0.532951277,7.8187036 -0.31938673,4.57991589 1.5988871,2.335538 C3.51716094,0.0911601104 6.68317941,-0.624159908 9.38003764,0.577489903" id="Shape"></path>
                        <polyline id="Shape" points="12.6666667 1 6 7.67333333 4 5.67333333"></polyline>
                    </g>
                </g>
            </g>
        </g>
    </g>
</svg>