<?xml version="1.0" encoding="UTF-8"?>
<svg width="293px" height="185px" viewBox="0 0 293 185" version="1.1" xmlns="http://www.w3.org/2000/svg" xmlns:xlink="http://www.w3.org/1999/xlink">
    <!-- Generator: Sketch 50.2 (55047) - http://www.bohemiancoding.com/sketch -->
    <title>Combined Shape</title>
    <desc>Created with Sketch.</desc>
    <defs>
        <linearGradient x1="0%" y1="5.44615186%" x2="75.733488%" y2="89.8824897%" id="linearGradient-1">
            <stop stop-color="#61A3FA" offset="0%"></stop>
            <stop stop-color="#2AA9EE" offset="100%"></stop>
        </linearGradient>
        <path d="M404.432657,2338.31248 C400.679171,2340.64981 396.247263,2342 391.5,2342 C380.80667,2342 371.713409,2335.14929 368.369722,2325.59737 C357.576577,2323.88583 348.552288,2316.8611 344.060803,2307.28713 C331.232428,2302.93876 322,2290.79755 322,2276.5 C322,2258.55075 336.550746,2244 354.5,2244 C359.765728,2244 364.738964,2245.2523 369.138133,2247.47533 C372.969198,2238.94257 381.540618,2233 391.5,2233 C396.837208,2233 401.775813,2234.70662 405.799874,2237.60393 C411.744962,2229.93572 421.046081,2225 431.5,2225 C440.692045,2225 448.992798,2228.81607 454.904441,2234.9504 C457.851328,2233.69481 461.094523,2233 464.5,2233 C472.454344,2233 479.523325,2236.79069 483.999011,2242.66414 C487.294461,2240.96153 491.034941,2240 495,2240 C503.306613,2240 510.627592,2244.22 514.936007,2250.63307 C535.417836,2254.16097 551,2272.01078 551,2293.5 C551,2317.52439 531.524387,2337 507.5,2337 C499.30131,2337 491.63238,2334.73183 485.086468,2330.78875 C480.722615,2337.53517 473.132716,2342 464.5,2342 C459.97739,2342 455.740993,2340.77457 452.104735,2338.63764 C445.403535,2343.28 437.269412,2346 428.5,2346 C419.527784,2346 411.220581,2343.15274 404.432657,2338.31248 Z" id="path-2"></path>
        <filter x="-21.0%" y="-39.7%" width="141.9%" height="179.3%" filterUnits="objectBoundingBox" id="filter-3">
            <feMorphology radius="3" operator="dilate" in="SourceAlpha" result="shadowSpreadOuter1"></feMorphology>
            <feOffset dx="0" dy="0" in="shadowSpreadOuter1" result="shadowOffsetOuter1"></feOffset>
            <feGaussianBlur stdDeviation="15" in="shadowOffsetOuter1" result="shadowBlurOuter1"></feGaussianBlur>
            <feComposite in="shadowBlurOuter1" in2="SourceAlpha" operator="out" result="shadowBlurOuter1"></feComposite>
            <feColorMatrix values="0 0 0 0 0.844322128   0 0 0 0 0.945195035   0 0 0 0 1  0 0 0 1 0" type="matrix" in="shadowBlurOuter1"></feColorMatrix>
        </filter>
    </defs>
    <g id="Welcome-V2" stroke="none" stroke-width="1" fill="none" fill-rule="evenodd" stroke-dasharray="120,15" stroke-linecap="round" stroke-linejoin="round">
        <g id="Desktop-STRONA-GLOWNA-1" transform="translate(-290.000000, -2193.000000)">
            <g id="Combined-Shape">
                <use fill="black" fill-opacity="1" filter="url(#filter-3)" xlink:href="#path-2"></use>
                <use stroke="url(#linearGradient-1)" stroke-width="6" fill="#FFFFFF" fill-rule="evenodd" xlink:href="#path-2"></use>
            </g>
        </g>
    </g>
</svg>