<?xml version="1.0" encoding="UTF-8"?>
<svg width="167px" height="150px" viewBox="0 0 167 150" version="1.1" xmlns="http://www.w3.org/2000/svg" xmlns:xlink="http://www.w3.org/1999/xlink">
    <!-- Generator: Sketch 51 (57462) - http://www.bohemiancoding.com/sketch -->
    <title>armchair - vector</title>
    <desc>Created with Sketch.</desc>
    <defs>
        <linearGradient x1="9.08493542%" y1="10.5494792%" x2="88.8332685%" y2="88.328125%" id="linearGradient-1">
            <stop stop-color="#FFE56F" offset="0%"></stop>
            <stop stop-color="#63C9AC" offset="52.7027637%"></stop>
            <stop stop-color="#42A7E6" offset="100%"></stop>
        </linearGradient>
    </defs>
    <g id="SG-Apple-Pay" stroke="none" stroke-width="1" fill="none" fill-rule="evenodd">
        <g id="Desktop-STRONA-GLOWNA-12" transform="translate(-742.000000, -4918.000000)" fill="url(#linearGradient-1)" fill-rule="nonzero">
            <g id="benefity" transform="translate(317.000000, 4917.000000)">
                <g id="wygodny-development" transform="translate(1.000000, 1.000000)">
                    <g id="armchair---vector" transform="translate(424.000000, 0.000000)">
                        <path d="M55,4 C53.8954305,4 53,3.1045695 53,2 C53,0.8954305 53.8954305,0 55,0 L112,0 C125.254834,-2.22044605e-15 136,10.745166 136,24 L136,97.6598654 C136,98.7644349 135.104569,99.6598654 134,99.6598654 C132.895431,99.6598654 132,98.7644349 132,97.6598654 L132,24 C132,12.954305 123.045695,4 112,4 L55,4 Z M130.685614,106.766141 C131.10109,105.742689 132.267571,105.249826 133.291023,105.665302 C134.314475,106.080777 134.807337,107.247258 134.391862,108.27071 C133.002147,111.694034 130.765381,114.713268 127.907192,117.047496 C127.051674,117.746181 125.791742,117.619043 125.093057,116.763524 C124.394371,115.908006 124.521509,114.648074 125.377028,113.949389 C127.717724,112.037787 129.549092,109.565767 130.685614,106.766141 Z M117.243133,117.708965 C118.329886,117.511378 119.371051,118.232189 119.568639,119.318942 C119.766226,120.405695 119.045415,121.44686 117.958662,121.644447 C116.681268,121.876697 115.379073,121.996223 114.057272,121.99992 L53,122 C40.8497355,122 31,112.150264 31,100 L31,30.776743 C31,29.6721735 31.8954305,28.776743 33,28.776743 C34.1045695,28.776743 35,29.6721735 35,30.776743 L35,100 C35,109.941125 43.0588745,118 52.9999974,118 L114.051664,117.999928 C115.13137,117.996901 116.197877,117.899008 117.243133,117.708965 Z M35.2121015,21.0749779 C35.052083,22.167895 34.0363779,22.9241588 32.9434608,22.7641403 C31.8505437,22.6041217 31.0942799,21.5884167 31.2542984,20.4954996 C31.7880204,16.8502094 33.1508008,13.4091555 35.2199942,10.4040587 C35.8464201,9.49429811 37.0917454,9.26461 38.001506,9.89103593 C38.9112665,10.5174619 39.1409547,11.7627871 38.5145287,12.6725477 C36.7906786,15.1761013 35.6564609,18.0400287 35.2121015,21.0749779 Z M136,141.995412 L136,143 C136,146.865993 132.865993,150 129,150 C125.134007,150 122,146.865993 122,143 L122,141.963216 C107.088897,141.928917 81.7555636,141.870631 46,141.78836 L46,143 C46,146.865993 42.8659932,150 39,150 C35.1340068,150 32,146.865993 32,143 L32,141.756147 C31.6506578,141.755343 31.300449,141.754537 30.9493767,141.753729 C18.8189092,141.725816 9,131.884287 9,119.753787 L9,118.191524 C9,117.086954 9.8954305,116.191524 11,116.191524 C12.1045695,116.191524 13,117.086954 13,118.191524 L13,119.753787 C13,129.678742 21.033653,137.730902 30.9585809,137.75374 L137.958581,137.999954 C147.941125,138.000001 156,129.941127 156,120.000001 L156,66.7268829 C155.508396,66.8186253 155.015017,66.8666667 154.52332,66.8666667 C151.216028,66.8666667 147.33916,64.6981638 145.403801,61.6823355 C142.955435,57.8670998 143.872671,53.4754113 148.409707,49.9731693 C149.284076,49.2982235 150.540045,49.4598883 151.21499,50.3342577 C151.889936,51.2086272 151.728271,52.4645954 150.853902,53.1395412 C147.913764,55.4091008 147.475983,57.5051786 148.770234,59.5219816 C149.977771,61.4036611 152.593345,62.8666667 154.52332,62.8666667 C158.276166,62.8666667 163,57.3664161 163,52.9445321 C163,47.1414221 161.689125,44.2313715 157.245314,41.8738999 C151.718959,38.9421315 146.125888,39.3957175 140.993219,43.5856569 C137.528262,46.4141968 135.797932,52.1579066 136.018702,60.9371118 C136.04647,62.0413322 135.173833,62.95899 134.069613,62.9867579 C132.965392,63.0145257 132.047734,62.1418884 132.019966,61.037668 C131.771223,51.1461055 133.84698,44.2557789 138.463711,40.4870138 C144.865159,35.2613349 152.195408,34.6668676 159.119886,38.3403494 C165.060069,41.4916562 167,45.7981677 167,52.9445321 C167,57.4660074 163.925584,62.4255762 160,65.0315499 L160,120.000001 C160,132.150266 150.150264,142.000001 138,142.000001 C137.997697,142.000001 137.33103,141.998471 136,141.995412 Z M132,141.986216 C130.343146,141.982406 128.343146,141.977806 126,141.972417 L126,143 C126,144.656854 127.343146,146 129,146 C130.656854,146 132,144.656854 132,143 L132,141.986216 Z M36,141.76535 L36,143 C36,144.656854 37.3431458,146 39,146 C40.6568542,146 42,144.656854 42,143 L42,141.779156 C40.03031,141.774624 38.03031,141.770022 36,141.76535 Z M13,66.8490575 L13,88.1915239 C13,89.2960934 12.1045695,90.1915239 11,90.1915239 C9.8954305,90.1915239 9,89.2960934 9,88.1915239 L9,66.1155805 C4.17113668,64.0719502 3.6137602e-05,58.2110575 3.61376005e-05,52.9445321 C3.61375985e-05,45.7981677 1.93996674,41.4916562 7.88015002,38.3403494 C14.804628,34.6668676 22.1348769,35.2613349 28.5363251,40.4870138 C33.1530563,44.2557789 35.2288128,51.1461055 34.9800697,61.037668 C34.9523018,62.1418884 34.034644,63.0145257 32.9304236,62.9867579 C31.8262032,62.95899 30.953566,62.0413322 30.9813338,60.9371118 C31.2021045,52.1579066 29.4717739,46.4141968 26.0068171,43.5856569 C20.8741481,39.3957175 15.2810774,38.9421315 9.75472216,41.8738999 C5.31091067,44.2313715 4.00003614,47.1414221 4.00003614,52.9445321 C4.00003614,57.3664161 8.72387023,62.8666667 12.4767158,62.8666667 C14.4066907,62.8666667 17.0222649,61.4036611 18.2298022,59.5219816 C19.5240529,57.5051786 19.086272,55.4091008 16.1461342,53.1395412 C15.2717648,52.4645954 15.1101,51.2086272 15.7850457,50.3342577 C16.4599915,49.4598883 17.7159597,49.2982235 18.5903292,49.9731693 C23.1273654,53.4754113 24.0446009,57.8670998 21.5962352,61.6823355 C19.7621061,64.5404194 16.1842592,66.6374993 13,66.8490575 Z M45.1963799,6.56311741 C44.2341022,7.10542302 43.0143964,6.76496836 42.4720908,5.80269065 C41.9297852,4.84041293 42.2702399,3.62070715 43.2325176,3.07840154 C46.7561437,1.09261077 50.7343105,0.0233786461 54.8637248,0.000379424046 C55.9682772,-0.00577250058 56.8686809,0.884656991 56.8748328,1.98920936 C56.8809847,3.09376173 55.9905553,3.99416546 54.8860029,4.00031738 C51.4415126,4.01950185 48.1309472,4.90929934 45.1963799,6.56311741 Z M13,108.191524 C13,109.296093 12.1045695,110.191524 11,110.191524 C9.8954305,110.191524 9,109.296093 9,108.191524 L9,98.1915239 C9,97.0869544 9.8954305,96.1915239 11,96.1915239 C12.1045695,96.1915239 13,97.0869544 13,98.1915239 L13,108.191524 Z M34.3960396,83.0399938 C50.7663217,86.3471215 67.1336783,88.0003898 83.5,88.0003898 C99.8663217,88.0003898 116.233678,86.3471215 132.60396,83.0399938 C133.686657,82.8212671 134.741669,83.5216534 134.960396,84.6043502 C135.179123,85.687047 134.478736,86.7420592 133.39604,86.9607858 C116.766322,90.3203248 100.133678,92.0003898 83.5,92.0003898 C66.8663217,92.0003898 50.2336783,90.3203248 33.6039604,86.9607858 C32.5212636,86.7420592 31.8208773,85.687047 32.039604,84.6043502 C32.2583306,83.5216534 33.3133428,82.8212671 34.3960396,83.0399938 Z M62,36 C63.1045695,36 64,35.1045695 64,34 C64,32.8954305 63.1045695,32 62,32 C60.8954305,32 60,32.8954305 60,34 C60,35.1045695 60.8954305,36 62,36 Z M62,40 C58.6862915,40 56,37.3137085 56,34 C56,30.6862915 58.6862915,28 62,28 C65.3137085,28 68,30.6862915 68,34 C68,37.3137085 65.3137085,40 62,40 Z M105.5,35 C106.328427,35 107,34.3284271 107,33.5 C107,32.6715729 106.328427,32 105.5,32 C104.671573,32 104,32.6715729 104,33.5 C104,34.3284271 104.671573,35 105.5,35 Z M105.5,39 C102.462434,39 100,36.5375661 100,33.5 C100,30.4624339 102.462434,28 105.5,28 C108.537566,28 111,30.4624339 111,33.5 C111,36.5375661 108.537566,39 105.5,39 Z" id="Combined-Shape"></path>
                    </g>
                </g>
            </g>
        </g>
    </g>
</svg>