<?xml version="1.0" encoding="UTF-8"?>
<svg width="151px" height="25px" viewBox="0 0 151 25" version="1.1" xmlns="http://www.w3.org/2000/svg" xmlns:xlink="http://www.w3.org/1999/xlink">
    <!-- Generator: Sketch 50.2 (55047) - http://www.bohemiancoding.com/sketch -->
    <title>prestashop</title>
    <desc>Created with Sketch.</desc>
    <defs></defs>
    <g id="Welcome-V2" stroke="none" stroke-width="1" fill="none" fill-rule="evenodd">
        <g id="Desktop-STRONA-GLOWNA-1" transform="translate(-975.000000, -1521.000000)">
            <g id="2-Integracje" transform="translate(503.000000, 1203.000000)">
                <g id="Logos" transform="translate(472.000000, 310.000000)">
                    <g id="prestashop" transform="translate(0.000000, 8.188414)">
                        <g>
                            <path d="M64.4398862,13.0976496 C64.4246166,11.6222222 63.8736362,10.4241453 62.7865211,9.50363248 C61.6991938,8.58333333 60.3323469,8.12307692 58.6868287,8.12307692 C57.6450983,8.12307692 56.6559635,8.35512821 55.7200604,8.81880342 C54.7835211,9.28311966 53.998618,10.0057692 53.3645028,10.9869658 C52.7303876,11.9681624 52.4129059,13.1055556 52.4129059,14.3985043 C52.4129059,16.2696581 53.0247528,17.775641 54.2475983,18.9166667 C55.470868,20.0576923 56.935059,20.6282051 58.6416559,20.6282051 C60.5895983,20.6282051 62.2802893,19.8831197 63.7152135,18.3918803 L62.220059,16.7258547 C61.3443862,17.7910256 60.2307612,18.3235043 58.8793961,18.3235043 C57.5280309,18.3235043 56.4597907,17.8367521 55.6746756,16.8628205 L64.4625787,13.1431624 L64.4398862,13.0976496 Z M54.8819256,14.8775641 C54.8666559,14.7865385 54.8592331,14.6418803 54.8592331,14.4440171 C54.8592331,13.1967949 55.2704537,12.2230769 56.0935309,11.5230769 C56.9166081,10.8235043 57.8264256,10.4735043 58.8227711,10.4735043 C60.1363862,10.4735043 61.0500211,10.9754274 61.5634635,11.9797009 L54.8819256,14.8775641 Z" id="Fill-14" fill="#15082E"></path>
                            <path d="M49.503611,8.87606838 C48.8012065,9.36324786 48.2461966,9.98675214 47.8387935,10.7472222 L47.8387935,8.30576923 L45.3021208,8.30576923 L45.3021208,20.4457265 L47.8387935,20.4457265 L47.8387935,15.242735 C47.8387935,13.8583333 48.1558511,12.7553419 48.7901784,11.9337607 C49.4240815,11.1123932 50.3676194,10.7017094 51.6212163,10.7017094 L51.7569466,10.7017094 L51.7342542,8.12286325 C50.948927,8.13824786 50.2055913,8.38931624 49.503611,8.87606838" id="Fill-15" fill="#15082E"></path>
                            <path d="M73.531486,14.2615385 C73.1236587,13.9876068 72.7423413,13.7747863 72.3877458,13.6226496 C72.032514,13.4705128 71.6664663,13.3337607 71.2891784,13.2117521 C70.9114663,13.0903846 70.4773413,12.9688034 69.9868034,12.8467949 C69.4960534,12.725 69.114736,12.5957265 68.8430632,12.458547 C68.4502935,12.2762821 68.2543329,11.9873932 68.2543329,11.5916667 C68.2543329,11.1504274 68.4428708,10.8196581 68.8203708,10.5989316 C69.1976587,10.3788462 69.6884087,10.2681624 70.2926208,10.2681624 C71.4397542,10.2681624 72.5046011,10.5952991 73.4863132,11.249359 L74.4372739,9.35534188 C73.1993708,8.53397436 71.8855435,8.12286325 70.4964284,8.12286325 C69.1071011,8.12286325 67.9784185,8.46175214 67.1103806,9.13867521 C66.2417065,9.81559829 65.8080056,10.717094 65.8080056,11.842735 C65.8080056,13.4401709 67.0613904,14.5807692 69.567948,15.2653846 C69.6279663,15.2807692 69.7185239,15.3113248 69.8396208,15.3568376 C71.4397542,15.8438034 72.2403511,16.391453 72.2403511,17 C72.2403511,17.4106838 72.0738694,17.7491453 71.7419663,18.0153846 C71.4098511,18.2816239 70.9568511,18.4147436 70.3831784,18.4147436 C69.0695632,18.4147436 67.7107753,17.8824786 66.3063904,16.8173077 L65.0833329,18.8025641 C65.8080056,19.3807692 66.642111,19.8294872 67.586073,20.1489316 C68.529611,20.4683761 69.4392163,20.6282051 70.3151011,20.6282051 C71.6138708,20.6282051 72.6782935,20.282265 73.5090056,19.5899573 C74.3390815,18.8976496 74.7543315,17.9737179 74.7543315,16.8173077 C74.7543315,15.6613248 74.3467163,14.809188 73.531486,14.2615385" id="Fill-16" fill="#15082E"></path>
                            <path d="M41.8577514,5.88675214 C40.7553666,4.95897436 39.003809,4.49465812 36.6030787,4.49465812 L31.1675028,4.49465812 L31.1675028,20.4457265 L33.840118,20.4457265 L33.840118,15.7675214 L36.6482514,15.7675214 C38.9736938,15.7675214 40.6987416,15.3190171 41.8238188,14.4211538 C42.9482598,13.5239316 43.5111166,12.1089744 43.5111166,10.1767094 C43.5111166,8.24508547 42.9597121,6.81495726 41.8577514,5.88675214 M39.9666461,12.4702991 C39.4302992,13.0405983 38.4225014,13.3260684 36.9428287,13.3260684 L33.840118,13.3260684 L33.840118,6.93632479 L36.5579059,6.93632479 C38.0074635,6.93632479 39.0718862,7.16452991 39.7513862,7.62115385 C40.4308862,8.07735043 40.7706362,8.85705128 40.7706362,9.96025641 C40.7706362,11.0634615 40.5025688,11.8995726 39.9666461,12.4702991" id="Fill-17" fill="#15082E"></path>
                            <path d="M80.6902008,18.4145299 C80.1466433,18.4145299 79.7237584,18.2433761 79.4219705,17.9010684 C79.1197584,17.5587607 78.9687584,17.0991453 78.9687584,16.5205128 L78.9687584,10.359188 L82.1399705,10.359188 L82.1399705,8.30576923 L78.9687584,8.30576923 L78.9687584,4.49465812 L76.4322978,4.49465812 L76.4322978,16.4521368 C76.4322978,17.7301282 76.8134031,18.7455128 77.5760379,19.4985043 C78.3382486,20.2517094 79.2593062,20.6282051 80.3389986,20.6282051 C81.4184789,20.6282051 82.4037963,20.2252137 83.2947388,19.4188034 L82.2530084,17.615812 C81.7550478,18.1487179 81.2339705,18.4145299 80.6902008,18.4145299" id="Fill-18" fill="#15082E"></path>
                            <path d="M93.2967921,10.4051282 C92.2699073,8.88397436 90.9637149,8.12286325 89.378639,8.12286325 C87.793139,8.12286325 86.4188694,8.68611111 85.2564663,9.81175214 C84.093427,10.9376068 83.5123315,12.4440171 83.5123315,14.3299145 C83.5123315,16.216453 84.0787935,17.7380342 85.2110815,18.8940171 C86.3435815,20.05 87.6722542,20.6282051 89.1975239,20.6282051 C89.9523118,20.6282051 90.7037065,20.442094 91.4508596,20.0690171 C92.1982247,19.6965812 92.8134649,19.1604701 93.2967921,18.4604701 L93.2967921,20.4457265 L95.8334649,20.4457265 L95.8334649,8.30555556 L93.2967921,8.30555556 L93.2967921,10.4051282 Z M92.3002346,17.2623932 C91.6054649,18.0002137 90.7603315,18.3690171 89.7635618,18.3690171 C88.7672163,18.3690171 87.8985421,18.0038462 87.1588118,17.2739316 C86.4188694,16.5433761 86.0492163,15.5963675 86.0492163,14.4326923 C86.0492163,13.2690171 86.4116587,12.2989316 87.1363315,11.5230769 C87.8612163,10.7472222 88.7290421,10.3594017 89.7410815,10.3594017 C90.7524846,10.3594017 91.6054649,10.7472222 92.3002346,11.5230769 C92.9945801,12.2989316 93.3419649,13.2653846 93.3419649,14.4213675 C93.3419649,15.5775641 92.9945801,16.5245726 92.3002346,17.2623932 Z" id="Fill-19" fill="#15082E"></path>
                            <path d="M130.705982,8.12286325 C128.893982,8.12286325 127.384194,8.72799145 126.176406,9.93717949 C124.967982,11.1467949 124.364406,12.6262821 124.364406,14.3758547 C124.364406,16.1252137 124.967982,17.6047009 126.176406,18.8141026 C127.384194,20.0235043 128.893982,20.6282051 130.705982,20.6282051 C132.517982,20.6282051 134.027558,20.0235043 135.235982,18.8141026 C136.44377,17.6047009 137.047558,16.1252137 137.047558,14.3758547 C137.047558,12.6262821 136.44377,11.1467949 135.235982,9.93717949 C134.027558,8.72799145 132.517982,8.12286325 130.705982,8.12286325 M133.43501,17.2395299 C132.717972,17.9775641 131.807942,18.3463675 130.705982,18.3463675 C129.603597,18.3463675 128.693779,17.9775641 127.976954,17.2395299 C127.259492,16.5019231 126.901079,15.5472222 126.901079,14.3758547 C126.901079,13.2042735 127.259492,12.25 127.976954,11.5119658 C128.693779,10.7741453 129.603597,10.4051282 130.705982,10.4051282 C131.807942,10.4051282 132.717972,10.7741453 133.43501,11.5119658 C134.152048,12.25 134.510885,13.2042735 134.510885,14.3758547 C134.510885,15.5472222 134.152048,16.5019231 133.43501,17.2395299" id="Fill-20" fill="#D01665"></path>
                            <path d="M149.13901,9.81175214 C147.99124,8.68589744 146.609548,8.12286325 144.993933,8.12286325 C143.378105,8.12286325 142.072337,8.89145299 141.075779,10.4279915 L141.075779,8.30576923 L138.539107,8.30576923 L138.539107,24.8726496 L141.075779,24.8726496 L141.075779,18.6200855 C142.283779,19.9589744 143.646385,20.6282051 145.16402,20.6282051 C146.681442,20.6282051 148.010115,20.042735 149.150038,18.8711538 C150.289961,17.7 150.86024,16.1782051 150.86024,14.3070513 C150.86024,12.4358974 150.286143,10.9376068 149.13901,9.81175214 M147.21376,17.250641 C146.473605,17.9809829 145.605779,18.3461538 144.60901,18.3461538 C143.61224,18.3461538 142.766895,17.9775641 142.072337,17.2395299 C141.377779,16.5019231 141.030607,15.5547009 141.030607,14.3985043 C141.030607,13.2425214 141.377779,12.2801282 142.072337,11.5119658 C142.766895,10.7435897 143.619875,10.3594017 144.631702,10.3594017 C145.643105,10.3594017 146.511779,10.7435897 147.236452,11.5119658 C147.961337,12.2801282 148.323355,13.2461538 148.323355,14.4098291 C148.323355,15.5735043 147.953278,16.5207265 147.21376,17.250641" id="Fill-21" fill="#D01665"></path>
                            <path d="M118.458652,8.12286325 C117.612882,8.12286325 116.823949,8.33632479 116.091642,8.76196581 C115.359122,9.18803419 114.811959,9.77393162 114.449729,10.5192308 L114.449729,3.53632479 L111.912844,3.53632479 L111.912844,20.4457265 L114.449729,20.4457265 L114.449729,13.8737179 C114.449729,12.7478632 114.774209,11.892094 115.423594,11.3064103 C116.072555,10.7209402 116.835402,10.4279915 117.711074,10.4279915 C119.552978,10.4279915 120.474247,11.5459402 120.474247,13.782265 L120.474247,20.4457265 L123.011132,20.4457265 L123.011132,13.0064103 C123.011132,11.424359 122.592065,10.2149573 121.75393,9.37820513 C120.916007,8.54166667 119.81744,8.12286325 118.458652,8.12286325" id="Fill-22" fill="#D01665"></path>
                            <path d="M108.879695,12.7784188 C108.056406,12.0634615 106.83356,11.5083333 105.210522,11.1123932 C103.587272,10.717094 102.526667,10.3480769 102.028282,10.0055556 C101.53011,9.66346154 101.280917,9.16901709 101.280917,8.5224359 C101.280917,7.8758547 101.53011,7.39294872 102.028282,7.07350427 C102.526667,6.75384615 103.164388,6.59423077 103.942292,6.59423077 C104.719772,6.59423077 105.508281,6.73098291 106.30909,7.00491453 C107.109051,7.27863248 107.743166,7.62863248 108.211647,8.05470085 L109.638088,6.02371795 C108.913628,5.41559829 108.052801,4.94337607 107.056455,4.60897436 C106.059897,4.27435897 105.055493,4.10683761 104.04409,4.10683761 C102.473435,4.10683761 101.156003,4.50641026 100.09158,5.30491453 C99.0271573,6.10363248 98.495052,7.24081197 98.495052,8.71645299 C98.495052,10.192094 98.9628975,11.2873932 99.8992247,12.0025641 C100.366858,12.3826923 100.903205,12.690812 101.507205,12.9264957 C102.111205,13.1626068 102.994301,13.4211538 104.157552,13.7023504 C105.319955,13.984188 106.139003,14.2957265 106.614695,14.6380342 C107.090388,14.9803419 107.32834,15.4594017 107.32834,16.075641 C107.32834,16.6918803 107.07533,17.1863248 106.56931,17.5589744 C106.063291,17.9320513 105.380185,18.1181624 104.51957,18.1181624 C102.79834,18.1181624 101.137128,17.4183761 99.5367823,16.0185897 L97.8609368,18.049359 C99.7783399,19.7690171 101.975475,20.6282051 104.451705,20.6282051 C106.142608,20.6282051 107.509243,20.1946581 108.551185,19.3273504 C109.592916,18.4604701 110.113993,17.3309829 110.113993,15.9386752 C110.113993,14.5465812 109.70256,13.4935897 108.879695,12.7784188" id="Fill-23" fill="#D01665"></path>
                            <path d="M8.09631461,19.0991453 C8.29291152,19.0111111 8.49205337,18.9299145 8.69310393,18.8538462 C8.92002809,18.7679487 9.14886096,18.6871795 9.38066292,18.6166667 C9.66930197,18.5290598 9.96048596,18.45 10.2552753,18.3867521 C10.6529228,18.3017094 11.055236,18.2386752 11.4607303,18.1991453 C11.233382,18.9194444 10.9820688,19.6354701 10.7097598,20.3470085 C10.7214242,20.4848291 10.7277865,20.6235043 10.7313919,20.7626068 C11.2796152,20.6536325 11.8460772,20.5952991 12.4261124,20.5952991 C13.0061475,20.5952991 13.5723975,20.6536325 14.1208329,20.7626068 C14.1244382,20.6235043 14.1305885,20.4848291 14.1422528,20.3470085 C13.8699438,19.6354701 13.6188427,18.9194444 13.3912823,18.1991453 C13.7967767,18.2386752 14.199302,18.3017094 14.5967374,18.3867521 C14.8917388,18.45 15.1827107,18.5290598 15.4713497,18.6166667 C15.7031517,18.6871795 15.9319846,18.7679487 16.1589087,18.8538462 C16.3599593,18.9299145 16.5593132,19.0111111 16.7559101,19.099359 C18.1507514,19.725 19.422375,20.6534188 20.4651657,21.857906 C23.0790351,19.5837607 24.7357935,16.2228632 24.7357935,12.4700855 C24.7357935,5.62051282 19.2245056,0.0677350427 12.4261124,0.0677350427 C5.62750702,0.0677350427 0.11643118,5.62051282 0.11643118,12.4700855 C0.11643118,16.2228632 1.77297753,19.5837607 4.38684691,21.857906 C5.42984972,20.6534188 6.70147331,19.725 8.09631461,19.0991453" id="Fill-24" fill="#9FD6DC"></path>
                            <path d="M8.90772753,21.3429487 C9.48542978,21.0856838 10.0955801,20.8888889 10.7313919,20.7626068 C10.7277865,20.6235043 10.7214242,20.4848291 10.7097598,20.3470085 C10.9820688,19.6354701 11.233382,18.9194444 11.4607303,18.1991453 C11.055236,18.2386752 10.6529228,18.3017094 10.2552753,18.3867521 C9.96048596,18.45 9.66930197,18.5290598 9.38066292,18.6166667 C9.14886096,18.6871795 8.92002809,18.7679487 8.69310393,18.8538462 L9.59040871,19.0728632 L8.90772753,21.3429487" id="Fill-25" fill="#4B4D4A"></path>
                            <path d="M6.79224298,22.6801282 C6.81472331,22.4491453 6.82850843,22.215812 6.82850843,21.9803419 C6.82850843,21.8384615 6.94260674,21.7235043 7.08321489,21.7235043 L7.30695787,21.7235043 L8.09631461,19.0991453 C6.70147331,19.725 5.42984972,20.6534188 4.38684691,21.857906 C4.96179213,22.3581197 5.58254635,22.8053419 6.24295927,23.192735 C6.41877247,23.0143162 6.60200843,22.8429487 6.79224298,22.6801282" id="Fill-26" fill="#4B4D4A"></path>
                            <path d="M16.7559101,19.099359 L17.5452669,21.7235043 L17.7687978,21.7235043 C17.909618,21.7235043 18.0235042,21.8384615 18.0235042,21.9803419 C18.0235042,22.215812 18.0372893,22.4491453 18.0597697,22.6801282 C18.2502163,22.8429487 18.4332402,23.0143162 18.6090534,23.192735 C19.2694663,22.8053419 19.8902205,22.3581197 20.4651657,21.857906 C19.422375,20.6534188 18.1507514,19.725 16.7559101,19.099359" id="Fill-27" fill="#4B4D4A"></path>
                            <path d="M15.261816,19.0728632 L16.1589087,18.8538462 C15.9319846,18.7679487 15.7031517,18.6871795 15.4713497,18.6166667 C15.1827107,18.5290598 14.8917388,18.45 14.5967374,18.3867521 C14.199302,18.3017094 13.7967767,18.2386752 13.3912823,18.1991453 C13.6188427,18.9194444 13.8699438,19.6354701 14.1422528,20.3470085 C14.1305885,20.4848291 14.1244382,20.6235043 14.1208329,20.7626068 C14.7564326,20.8888889 15.3667949,21.0856838 15.9447093,21.3431624 L15.261816,19.0728632" id="Fill-28" fill="#4B4D4A"></path>
                            <path d="M12.4261124,21.7235043 L14.1607037,21.7235043 C14.1250744,21.4014957 14.1123497,21.0807692 14.1208329,20.7626068 C13.5723975,20.6536325 13.0061475,20.5952991 12.4261124,20.5952991 C11.8460772,20.5952991 11.2796152,20.6536325 10.7313919,20.7626068 C10.7396629,21.0807692 10.7269382,21.4014957 10.691309,21.7235043 L12.4261124,21.7235043" id="Fill-29" fill="#1A1919"></path>
                            <path d="M6.24295927,23.192735 C6.38590028,23.2767094 6.53032584,23.358547 6.67687219,23.4367521 C6.7284073,23.1882479 6.76742978,22.9358974 6.79224298,22.6801282 C6.60200843,22.8429487 6.41877247,23.0143162 6.24295927,23.192735" id="Fill-30" fill="#1A1919"></path>
                            <path d="M8.79320506,21.7235043 L10.691309,21.7235043 C10.7269382,21.4014957 10.7396629,21.0807692 10.7313919,20.7626068 C10.0955801,20.8888889 9.48542978,21.0856838 8.90772753,21.3429487 L8.79320506,21.7235043" id="Fill-31" fill="#1A1919"></path>
                            <path d="M18.0597697,22.6801282 C18.0845829,22.9358974 18.1238174,23.1882479 18.1751404,23.4367521 C18.3216868,23.358547 18.4661124,23.2767094 18.6090534,23.192735 C18.4332402,23.0143162 18.2502163,22.8429487 18.0597697,22.6801282" id="Fill-32" fill="#1A1919"></path>
                            <path d="M16.0590197,21.7235043 L15.9447093,21.3431624 C15.3667949,21.0856838 14.7564326,20.8888889 14.1208329,20.7626068 C14.1123497,21.0807692 14.1250744,21.4014957 14.1607037,21.7235043 L16.0590197,21.7235043" id="Fill-33" fill="#1A1919"></path>
                            <path d="M8.79320506,21.7235043 L9.59040871,19.0728632 L8.69310393,18.8538462 C8.49205337,18.9299145 8.29291152,19.0111111 8.09631461,19.0991453 L7.30695787,21.7235043 L8.79320506,21.7235043" id="Fill-34" fill="#9E8D6F"></path>
                            <path d="M15.9447093,21.3431624 L16.0590197,21.7235043 L17.5452669,21.7235043 L16.7559101,19.099359 C16.5593132,19.0111111 16.3599593,18.9299145 16.1589087,18.8538462 L15.261816,19.0728632 L15.9447093,21.3431624" id="Fill-35" fill="#9E8D6F"></path>
                            <path d="M7.33283146,22.2759658 C7.35133146,22.2629658 7.36983146,22.2499658 7.38783146,22.2369658 L7.33533146,22.2369658 C7.33483146,22.2499658 7.33333146,22.2629658 7.33283146,22.2759658" id="Fill-36" fill="#B8A98F"></path>
                            <path d="M12.4261124,22.2369658 L7.35616011,22.2369658 C7.34852528,22.2425214 7.34067837,22.2480769 7.33283146,22.2536325 C7.31586517,22.7382479 7.25139326,23.2134615 7.14705056,23.6758547 C8.74697191,24.4423077 10.5364916,24.8724359 12.4261124,24.8724359 L12.4261124,22.2369658" id="Fill-37" fill="#B8A98F"></path>
                            <path d="M17.5488525,22.2369658 L17.4958525,22.2369658 C17.5143525,22.2499658 17.5328525,22.2629658 17.5508525,22.2759658 C17.5503525,22.2629658 17.5488525,22.2499658 17.5488525,22.2369658" id="Fill-38" fill="#9E8D6F"></path>
                            <path d="M17.4958525,22.2369658 L12.4261124,22.2369658 L12.4261124,24.8724359 C14.3155211,24.8724359 16.1050407,24.4423077 17.7051742,23.6758547 C17.6006194,23.2134615 17.5361475,22.7382479 17.5191812,22.2536325 C17.5115463,22.2480769 17.5036994,22.2425214 17.4958525,22.2369658" id="Fill-39" fill="#9E8D6F"></path>
                            <polyline id="Fill-40" fill="#6C5C4B" points="12.4261124 22.4801282 12.4261124 21.9801282 12.4261124 22.4801282"></polyline>
                            <path d="M18.0597697,22.6801282 C18.0372893,22.4491453 18.0235042,22.215812 18.0235042,21.9803419 C18.0235042,21.8384615 17.909618,21.7235043 17.7687978,21.7235043 L7.08321489,21.7235043 C6.94260674,21.7235043 6.82850843,21.8384615 6.82850843,21.9803419 C6.82850843,22.215812 6.81472331,22.4491453 6.79224298,22.6801282 C6.76742978,22.9358974 6.7284073,23.1882479 6.67687219,23.4367521 C6.83190169,23.5194444 6.98820365,23.5997863 7.14705056,23.6758547 C7.25139326,23.2134615 7.31586517,22.7382479 7.33283146,22.2536325 C7.33304354,22.2480769 7.33367978,22.2425214 7.33389185,22.2369658 L17.5183329,22.2369658 C17.5183329,22.2425214 17.5189691,22.2480769 17.5191812,22.2536325 C17.5361475,22.7382479 17.6006194,23.2134615 17.7051742,23.6758547 C17.863809,23.5997863 18.020111,23.5194444 18.1751404,23.4367521 C18.1238174,23.1882479 18.0845829,22.9358974 18.0597697,22.6801282" id="Fill-41" fill="#806D59"></path>
                            <path d="M16.1069888,20.1433932 C16.0194888,20.0423932 15.9289888,19.9348932 15.8354888,19.8123932 C15.9289888,19.9348932 16.0194888,20.0423932 16.1069888,20.1433932" id="Fill-42" fill="#4B4D4A"></path>
                            <path d="M16.4461931,20.4399063 C16.4461931,20.4399063 16.4476779,20.445042 16.4506475,20.4538462 C16.4476779,20.445042 16.4461931,20.4399063 16.4461931,20.4399063 C16.4461931,20.4399063 16.2275591,20.2689599 15.9506475,19.9538462 C16.2275591,20.2689599 16.4461931,20.4399063 16.4461931,20.4399063" id="Fill-43" fill="#9E8D6F"></path>
                            <polyline id="Fill-44" fill="#FFFFFE" points="19.9951994 9.01559829 19.9951994 9.01709829 19.9951994 9.01559829"></polyline>
                            <path d="M20.4904031,12.591406 C20.4904031,12.588406 20.4909031,12.585906 20.4909031,12.582906 C20.4909031,12.585406 20.4904031,12.588406 20.4904031,12.591406" id="Fill-45" fill="#FFFFFE"></path>
                            <path d="M20.6221039,9.71004274 C20.6199831,9.70726496 20.6180744,9.70491453 20.6159537,9.70213675 L20.6161657,9.70213675 C20.5139438,9.55897436 20.4083287,9.4284188 20.3001685,9.30982906 C20.2997444,9.30961538 20.2995323,9.30918803 20.2991081,9.30876068 C20.2995323,9.30918803 20.2997444,9.30961538 20.3001685,9.30982906 C20.2991081,9.30876068 20.2982598,9.30769231 20.2971994,9.30662393 C20.2479972,9.25277778 20.1983708,9.20149573 20.1481081,9.15299145 C20.1290211,9.13461538 20.1095098,9.11858974 20.0904228,9.10106838 C20.058611,9.07222222 20.0272233,9.04230769 19.9951994,9.01559829 L19.9951994,10.1696581 L20.433566,12.1925214 C20.4384438,12.2081197 20.4441699,12.2228632 20.4484115,12.2391026 L20.7521081,12.5820513 L20.7550772,12.5786325 L21.0729831,12.5786325 C21.0734073,12.5489316 21.0751039,12.5196581 21.0751039,12.4899573 L21.0751039,12.4895299 C21.0751039,11.5352564 20.9194382,10.6185897 20.6375857,9.75961538 L20.6375857,9.75982906 C20.6322837,9.74337607 20.627618,9.72649573 20.6221039,9.71004274" id="Fill-46" fill="#B6B7B4"></path>
                            <path d="M20.4909031,12.5874872 C20.4909031,12.5844872 20.4904031,12.5819872 20.4904031,12.5794872 C20.4904031,12.5819872 20.4909031,12.5844872 20.4909031,12.5874872" id="Fill-47" fill="#B6B7B4"></path>
                            <path d="M20.4951992,12.3895299 C20.4958976,12.3929487 20.4972942,12.3957265 20.4979925,12.3991453 C20.4983417,12.4010684 20.4993892,12.4029915 20.4997383,12.4049145 C20.4997383,12.4051282 20.4997383,12.4055556 20.4997383,12.4057692 C20.5095149,12.4532051 20.5133557,12.5025641 20.5147523,12.5525641 C20.5151015,12.5617521 20.5175456,12.5702991 20.5175456,12.5794872 C20.5175456,12.5805556 20.5178948,12.5816239 20.5178948,12.582906 C20.5178948,12.584188 20.5175456,12.5852564 20.5175456,12.5865385 C20.5175456,12.5963675 20.5151015,12.6055556 20.5147523,12.6153846 C20.5130065,12.6643162 20.5091657,12.7128205 20.5000875,12.7594017 C20.5000875,12.7596154 20.5000875,12.7598291 20.5000875,12.7600427 C20.4993892,12.7626068 20.4983417,12.7647436 20.4979925,12.767094 C20.4972942,12.7709402 20.4955484,12.774359 20.4945009,12.7779915 C20.4833277,12.8288462 20.4686629,12.8779915 20.4491098,12.9247863 C20.4491098,12.925 20.4487607,12.9252137 20.4487607,12.9254274 L20.451554,12.9237179 C20.4519031,12.9228632 20.4522523,12.9222222 20.4526015,12.9213675 L20.9484115,12.5820513 L20.4484115,12.2391026 C20.4484115,12.2393162 20.4484115,12.2395299 20.4484115,12.2399573 C20.4686629,12.2876068 20.4836769,12.3378205 20.4951992,12.3895299" id="Fill-48" fill="#5F6360"></path>
                            <path d="M20.013014,12.4690171 C19.910368,12.4690171 19.8272331,12.3254274 19.8272331,12.1482906 C19.8272331,11.9709402 19.910368,11.8273504 20.013014,11.8273504 C20.1156601,11.8273504 20.1987949,11.9709402 20.1987949,12.1482906 C20.1987949,12.3254274 20.1156601,12.4690171 20.013014,12.4690171 Z M20.4764059,12.7779915 C20.4772542,12.7715812 20.4789508,12.765812 20.4797992,12.7594017 C20.4853132,12.7128205 20.4876461,12.6643162 20.4887065,12.6153846 C20.4889185,12.6042735 20.4906152,12.5940171 20.4906152,12.582906 C20.4906152,12.5724359 20.4889185,12.5628205 20.4887065,12.5525641 C20.4878581,12.5025641 20.4855253,12.4532051 20.4795871,12.4057692 C20.4789508,12.4002137 20.4774663,12.3950855 20.4768301,12.3895299 C20.4698315,12.3378205 20.4607121,12.2876068 20.4484115,12.2399573 C20.4441699,12.2232906 20.4384438,12.2083333 20.433566,12.1923077 C20.4042992,12.0950855 20.3646404,12.0094017 20.317559,11.9382479 C20.3111966,11.9286325 20.3048343,11.9194444 20.2982598,11.9104701 C20.285323,11.8929487 20.2721742,11.8758547 20.258389,11.8606838 C20.2380295,11.8384615 20.2170337,11.8179487 20.1947654,11.8010684 C20.1864944,11.7944444 20.177375,11.7901709 20.1686798,11.7844017 C20.1495927,11.7720085 20.1298694,11.7611111 20.1097219,11.7527778 C20.1010267,11.7491453 20.0923315,11.7457265 20.0834242,11.7429487 C20.0545815,11.7339744 20.0255267,11.7275641 19.9951994,11.7275641 C19.9648722,11.7275641 19.9358174,11.7339744 19.9069747,11.7429487 C19.8980674,11.7457265 19.8893722,11.7491453 19.880677,11.7527778 C19.8605295,11.7611111 19.8408062,11.7720085 19.821507,11.7844017 C19.8130239,11.7901709 19.8041166,11.7944444 19.7956334,11.8010684 C19.7733652,11.8179487 19.7523694,11.8384615 19.7320098,11.8606838 C19.7182247,11.8758547 19.7050758,11.8929487 19.6923511,11.9104701 C19.6857767,11.9194444 19.6792022,11.9286325 19.6728399,11.9382479 C19.6257584,12.0096154 19.5858876,12.0952991 19.5568329,12.1923077 C19.5555604,12.1963675 19.5542879,12.2 19.5532275,12.2040598 C19.5402907,12.2485043 19.530323,12.2955128 19.5218399,12.3435897 C19.5192949,12.3583333 19.5161138,12.3724359 19.513993,12.3876068 C19.5063581,12.441453 19.5025407,12.4976496 19.5014803,12.5551282 C19.5012683,12.5632479 19.4999958,12.5707265 19.4999958,12.5786325 L19.5021166,12.5786325 C19.5021166,13.0510684 19.7239508,13.4339744 19.9975323,13.4339744 C20.0446138,13.4339744 20.0899986,13.4215812 20.1330506,13.4004274 C20.1400492,13.3967949 20.1468357,13.3933761 20.1536222,13.3893162 C20.1716489,13.3790598 20.1890393,13.367735 20.2060056,13.3540598 C20.2153371,13.3463675 20.2240323,13.3373932 20.2329396,13.3288462 C20.2547837,13.3081197 20.2755674,13.2848291 20.2952907,13.2589744 C20.3090758,13.2410256 20.3224368,13.2228632 20.3349494,13.2025641 C20.3427963,13.1897436 20.3502191,13.1758547 20.3576419,13.1619658 C20.371427,13.1363248 20.3845758,13.1094017 20.3964522,13.0809829 C20.4009059,13.0707265 20.4053596,13.0606838 20.409389,13.0502137 C20.4244466,13.0104701 20.4378076,12.9685897 20.4488357,12.9247863 C20.4607121,12.8779915 20.4696194,12.8288462 20.4764059,12.7779915 Z" id="Fill-49" fill="#1A1919"></path>
                            <path d="M20.0772331,11.8273504 C19.9391053,11.8273504 19.8272331,11.9709402 19.8272331,12.1482906 C19.8272331,12.3254274 19.9391053,12.4690171 20.0772331,12.4690171 C20.215361,12.4690171 20.3272331,12.3254274 20.3272331,12.1482906 C20.3272331,11.9709402 20.215361,11.8273504 20.0772331,11.8273504" id="Fill-50" fill="#FFFFFE"></path>
                            <path d="M19.5568329,12.1923077 C19.5858876,12.0952991 19.6257584,12.0096154 19.6728399,11.9382479 C19.6792022,11.9286325 19.6857767,11.9194444 19.6923511,11.9104701 C19.7050758,11.8929487 19.7182247,11.8758547 19.7320098,11.8606838 C19.7521573,11.8382479 19.7733652,11.8181624 19.7956334,11.8010684 C19.8041166,11.7944444 19.8130239,11.7901709 19.821507,11.7844017 C19.8408062,11.7717949 19.8605295,11.7611111 19.880677,11.7527778 C19.8893722,11.7491453 19.8980674,11.7457265 19.9069747,11.7429487 C19.9356053,11.7337607 19.9648722,11.7275641 19.9951994,11.7275641 C20.0255267,11.7275641 20.0547935,11.7337607 20.0834242,11.7429487 C20.0923315,11.7457265 20.1010267,11.7491453 20.1097219,11.7527778 C20.1298694,11.7611111 20.1495927,11.7717949 20.1686798,11.7844017 C20.177375,11.7901709 20.1864944,11.7944444 20.1947654,11.8010684 C20.2170337,11.8181624 20.2382416,11.8382479 20.258389,11.8606838 C20.2721742,11.8758547 20.285323,11.8929487 20.2982598,11.9104701 C20.3048343,11.9194444 20.3111966,11.9286325 20.317559,11.9382479 C20.3646404,12.0094017 20.4042992,12.0950855 20.433566,12.1923077 L20.433566,12.1925214 L19.9951994,10.1696581 L19.5568329,12.1923077" id="Fill-51" fill="#8A8D88"></path>
                            <path d="M13.0269312,12.4269231 C12.786434,12.4269231 12.5913216,12.2303419 12.5913216,11.9880342 C12.5913216,11.7455128 12.786434,11.5491453 13.0269312,11.5491453 C13.2676404,11.5491453 13.4627528,11.7455128 13.4627528,11.9880342 C13.4627528,12.2303419 13.2676404,12.4269231 13.0269312,12.4269231 Z M14.185941,12.5638889 C14.1853048,12.5232906 14.1827598,12.4831197 14.1780941,12.4435897 C14.1780941,12.4429487 14.177882,12.4423077 14.177882,12.4418803 C14.1732163,12.4027778 14.1668539,12.3645299 14.1585829,12.3267094 C14.1583708,12.3258547 14.1579466,12.3247863 14.1577346,12.3239316 C14.1494635,12.2865385 14.1394958,12.2497863 14.1276194,12.2138889 C14.1274073,12.2132479 14.1269831,12.2123932 14.1267711,12.2115385 C14.1148947,12.175641 14.1013216,12.1403846 14.086264,12.1061966 C14.0858399,12.1053419 14.0854157,12.1047009 14.0852037,12.1040598 C14.069934,12.0696581 14.0529677,12.0358974 14.0345169,12.0034188 C13.9781039,11.9038462 13.9076938,11.8136752 13.8260435,11.7352564 C13.7223371,11.6356838 13.6003919,11.5551282 13.4657219,11.499359 C13.4646615,11.4989316 13.463389,11.4985043 13.4623287,11.4980769 C13.395948,11.4709402 13.3265983,11.4495726 13.2549157,11.4350427 C13.253007,11.4348291 13.2513104,11.4346154 13.2494017,11.434188 C13.177507,11.4200855 13.1030674,11.4121795 13.0269312,11.4121795 C12.9520674,11.4121795 12.8791124,11.4198718 12.8084902,11.4337607 C12.8059452,11.434188 12.8034003,11.4344017 12.8008553,11.4348291 C12.7304452,11.4489316 12.662368,11.4696581 12.5972598,11.4961538 C12.5955632,11.4967949 12.5936545,11.4972222 12.5919579,11.4980769 C12.5257893,11.5252137 12.4625899,11.5583333 12.4032079,11.5967949 C12.4029958,11.5967949 12.4027837,11.5970085 12.4025716,11.5970085 C12.3425534,11.6358974 12.2865646,11.6801282 12.2346053,11.7290598 L12.2333329,11.7331197 L12.2290913,11.734188 C12.1463806,11.8132479 12.0753343,11.9044872 12.0184972,12.0049145 C12.017861,12.0059829 12.0172247,12.007265 12.0165885,12.0083333 C11.999198,12.0393162 11.9835042,12.0711538 11.9690829,12.1036325 C11.9675983,12.1070513 11.9656896,12.1104701 11.9642051,12.1138889 C11.9508441,12.1442308 11.9396039,12.1752137 11.929,12.2066239 C11.9270913,12.2128205 11.9243343,12.2185897 11.9224256,12.2247863 C11.9130941,12.2540598 11.9056713,12.284188 11.8986728,12.3145299 C11.896764,12.3230769 11.894007,12.3314103 11.8920983,12.3401709 C11.885948,12.3698718 11.8817065,12.4004274 11.877677,12.4311966 C11.8766166,12.4403846 11.8744958,12.4495726 11.8736475,12.4589744 C11.8694059,12.4989316 11.8672851,12.5395299 11.8672851,12.5807692 C11.8672851,12.6581197 11.875132,12.733547 11.8893413,12.8066239 C11.8895534,12.8081197 11.8897654,12.8096154 11.8899775,12.8111111 C11.904611,12.884188 11.9260309,12.9544872 11.953389,13.0217949 C11.9538132,13.0228632 11.9540253,13.0237179 11.9544494,13.0245726 C12.0102261,13.1608974 12.0910281,13.284188 12.1907051,13.3891026 C12.2695983,13.4717949 12.360368,13.5429487 12.4600449,13.5995726 C12.4606812,13.6 12.4611053,13.6002137 12.4615295,13.6004274 C12.4927051,13.6181624 12.524941,13.6339744 12.5578132,13.6487179 C12.5603581,13.65 12.5631152,13.6514957 12.5656601,13.6525641 C12.5961994,13.6660256 12.6275871,13.6775641 12.6591868,13.6882479 C12.6647008,13.6901709 12.6697907,13.6925214 12.6753048,13.6942308 C12.7045716,13.7036325 12.7346868,13.7111111 12.764802,13.7181624 C12.773073,13.7200855 12.7809199,13.7226496 12.789191,13.724359 C12.8186699,13.7307692 12.8487851,13.7348291 12.8791124,13.7386752 C12.8882317,13.7399573 12.897139,13.7418803 12.9064705,13.7429487 C12.9461292,13.7470085 12.9862121,13.749359 13.0269312,13.749359 C13.1870506,13.749359 13.3397472,13.7166667 13.4784466,13.6574786 C13.5477963,13.6277778 13.6137528,13.5916667 13.6754677,13.5497863 C13.7988975,13.465812 13.905361,13.3583333 13.9887079,13.2339744 C14.0304874,13.1720085 14.0663287,13.1055556 14.0955955,13.0356838 C14.1543413,12.8957265 14.1867893,12.742094 14.1867893,12.5807692 C14.1867893,12.5779915 14.1863652,12.5754274 14.1863652,12.5726496 C14.1863652,12.5696581 14.185941,12.5668803 14.185941,12.5638889 Z" id="Fill-52" fill="#1A1919"></path>
                            <path d="M13.0269312,11.5491453 C12.786434,11.5491453 12.5913216,11.7455128 12.5913216,11.9880342 C12.5913216,12.2303419 12.786434,12.4269231 13.0269312,12.4269231 C13.2676404,12.4269231 13.4627528,12.2303419 13.4627528,11.9880342 C13.4627528,11.7455128 13.2676404,11.5491453 13.0269312,11.5491453" id="Fill-53" fill="#FFFFFE"></path>
                            <path d="M12.2290913,11.734188 L12.2333329,11.7331197 L12.2346053,11.7290598 L13.0335056,9.26794872 C13.0335056,9.26794872 13.0335056,9.12222222 13.0335056,8.9767094 C13.0335056,8.93568376 13.0335056,8.89487179 13.0335056,8.85726496 C13.0335056,8.84465812 13.0335056,8.83205128 13.0335056,8.82051282 C13.0335056,8.80213675 13.0335056,8.78525641 13.0335056,8.76987179 C13.0335056,8.75876068 13.0335056,8.7482906 13.0335056,8.73910256 C13.0335056,8.72692308 13.0335056,8.71688034 13.0335056,8.70854701 C13.0335056,8.7017094 13.0335056,8.6957265 13.0335056,8.69188034 C13.0335056,8.68760684 13.0332935,8.68525641 13.0332935,8.68525641 C12.5885646,8.59358974 12.131111,8.54294872 11.6630534,8.54294872 C11.5065393,8.54294872 11.3517219,8.54957265 11.1975407,8.56025641 C11.1750604,8.56175214 11.1525801,8.56303419 11.1300997,8.56474359 C10.3284424,8.62606838 9.5388736,8.83675214 8.80783848,9.17307692 C8.18093399,9.46132479 7.59835393,9.84123932 7.07473174,10.2918803 C7.07451966,10.292094 7.07409551,10.2923077 7.07388343,10.292735 C6.93327528,10.4130342 6.79860534,10.5401709 6.66690449,10.6700855 C6.64230337,10.6944444 6.61727809,10.7183761 6.59310112,10.7431624 C6.46903511,10.8688034 6.34942275,10.9989316 6.23362781,11.1326923 C6.20839045,11.1617521 6.18378933,11.191453 6.15897612,11.2209402 C6.04275702,11.359188 5.92950702,11.5 5.82219522,11.6457265 C5.81328792,11.657906 5.80480478,11.6705128 5.79589747,11.682906 C5.69346348,11.8232906 5.59611938,11.9673077 5.50216854,12.1136752 C5.4837177,12.1423077 5.4648427,12.1705128 5.44681601,12.199359 C5.37089185,12.3207265 5.30026966,12.4455128 5.23007163,12.5705128 L8.86891713,12.5705128 L12.2290913,11.734188" id="Fill-54" fill="#B6B7B4"></path>
                            <path d="M15.3010506,11.457265 C15.3084733,11.3611111 15.3144115,11.2651709 15.3195014,11.1690171 C15.3260758,11.0391026 15.3305295,10.9089744 15.3330744,10.7786325 C15.3349831,10.6777778 15.3347711,10.5764957 15.3343469,10.4754274 C15.3341348,10.4463675 15.3349831,10.417094 15.334559,10.3880342 C15.332014,10.1273504 15.3218343,9.86666667 15.3059284,9.60555556 C15.3052921,9.60512821 15.3046559,9.60470085 15.3038076,9.6042735 C15.3035955,9.60363248 15.3031713,9.60299145 15.3029593,9.60235043 C15.3018989,9.6017094 15.2980815,9.59957265 15.2946882,9.59764957 C15.2917191,9.5957265 15.2889621,9.59423077 15.283236,9.59102564 C15.2357303,9.56346154 15.118875,9.49615385 15.0141081,9.43611111 C15.0117753,9.43482906 15.0094424,9.43354701 15.0073216,9.43226496 C14.9808118,9.41709402 14.9551503,9.4025641 14.9320337,9.38931624 C14.9316096,9.38910256 14.9309733,9.38867521 14.9307612,9.38846154 C14.9106138,9.37713675 14.8938596,9.36773504 14.8783778,9.35918803 C14.8754087,9.35726496 14.8711671,9.35491453 14.868198,9.35320513 C14.8512317,9.34380342 14.8378708,9.33653846 14.830236,9.33247863 C14.6629059,9.24508547 14.4923947,9.16410256 14.3187022,9.09017094 C13.9049368,8.91431624 13.347382,8.76004274 13.0335056,8.68525641 L13.0335056,8.9767094 C13.0335056,9.12222222 13.0335056,9.26794872 13.0335056,9.26794872 L13.8251952,11.7331197 L13.8260435,11.7352564 C13.9076938,11.8136752 13.9781039,11.9038462 14.0345169,12.0032051 L14.0345169,12.0034188 C14.0529677,12.0358974 14.069934,12.0696581 14.0852037,12.1040598 C14.0856278,12.1047009 14.0858399,12.1053419 14.086264,12.1061966 C14.1013216,12.1403846 14.1148947,12.175641 14.1267711,12.2115385 C14.1269831,12.2123932 14.1274073,12.2132479 14.1276194,12.2138889 C14.1394958,12.2497863 14.1494635,12.2865385 14.1577346,12.3239316 C14.1579466,12.3247863 14.1583708,12.3258547 14.1585829,12.3267094 C14.1668539,12.3645299 14.1732163,12.4027778 14.177882,12.4418803 C14.177882,12.4423077 14.1780941,12.4429487 14.1780941,12.4435897 C14.1827598,12.4831197 14.1853048,12.5232906 14.185941,12.5638889 L14.1889101,12.5705128 L15.1583216,12.5705128 C15.2238539,12.2130342 15.2694508,11.8508547 15.2982935,11.4871795 C15.2991419,11.4771368 15.3002022,11.467094 15.3010506,11.457265" id="Fill-55" fill="#E0DAD3"></path>
                            <path d="M16.5711601,10.5854701 C16.5696601,10.5884701 16.5686601,10.5909701 16.5671601,10.5934701 C16.5686601,10.5909701 16.5701601,10.5884701 16.5711601,10.5859701" id="Fill-56" fill="#F1A948"></path>
                            <path d="M14.1942121,16.0833333 C14.4141376,15.8628205 14.6217626,15.6517094 14.8198441,15.4446581 C14.9375478,15.3217949 15.0527065,15.2 15.1623511,15.0799145 C15.9727037,14.1938034 16.5675843,13.3645299 16.925361,12.2978632 C16.9338441,12.2726496 16.9421152,12.2391026 16.9503862,12.2017094 C16.9516587,12.1959402 16.9529312,12.1903846 16.9542037,12.1844017 C16.9624747,12.1446581 16.9707458,12.1002137 16.9788048,12.0504274 C16.982198,12.0160256 16.9853792,11.9826923 16.9885604,11.9504274 C16.898639,11.4858974 16.7238862,11.0344017 16.5699171,10.5886752 C16.5705534,10.5901709 16.5711896,10.5916667 16.5716138,10.5931624 C16.5707654,10.5925214 16.5677963,10.5895299 16.5671601,10.5888889 C16.5376812,10.5606838 16.5067177,10.5344017 16.4768146,10.5066239 C16.3856208,10.4220085 16.2929424,10.3393162 16.1985674,10.259188 C15.9154424,10.0185897 15.6181081,9.79935897 15.3059284,9.60555556 C15.3218343,9.86666667 15.332014,10.1273504 15.334559,10.3880342 C15.3349831,10.417094 15.3341348,10.4463675 15.3343469,10.4754274 C15.3347711,10.5764957 15.3349831,10.6777778 15.3330744,10.7786325 C15.3305295,10.9089744 15.3260758,11.0391026 15.3195014,11.1690171 C15.3144115,11.2651709 15.3084733,11.3611111 15.3010506,11.457265 C15.3002022,11.467094 15.2991419,11.4771368 15.2982935,11.4871795 C15.2694508,11.8508547 15.2238539,12.2130342 15.1583216,12.5705128 L15.0444354,13.1130342 C14.8066952,14.0844017 14.3235801,14.9655983 13.9263567,15.8754274 C13.8209537,16.1168803 13.7212767,16.3606838 13.6334761,16.609188 C13.6256292,16.6320513 13.6171461,16.6557692 13.6086629,16.6794872 C13.7327289,16.5480769 13.8425857,16.4344017 13.9261447,16.3512821 C14.0171264,16.2604701 14.1066236,16.1711538 14.1942121,16.0833333" id="Fill-57" fill="#F1A948"></path>
                            <path d="M12.2346053,11.7290598 C12.2865646,11.6801282 12.3425534,11.6358974 12.4025716,11.5970085 C12.4027837,11.5970085 12.4029958,11.5967949 12.4032079,11.5967949 C12.4625899,11.5583333 12.5257893,11.5252137 12.5919579,11.4980769 C12.5936545,11.4972222 12.5955632,11.4967949 12.5972598,11.4961538 C12.662368,11.4696581 12.7304452,11.4489316 12.8008553,11.4348291 C12.8034003,11.4344017 12.8059452,11.434188 12.8084902,11.4337607 C12.8791124,11.4198718 12.9520674,11.4121795 13.0269312,11.4121795 C13.1030674,11.4121795 13.177507,11.4200855 13.2494017,11.434188 C13.2513104,11.4346154 13.253007,11.4346154 13.2549157,11.4350427 C13.3265983,11.4495726 13.395948,11.4709402 13.4623287,11.4980769 C13.463389,11.4985043 13.4646615,11.4989316 13.4657219,11.499359 C13.6003919,11.5551282 13.7223371,11.6356838 13.8260435,11.7352564 L13.8251952,11.7331197 L13.0335056,9.26794872 L12.2346053,11.7290598" id="Fill-58" fill="#8A8D88"></path>
                            <path d="M11.953389,13.0217949 C11.9260309,12.9544872 11.904611,12.884188 11.8899775,12.8111111 C11.8897654,12.8096154 11.8895534,12.8081197 11.8893413,12.8066239 C11.875132,12.733547 11.8672851,12.6581197 11.8672851,12.5807692 C11.8672851,12.5395299 11.8694059,12.4989316 11.8736475,12.4589744 C11.8744958,12.4495726 11.8766166,12.4403846 11.877677,12.4311966 C11.8817065,12.4004274 11.885948,12.3698718 11.8920983,12.3401709 C11.894007,12.3314103 11.896764,12.3230769 11.8986728,12.3145299 C11.9056713,12.284188 11.9130941,12.2540598 11.9224256,12.2247863 C11.9243343,12.2185897 11.9268792,12.2128205 11.929,12.2066239 C11.9396039,12.1752137 11.9508441,12.1442308 11.9642051,12.1138889 C11.9656896,12.1104701 11.9675983,12.1070513 11.9690829,12.1036325 C11.9835042,12.0711538 11.999198,12.0393162 12.0165885,12.0083333 C12.0172247,12.007265 12.018073,12.0059829 12.0184972,12.0049145 C12.0753343,11.9044872 12.1463806,11.8132479 12.2290913,11.734188 L8.86891713,12.5705128 L8.8623427,12.5705128 L12.1907051,13.3891026 C12.0910281,13.284188 12.0102261,13.1608974 11.9544494,13.0245726 C11.9540253,13.0237179 11.9538132,13.0228632 11.953389,13.0217949" id="Fill-59" fill="#5F6360"></path>
                            <path d="M19.513993,12.3876068 C19.5161138,12.3724359 19.5192949,12.3583333 19.5218399,12.3435897 C19.530323,12.2955128 19.5402907,12.2485043 19.5532275,12.2040598 C19.5547121,12.1989316 19.5551362,12.1931624 19.5566208,12.1882479 L19.9951994,10.1655983 L19.9951994,9.01217949 C19.6369986,8.71410256 19.2533483,8.55106838 18.8537921,8.55106838 C18.349257,8.55106838 17.8786545,8.83183761 17.5266039,9.17863248 C17.1416812,9.55811966 16.8441348,10.0356838 16.6034256,10.5175214 C16.5923975,10.5397436 16.5811573,10.5611111 16.5701292,10.5833333 C16.6443567,10.6480769 16.717736,10.7136752 16.7900548,10.7803419 C16.9539916,10.9314103 17.114323,11.0865385 17.2723216,11.2435897 C17.346125,11.3168803 17.4184438,11.3918803 17.4909747,11.4662393 C17.5677472,11.5450855 17.6449438,11.6239316 17.7206559,11.7040598 C17.818,11.807265 17.9147079,11.9115385 18.0103553,12.0166667 C18.0504382,12.0608974 18.0907331,12.1051282 18.1306039,12.1497863 C18.2457626,12.2782051 18.3604972,12.4074786 18.473323,12.5382479 L18.4735351,12.5384615 C18.4924101,12.558547 18.5057711,12.5728632 18.510861,12.5786325 L19.4997837,12.5786325 C19.4997837,12.5705128 19.5012683,12.5632479 19.5014803,12.5551282 C19.5025407,12.4976496 19.5063581,12.441453 19.513993,12.3876068" id="Fill-60" fill="#E0DAD3"></path>
                            <path d="M16.5736601,10.5926838 C16.5731601,10.5901838 16.5721601,10.5876838 16.5711601,10.5856838 C16.5701601,10.5881838 16.5686601,10.5906838 16.5671601,10.5931838 C16.5686601,10.5946838 16.5756601,10.6016838 16.5776601,10.6031838 C16.5766601,10.5996838 16.5751601,10.5961838 16.5736601,10.5926838" id="Fill-61" fill="#E0DAD3"></path>
                            <path d="M4.63391854,13.8433761 C4.63667556,13.8358974 4.63985674,13.8286325 4.64261376,13.8211538 C4.70644944,13.6534188 4.77622331,13.4878205 4.84939045,13.3239316 C4.86975,13.2782051 4.89095787,13.2331197 4.91195365,13.1876068 C4.97197191,13.0589744 5.03538343,12.9320513 5.10133989,12.8064103 C5.1280618,12.7551282 5.15414747,12.7038462 5.18192978,12.6532051 C5.19719944,12.6252137 5.21437781,12.5982906 5.23007163,12.5705128 C5.30026966,12.4455128 5.37089185,12.3207265 5.44681601,12.199359 C5.4648427,12.1705128 5.4837177,12.1423077 5.50216854,12.1136752 C5.59611938,11.9673077 5.69346348,11.8232906 5.79589747,11.682906 C5.80480478,11.6705128 5.81328792,11.657906 5.82219522,11.6457265 C5.92950702,11.5 6.04275702,11.359188 6.15897612,11.2209402 C6.18378933,11.191453 6.20839045,11.1617521 6.23362781,11.1326923 C6.34942275,10.9989316 6.46903511,10.8688034 6.59310112,10.7431624 C6.61727809,10.7183761 6.64230337,10.6944444 6.66690449,10.6700855 C6.79860534,10.5401709 6.93327528,10.4130342 7.07388343,10.292735 C7.07409551,10.2923077 7.07451966,10.292094 7.07473174,10.2918803 C7.62762079,8.42521368 9.31979635,7.06645299 11.3220309,7.06645299 C12.1281419,7.06645299 12.9295871,7.30021368 13.6165098,7.72371795 C14.3210351,8.15790598 14.895132,8.79380342 15.2679663,9.53547009 C15.269875,9.53910256 15.2717837,9.54294872 15.2736924,9.5465812 C15.2830239,9.56538462 15.2936278,9.58333333 15.3029593,9.60235043 C15.3031713,9.60299145 15.3035955,9.60363248 15.3038076,9.6042735 C15.3046559,9.60470085 15.3052921,9.60512821 15.3059284,9.60555556 C15.6181081,9.79935897 15.9156545,10.0185897 16.1985674,10.259188 C16.2929424,10.3393162 16.3856208,10.4220085 16.4768146,10.5066239 C16.5067177,10.5344017 16.5376812,10.5606838 16.5671601,10.5888889 C16.5677963,10.5878205 16.5682205,10.5867521 16.5688567,10.5854701 C16.5692809,10.5848291 16.5697051,10.5839744 16.5699171,10.5833333 C16.5800969,10.5621795 16.5902767,10.540812 16.6004565,10.5200855 C16.8827331,8.7258547 17.6682725,7.43333333 18.5948441,7.43333333 C19.293007,7.43333333 19.9118525,8.16709402 20.2950787,9.2965812 L20.2991081,9.30854701 C20.2993202,9.30897436 20.2997444,9.30940171 20.3001685,9.30982906 C20.4083287,9.4284188 20.5139438,9.55897436 20.6161657,9.70213675 L20.6159537,9.70213675 C20.6180744,9.70491453 20.6199831,9.70726496 20.6221039,9.71004274 C20.627618,9.72649573 20.6322837,9.74337607 20.6375857,9.75982906 L20.6375857,9.75961538 L20.6231643,9.7008547 C19.4705169,6.26282051 16.2431039,3.78760684 12.4418062,3.78760684 C7.67364185,3.78760684 3.80829635,7.68205128 3.80829635,12.4858974 C3.80829635,13.432906 3.95866011,14.3446581 4.23754354,15.1931624 C4.23775562,15.191453 4.23817978,15.1899573 4.23860393,15.1882479 C4.2935323,14.9324786 4.35927669,14.6779915 4.435625,14.4262821 C4.4952191,14.2301282 4.56159972,14.0356838 4.63391854,13.8433761" id="Fill-62" fill="#4B4D4A"></path>
                            <path d="M20.7521081,12.5820513 L20.4509565,12.9213675 C20.4507444,12.9222222 20.4505323,12.9228632 20.4503202,12.9237179 C20.438868,12.9681624 20.4248708,13.0100427 20.409389,13.0502137 C20.4053596,13.0606838 20.4009059,13.0707265 20.3964522,13.0809829 C20.3843638,13.1094017 20.371639,13.1363248 20.3576419,13.1619658 C20.3502191,13.1758547 20.3427963,13.1897436 20.3349494,13.2025641 C20.3224368,13.2228632 20.3090758,13.2412393 20.2952907,13.2589744 C20.2755674,13.2848291 20.2547837,13.3081197 20.2329396,13.3288462 C20.2240323,13.3371795 20.2153371,13.3465812 20.2060056,13.3540598 C20.1890393,13.367735 20.1716489,13.3790598 20.1536222,13.3893162 C20.1468357,13.3933761 20.1400492,13.3970085 20.1330506,13.4004274 C20.0899986,13.4215812 20.0446138,13.4339744 19.9975323,13.4339744 C19.7239508,13.4339744 19.5021166,13.0510684 19.5021166,12.5786325 L18.5078919,12.5786325 C18.5081039,12.5788462 18.508316,12.5792735 18.5085281,12.5794872 C18.6930365,12.7942308 18.8745758,13.0117521 19.0533581,13.2316239 C19.055691,13.234188 19.0578118,13.2367521 19.0599326,13.2395299 C19.2338371,13.4534188 19.4054087,13.6694444 19.5748596,13.8865385 C19.5831306,13.8972222 19.5916138,13.907906 19.5998848,13.9185897 C19.7606404,14.125 19.9194874,14.332906 20.0772739,14.541453 C20.0925435,14.5617521 20.1080253,14.5818376 20.1230829,14.6019231 C20.2897767,14.8228632 20.454986,15.0444444 20.6189228,15.2662393 C20.6199831,15.267735 20.6212556,15.2692308 20.622316,15.2709402 C20.9065014,14.4241453 21.0653483,13.5196581 21.0751039,12.5786325 L20.7550772,12.5786325 L20.7521081,12.5820513" id="Fill-63" fill="#FFFFFE"></path>
                            <path d="M11.1300997,8.56474359 C11.1525801,8.56303419 11.1750604,8.56175214 11.1975407,8.56025641 C11.3517219,8.54957265 11.5065393,8.54294872 11.6630534,8.54294872 C12.131111,8.54294872 12.5885646,8.59358974 13.0332935,8.68525641 C13.0332935,8.68525641 13.0335056,8.68782051 13.0335056,8.69188034 C13.0335056,8.6957265 13.0335056,8.7017094 13.0335056,8.70854701 C13.0335056,8.71666667 13.0335056,8.72735043 13.0335056,8.73910256 C13.0335056,8.7482906 13.0335056,8.75876068 13.0335056,8.76987179 C13.0335056,8.78504274 13.0335056,8.80235043 13.0335056,8.82051282 C13.0335056,8.83205128 13.0335056,8.84465812 13.0335056,8.85726496 C13.0335056,8.8732906 13.0335056,8.88995726 13.0335056,8.90705128 L13.0335056,8.68525641 C13.347382,8.76004274 13.9049368,8.91431624 14.3187022,9.09017094 C14.4923947,9.16410256 14.6629059,9.24508547 14.830236,9.33247863 C14.8378708,9.33653846 14.8512317,9.34380342 14.868198,9.35320513 C14.8711671,9.35491453 14.8754087,9.35726496 14.8783778,9.35918803 C14.8938596,9.36773504 14.9108258,9.37735043 14.9307612,9.38846154 C14.9309733,9.38867521 14.9316096,9.38910256 14.9320337,9.38931624 C14.9553624,9.4025641 14.9805997,9.41709402 15.0073216,9.43226496 C15.0094424,9.43354701 15.0117753,9.43482906 15.0141081,9.43611111 C15.1203596,9.49700855 15.2382753,9.56495726 15.283236,9.59102564 C15.2889621,9.59423077 15.2917191,9.5957265 15.2946882,9.59764957 C15.2970211,9.59893162 15.302111,9.60192308 15.3029593,9.60235043 C15.2936278,9.58333333 15.2830239,9.56538462 15.2736924,9.5465812 C15.2717837,9.54294872 15.269875,9.53910256 15.2679663,9.53547009 C14.895132,8.79380342 14.3210351,8.15790598 13.6165098,7.72371795 C12.9295871,7.30021368 12.1281419,7.06645299 11.3220309,7.06645299 C9.31979635,7.06645299 7.62762079,8.42521368 7.07473174,10.2918803 C7.59835393,9.84123932 8.18093399,9.46132479 8.80783848,9.17307692 C9.5388736,8.83675214 10.3284424,8.62606838 11.1300997,8.56474359" id="Fill-64" fill="#1A1919"></path>
                            <path d="M13.0335056,8.90705128 L13.0335056,9.02805128" id="Stroke-65" stroke-linecap="round" stroke-linejoin="round"></path>
                            <path d="M17.5266039,9.17863248 C17.8786545,8.83183761 18.349257,8.55106838 18.8537921,8.55106838 C19.2533483,8.55106838 19.6369986,8.71410256 19.9951994,9.01217949 C19.9951994,9.01217949 19.9951994,9.01474359 19.9951994,9.01559829 L19.9951994,9.01623932 L19.9951994,9.01559829 C20.0272233,9.04230769 20.058611,9.07222222 20.0904228,9.10106838 C20.1095098,9.11858974 20.1290211,9.13461538 20.1481081,9.15299145 C20.1983708,9.20149573 20.2479972,9.25277778 20.2971994,9.30662393 C20.2982598,9.30769231 20.2991081,9.30876068 20.3001685,9.30982906 C20.2997444,9.30961538 20.2995323,9.30918803 20.2991081,9.30876068 L20.2950787,9.2965812 C19.9118525,8.16709402 19.293007,7.43333333 18.5948441,7.43333333 C17.6682725,7.43333333 16.8827331,8.7258547 16.6004565,10.5200855 L16.6034256,10.5175214 C16.8441348,10.0356838 17.1416812,9.55811966 17.5266039,9.17863248" id="Fill-66" fill="#1A1919"></path>
                            <path d="M9.35054775,20.6 C9.42944101,20.6303419 9.50960674,20.657906 9.58956039,20.6861111 C10.4826236,21.0014957 11.4416433,21.175 12.4418062,21.175 C13.5821531,21.175 14.6696924,20.9502137 15.66625,20.5455128 C15.7188455,20.5241453 15.7705927,20.5008547 15.822764,20.4784188 C15.9073834,20.442094 15.9913666,20.4047009 16.0745014,20.365812 C16.148941,20.3309829 16.2233806,20.2963675 16.2967598,20.2596154 C16.2789452,20.2617521 16.2613427,20.2651709 16.2435281,20.267094 C15.9338933,20.3023504 15.6263792,20.3042735 15.3260758,20.2608974 C13.5497051,20.0036325 13.1560871,19.1405983 13.2125,18.2418803 C13.0846166,18.167735 12.9544003,18.0839744 12.8220632,17.9871795 C11.4558525,16.9886752 10.6450758,15.9247863 10.6450758,15.9247863 C10.6450758,15.9247863 11.6988947,16.7444444 13.2731545,17.357906 C13.306875,17.3711538 13.3384747,17.3824786 13.371559,17.3950855 C13.4451503,17.1388889 13.5321025,16.8952991 13.6086629,16.6794872 C13.6171461,16.6557692 13.6256292,16.6320513 13.6334761,16.609188 C13.7212767,16.3606838 13.8209537,16.1168803 13.9263567,15.8754274 C14.3235801,14.9655983 14.8066952,14.0844017 15.0444354,13.1130342 L15.1583216,12.5705128 L14.1867893,12.5705128 C14.1867893,12.5711538 14.1867893,12.5717949 14.1867893,12.5724359 L14.1863652,12.5726496 C14.1863652,12.5754274 14.1867893,12.5779915 14.1867893,12.5807692 C14.1867893,12.742094 14.1543413,12.8957265 14.0955955,13.0356838 C14.0663287,13.1055556 14.0304874,13.1720085 13.9887079,13.2339744 C13.905361,13.3583333 13.7988975,13.465812 13.6754677,13.5497863 C13.6137528,13.5916667 13.5477963,13.6277778 13.4784466,13.6574786 C13.3397472,13.7166667 13.1870506,13.749359 13.0269312,13.749359 C12.9862121,13.749359 12.9461292,13.7470085 12.9064705,13.7429487 C12.897139,13.7418803 12.8882317,13.7399573 12.8791124,13.7386752 C12.8487851,13.7348291 12.8186699,13.7307692 12.789191,13.724359 C12.7809199,13.7226496 12.773073,13.7200855 12.764802,13.7181624 C12.7346868,13.7111111 12.7045716,13.7036325 12.6753048,13.6942308 C12.6697907,13.6925214 12.6647008,13.6901709 12.6591868,13.6882479 C12.6275871,13.6775641 12.5961994,13.6660256 12.5656601,13.6525641 C12.5631152,13.6514957 12.5603581,13.65 12.5578132,13.6487179 C12.524941,13.6339744 12.4927051,13.6181624 12.4615295,13.6004274 C12.4611053,13.6002137 12.4606812,13.6 12.4600449,13.5995726 C12.360368,13.5429487 12.2695983,13.4717949 12.1907051,13.3891026 L8.8623427,12.5705128 L5.23007163,12.5705128 C5.21437781,12.5982906 5.19719944,12.6252137 5.18192978,12.6532051 C5.15414747,12.7038462 5.1280618,12.7553419 5.10133989,12.8064103 C5.03538343,12.9320513 4.97197191,13.0589744 4.91195365,13.1876068 C4.89074579,13.232906 4.86975,13.2784188 4.84939045,13.3239316 C4.77622331,13.4878205 4.70644944,13.6534188 4.64261376,13.8211538 C4.63985674,13.8286325 4.63667556,13.8358974 4.63391854,13.8433761 C4.56159972,14.0356838 4.4952191,14.2301282 4.435625,14.4262821 C4.35927669,14.6779915 4.2935323,14.9324786 4.23860393,15.1882479 C4.81058006,16.9455128 5.92293258,18.4553419 7.37736798,19.5196581 C7.41978371,19.550641 7.46432022,19.5782051 7.50737219,19.6083333 C7.75317135,19.7816239 8.00745365,19.9438034 8.27106742,20.090812 C8.61739185,20.2839744 8.97728933,20.4555556 9.35054775,20.6" id="Fill-67" fill="#FFFFFE"></path>
                            <path d="M15.3112303,17.8980769 C15.2980815,17.991453 15.2889621,18.082906 15.2864171,18.1713675 C15.2813272,18.332265 15.2923553,18.4850427 15.3154719,18.6294872 C15.3309537,18.7258547 15.3517374,18.8183761 15.3767626,18.9070513 C15.4143006,19.0399573 15.461382,19.1638889 15.5141896,19.2786325 C15.5667851,19.3935897 15.6248947,19.4989316 15.6847008,19.5944444 C15.7046362,19.6262821 15.7247837,19.6570513 15.7449312,19.6867521 C15.7752584,19.7311966 15.8055857,19.7730769 15.8354888,19.8123932 C15.8751475,19.8647436 15.9135337,19.9106838 15.9506475,19.9538462 C16.1088581,20.1373932 16.2337725,20.2369658 16.2337725,20.2369658 C16.2337725,20.2369658 16.2346208,20.2399573 16.2363174,20.2450855 C16.238014,20.2504274 16.240559,20.257906 16.2435281,20.267094 C16.2613427,20.2651709 16.2789452,20.2617521 16.2967598,20.2596154 C16.6816826,20.2108974 17.0693624,20.1059829 17.4521643,19.9673077 C17.6472767,19.8965812 17.8415407,19.8198718 18.0326236,19.7320513 C18.0909452,19.7051282 18.1479944,19.6754274 18.2058919,19.6472222 C20.1833132,18.6837607 21.8394354,16.9797009 21.8394354,16.9797009 C19.3547219,18.2098291 16.9262093,18.1606838 15.3112303,17.8980769" id="Fill-68" fill="#8B234A"></path>
                            <path d="M20.0772739,14.7551282 C19.9194874,14.5465812 19.7606404,14.3386752 19.5998848,14.132265 C19.5916138,14.1215812 19.5831306,14.1108974 19.5748596,14.1002137 C19.4054087,13.8831197 19.2338371,13.667094 19.0599326,13.4532051 C19.0578118,13.4504274 19.055691,13.4478632 19.0533581,13.4452991 C18.8745758,13.2254274 18.6930365,13.007906 18.5085281,12.7931624 C18.4968638,12.7794872 18.4851994,12.7655983 18.473323,12.7519231 C18.3604972,12.6211538 18.2457626,12.4918803 18.1306039,12.3634615 C18.0905211,12.3188034 18.0506503,12.274359 18.0103553,12.2303419 C17.9147079,12.1252137 17.818,12.0209402 17.7206559,11.917735 C17.6447317,11.8378205 17.5679593,11.7587607 17.4909747,11.6799145 C17.4184438,11.6055556 17.346125,11.5305556 17.2723216,11.457265 C17.114111,11.3002137 16.9539916,11.1450855 16.7900548,10.9940171 C16.7175239,10.9273504 16.6441447,10.8615385 16.5699171,10.7970085 C16.5697051,10.7976496 16.5692809,10.7985043 16.5688567,10.7991453 C16.7249466,11.2508547 16.9028806,11.7083333 16.9919537,12.1792735 C17.0152823,12.3019231 17.0343694,12.4211538 17.0500632,12.5376068 C17.2672317,14.1679487 16.7489115,15.2326923 15.925198,16.6331197 C15.8662402,16.7333333 15.8055857,16.8354701 15.7436587,16.9395299 C15.5553329,17.2559829 15.4346601,17.5555556 15.3648862,17.8367521 C15.3415576,17.9305556 15.3239551,18.0222222 15.3112303,18.1117521 C16.9262093,18.374359 19.3547219,18.4235043 21.8394354,17.1933761 C21.8394354,17.1933761 21.3520787,16.4717949 20.6189228,15.4799145 C20.454986,15.2581197 20.2897767,15.0365385 20.1230829,14.8155983 C20.1080253,14.7955128 20.0925435,14.7754274 20.0772739,14.7551282" id="Fill-69" fill="#D01665"></path>
                            <path d="M16.2337725,20.2369658 C16.2337725,20.2369658 16.1088581,20.1373932 15.9506475,19.9538462 C15.9135337,19.9106838 15.8751475,19.8647436 15.8354888,19.8123932 C15.8055857,19.7730769 15.7752584,19.7311966 15.7449312,19.6867521 C15.7247837,19.6570513 15.7046362,19.6262821 15.6847008,19.5944444 C15.6248947,19.4989316 15.5667851,19.3935897 15.5141896,19.2786325 C15.461382,19.1638889 15.4143006,19.0399573 15.3767626,18.9070513 C15.3517374,18.8183761 15.3309537,18.7258547 15.3154719,18.6294872 C15.2923553,18.4850427 15.2813272,18.332265 15.2864171,18.1713675 C15.2889621,18.082906 15.2980815,17.991453 15.3112303,17.8980769 C15.3239551,17.808547 15.3415576,17.7168803 15.3648862,17.6230769 C15.4346601,17.3418803 15.5553329,17.0423077 15.7436587,16.7258547 C15.7442949,16.725 15.7447191,16.7241453 15.7451433,16.7232906 C15.8066461,16.6200855 15.8666643,16.5188034 15.925198,16.4194444 C16.7489115,15.0190171 17.2672317,13.9542735 17.0500632,12.3239316 C17.0343694,12.2074786 17.0152823,12.0882479 16.9919537,11.9655983 C16.9796531,12.0504274 16.9671404,12.1232906 16.9542037,12.1844017 C16.9529312,12.1903846 16.9516587,12.1959402 16.9503862,12.2017094 C16.9421152,12.2388889 16.9338441,12.2726496 16.925361,12.2978632 C16.5675843,13.3645299 15.9727037,14.1938034 15.1623511,15.0799145 C15.0527065,15.2 14.9375478,15.3217949 14.8198441,15.4446581 C14.6217626,15.6517094 14.4141376,15.8628205 14.1942121,16.0833333 C14.1066236,16.1711538 14.0171264,16.2604701 13.9261447,16.3512821 C13.8425857,16.4344017 13.7327289,16.5480769 13.6086629,16.6794872 C13.5321025,16.8952991 13.4451503,17.1388889 13.371559,17.3950855 C13.3384747,17.3824786 13.306875,17.3711538 13.2731545,17.357906 C11.6988947,16.7444444 10.6450758,15.9247863 10.6450758,15.9247863 C10.6450758,15.9247863 11.4558525,16.9886752 12.8220632,17.9871795 C12.9544003,18.0839744 13.0846166,18.167735 13.2125,18.2418803 C13.1560871,19.1405983 13.5497051,20.0036325 15.3260758,20.2608974 C15.6263792,20.3042735 15.9338933,20.3023504 16.2435281,20.267094 C16.240559,20.257906 16.238014,20.2504274 16.2363174,20.2450855 C16.2346208,20.2399573 16.2337725,20.2369658 16.2337725,20.2369658" id="Fill-70" fill="#1A1919"></path>
                        </g>
                    </g>
                </g>
            </g>
        </g>
    </g>
</svg>