<?xml version="1.0" encoding="UTF-8"?>
<svg width="434px" height="434px" viewBox="0 0 434 434" version="1.1" xmlns="http://www.w3.org/2000/svg" xmlns:xlink="http://www.w3.org/1999/xlink">
    <!-- Generator: Sketch 51 (57462) - http://www.bohemiancoding.com/sketch -->
    <title>one click</title>
    <desc>Created with Sketch.</desc>
    <defs></defs>
    <g id="SG" stroke="none" stroke-width="1" fill="none" fill-rule="evenodd">
        <g id="Desktop-STRONA-GLOWNA-12" transform="translate(-395.000000, -210.000000)" fill="#FFFFFF" fill-rule="nonzero">
            <g id="one-click" transform="translate(385.000000, 200.000000)">
                <g id="OneClick-White" transform="translate(132.000000, 133.000000)">
                    <path d="M188.279915,163.487919 C189.155751,164.35892 189.15889,165.774227 188.286927,166.649097 C187.414964,167.523966 185.998093,167.527102 185.122257,166.656101 L141.987387,123.759336 C141.111551,122.888335 141.108412,121.473027 141.980375,120.598158 C142.852338,119.723289 144.269209,119.720153 145.145045,120.591154 L188.279915,163.487919 Z M152.52879,114.081457 C151.463214,114.706831 150.091869,114.350931 149.465804,113.286532 C148.839739,112.222132 149.196032,110.8523 150.261607,110.226926 L173.414342,96.6388417 C174.479917,96.0134674 175.851263,96.3693675 176.477328,97.4337669 C177.103393,98.4981664 176.7471,99.8679986 175.681524,100.493373 L152.52879,114.081457 Z M185.342062,89.1241003 C185.403321,90.3571026 184.452332,91.4062544 183.217968,91.4674463 C181.983603,91.5286383 180.933293,90.5786983 180.872033,89.345696 C180.86989,89.302557 180.867171,89.2593629 180.864046,89.2183607 C180.723719,87.4017852 179.59186,85.8756029 177.883904,85.2018849 L128.587332,65.748025 C127.437898,65.2944247 126.874219,63.9959363 127.32832,62.8477699 C127.782421,61.6996036 129.082344,61.1365466 130.231779,61.590147 L179.528043,81.0438856 C182.825428,82.3445673 185.054024,85.3495743 185.326483,88.8766599 C185.332772,88.9591515 185.337965,89.0416374 185.342062,89.1241003 Z M113.581895,55.0196188 C114.731329,55.4732191 115.295008,56.7717075 114.840907,57.9198739 C114.386806,59.0680402 113.086883,59.6310972 111.937448,59.1774969 L86.9626221,49.3217047 C85.8131875,48.8681044 85.2495085,47.569616 85.7036099,46.4214496 C86.1577113,45.2732833 87.4576341,44.7102263 88.6070687,45.1638267 L113.581895,55.0196188 Z M76.1196557,40.2359306 C77.2690903,40.6895309 77.8327693,41.9880193 77.3786679,43.1361856 C76.9245665,44.2843519 75.6246437,44.8474089 74.4752091,44.3938086 L36.4969217,29.4064716 C34.6958773,28.6938313 32.7585395,29.0931391 31.3867036,30.4574024 C30.0197107,31.8168494 29.6214742,33.7295345 30.333,35.5139127 L31.8270364,39.2582014 C32.2846234,40.4049861 31.7248914,41.705177 30.5768399,42.1622591 C29.4287885,42.6193412 28.1271613,42.0602269 27.6695743,40.9134422 L26.175349,37.16868 C24.8001769,33.7199971 25.593379,29.910338 28.2290455,27.2892205 C30.8626463,24.6701572 34.687253,23.8818615 38.1432643,25.2493429 L76.1196557,40.2359306 Z M34.2978512,57.5249406 C33.8402642,56.378156 34.3999962,55.0779651 35.5480477,54.6208829 C36.6960991,54.1638008 37.9977263,54.7229152 38.4553133,55.8696999 L48.3977288,80.7869475 C48.8553158,81.9337322 48.2955838,83.2339231 47.1475323,83.6910052 C45.9994809,84.1480873 44.6978537,83.588973 44.2402667,82.4421883 L34.2978512,57.5249406 Z M49.2114744,94.9008121 C48.7538874,93.7540275 49.3136194,92.4538366 50.4616708,91.9967544 C51.6097223,91.5396723 52.9113494,92.0987867 53.3689365,93.2455714 L75.9050781,149.724666 C76.3626652,150.871451 75.8029332,152.171642 74.6548817,152.628724 C73.5068303,153.085806 72.2052031,152.526692 71.7476161,151.379907 L49.2114744,94.9008121 Z M78.375893,167.991405 C77.918306,166.844621 78.478038,165.54443 79.6260894,165.087348 C80.7741409,164.630265 82.075768,165.18938 82.5333551,166.336165 L86.4405743,176.128267 C87.1154136,177.817868 88.655412,178.946511 90.4691107,179.087664 C92.3050281,179.217391 94.0195993,178.336343 94.9402547,176.783851 L95.4232623,175.971465 C96.0543451,174.910027 97.4273554,174.56059 98.4899666,175.190976 C99.5525777,175.821363 99.9024005,177.192858 99.2713177,178.254297 L98.7896068,179.064499 C96.9999313,182.082415 93.6664543,183.795353 90.137456,183.545936 C86.6102081,183.271533 83.5914069,181.059097 82.2833909,177.784206 L78.375893,167.991405 Z M106.127377,166.722869 C105.496294,167.784307 104.123284,168.133744 103.060673,167.503358 C101.998062,166.872971 101.648239,165.501476 102.279322,164.440037 L118.450321,137.24151 C119.194844,135.989274 120.920202,135.771329 121.953356,136.799012 L142.643312,157.379385 C143.51905,158.250485 143.52203,159.665793 142.649968,160.540564 C141.777907,161.415335 140.361035,161.418312 139.485298,160.547213 L120.831244,141.991959 L106.127377,166.722869 Z M152.170604,173.165333 C151.294866,172.294233 151.291886,170.878925 152.163948,170.004154 C153.03601,169.129383 154.452881,169.126406 155.328619,169.997505 L168.528523,183.127499 C170.091379,184.678987 172.154257,185.529553 174.359523,185.529553 C175.635858,185.523649 176.642442,186.519706 176.648257,187.754212 C176.654072,188.988718 175.656916,189.994191 174.421046,190 C170.97156,190.000145 167.774668,188.682002 165.372087,186.296895 L152.170604,173.165333 Z M187.106042,182.557736 C186.229898,183.428427 184.813028,183.424791 183.941375,182.549614 C183.069721,181.674437 183.073361,180.259131 183.949505,179.388439 L185.124392,178.220865 C188.325596,175.031881 188.324747,169.840912 185.122257,166.656101 C184.246421,165.7851 184.243282,164.369792 185.115245,163.494923 C185.987209,162.620053 187.404079,162.616918 188.279915,163.487919 C193.238883,168.419513 193.240196,176.449829 188.282846,181.388255 L187.106042,182.557736 Z M66.1253419,56.3526363 C64.979754,55.8894278 64.426991,54.5862653 64.8907113,53.4419415 C65.3544315,52.2976177 66.6590334,51.7454647 67.8046213,52.2086732 L68.6343295,52.5441585 C69.7799173,53.007367 70.3326803,54.3105295 69.8689601,55.4548533 C69.4052399,56.5991771 68.1006379,57.1513301 66.95505,56.6881216 L66.1253419,56.3526363 Z M83.5492128,63.3978275 C82.4036249,62.934619 81.850862,61.6314565 82.3145822,60.4871327 C82.7783024,59.3428089 84.0829044,58.7906559 85.2284923,59.2538644 L110.119736,69.3184233 C111.265324,69.7816318 111.818087,71.0847943 111.354367,72.2291181 C110.890647,73.3734419 109.586045,73.9255949 108.440457,73.4623864 L83.5492128,63.3978275 Z M120.886079,78.4946658 C119.740491,78.0314573 119.187728,76.7282948 119.651448,75.583971 C120.115169,74.4396472 121.419771,73.8874942 122.565359,74.3507027 L123.395067,74.686188 C124.540655,75.1493965 125.093417,76.452559 124.629697,77.5968828 C124.165977,78.7412066 122.861375,79.2933596 121.715787,78.8301511 L120.886079,78.4946658 Z M138.30995,85.539857 C137.164362,85.0766485 136.611599,83.773486 137.075319,82.6291622 C137.53904,81.4848384 138.843642,80.9326854 139.989229,81.3958939 L148.700101,84.9180594 C149.845689,85.381268 150.398452,86.6844304 149.934732,87.8287542 C149.471012,88.973078 148.16641,89.525231 147.020822,89.0620225 L138.30995,85.539857 Z M14.6819722,9.03043389 L19.6030541,13.9464403 C20.9155664,15.2575988 20.9155664,17.376914 19.6030541,18.6880726 C18.9451195,19.3419752 18.0891332,19.6706032 17.2297902,19.6706032 C16.3704471,19.6706032 15.511104,19.3419752 14.8565262,18.6880726 L9.93544435,13.7720662 C8.62293205,12.4609076 8.62293205,10.3415925 9.93544435,9.03043389 C11.2479566,7.7192753 13.3694599,7.7192753 14.6819722,9.03043389 Z M36.6993465,14.3058932 C34.7229524,14.3058932 33.1189225,12.7358627 33.1189225,10.7935207 L33.1189225,3.51237251 C33.1189225,1.57003051 34.7229524,0 36.6993465,0 C38.6757406,0 40.2797706,1.57003051 40.2797706,3.51237251 L40.2797706,10.7935207 C40.2797706,12.7358627 38.6757406,14.3058932 36.6993465,14.3058932 Z M14.3216962,35.7647331 C14.3216962,37.7425228 12.7499314,39.3412064 10.8054438,39.3412064 L3.51625244,39.3412064 C1.57528109,39.3412064 0,37.7425228 0,35.7647331 C0,33.7869434 1.57528109,32.1882598 3.51625244,32.1882598 L10.8054438,32.1882598 C12.7464151,32.1882598 14.3216962,33.7869434 14.3216962,35.7647331 Z M14.8565262,51.9469627 C16.1656817,50.639016 18.2905418,50.6356623 19.6030541,51.9469627 C20.9155664,53.2582631 20.9155664,55.3778075 19.6030541,56.6891079 L14.6819722,61.605646 C14.0273944,62.2596194 13.1680513,62.5882829 12.3087083,62.5882829 C11.4493652,62.5882829 10.5900221,62.2596194 9.93544435,61.605646 C8.62293205,60.2943456 8.62293205,58.1748012 9.93544435,56.8635008 L14.8565262,51.9469627 Z M55.2737969,19.6706032 C54.4178106,19.6706032 53.5584675,19.3419752 52.900533,18.6880726 C51.5880207,17.376914 51.5880207,15.2575988 52.900533,13.9464403 L57.8216149,9.03043389 C59.1341271,7.7192753 61.2556304,7.7192753 62.5681427,9.03043389 C63.880655,10.3415925 63.880655,12.4609076 62.5681427,13.7720662 L57.6470608,18.6880726 C56.992483,19.3419752 56.13314,19.6706032 55.2737969,19.6706032 Z" id="OneClick"></path>
                </g>
                <path d="M97,69 C95.8954305,69 95,68.1045695 95,67 C95,65.8954305 95.8954305,65 97,65 L337,65 C338.104569,65 339,65.8954305 339,67 C339,68.1045695 338.104569,69 337,69 L97,69 Z M357,69 C355.895431,69 355,68.1045695 355,67 C355,65.8954305 355.895431,65 357,65 L359,65 C360.104569,65 361,65.8954305 361,67 C361,68.1045695 360.104569,69 359,69 L357,69 Z M381.603577,81.9308266 C381.008253,81.0004164 381.279894,79.7635645 382.210304,79.1682406 C383.140715,78.5729167 384.377566,78.844558 384.97289,79.7749682 C388.237958,84.8778255 390,90.8110635 390,97 L390,319.945299 C390,321.049868 389.104569,321.945299 388,321.945299 C386.895431,321.945299 386,321.049868 386,319.945299 L386,97 C386,91.5809105 384.459825,86.3947551 381.603577,81.9308266 Z M386,339.945299 C386,338.840729 386.895431,337.945299 388,337.945299 C389.104569,337.945299 390,338.840729 390,339.945299 L390,340.945299 C390,342.049868 389.104569,342.945299 388,342.945299 C386.895431,342.945299 386,342.049868 386,340.945299 L386,339.945299 Z M383.431963,369.73117 C383.895307,368.72848 385.083761,368.291254 386.086451,368.754598 C387.08914,369.217941 387.526367,370.406396 387.063023,371.409086 C381.869179,382.648719 370.601318,390 358,390 L152.109403,390 C151.004833,390 150.109403,389.104569 150.109403,388 C150.109403,386.895431 151.004833,386 152.109403,386 L358,386 C369.027362,386 378.886434,379.567828 383.431963,369.73117 Z M132.109403,386 C133.213972,386 134.109403,386.895431 134.109403,388 C134.109403,389.104569 133.213972,390 132.109403,390 L131.109403,390 C130.004833,390 129.109403,389.104569 129.109403,388 C129.109403,386.895431 130.004833,386 131.109403,386 L132.109403,386 Z M101.109403,386 C102.213972,386 103.109403,386.895431 103.109403,388 C103.109403,389.104569 102.213972,390 101.109403,390 L97,390 C79.326888,390 65,375.673112 65,358 L65,169.164104 C65,168.059535 65.8954305,167.164104 67,167.164104 C68.1045695,167.164104 69,168.059535 69,169.164104 L69,358 C69,373.463973 81.536027,386 97,386 L101.109403,386 Z M69,149.164104 C69,150.268674 68.1045695,151.164104 67,151.164104 C65.8954305,151.164104 65,150.268674 65,149.164104 L65,148.164104 C65,147.059535 65.8954305,146.164104 67,146.164104 C68.1045695,146.164104 69,147.059535 69,148.164104 L69,149.164104 Z M69,118.164104 C69,119.268674 68.1045695,120.164104 67,120.164104 C65.8954305,120.164104 65,119.268674 65,118.164104 L65,97 C65,79.326888 79.326888,65 97,65 C98.1045695,65 99,65.8954305 99,67 C99,68.1045695 98.1045695,69 97,69 C81.536027,69 69,81.536027 69,97 L69,118.164104 Z" id="Rectangle-4" transform="translate(227.500000, 227.500000) rotate(45.000000) translate(-227.500000, -227.500000) "></path>
            </g>
        </g>
    </g>
</svg>