<?xml version="1.0" encoding="UTF-8"?>
<svg width="440px" height="590px" viewBox="0 0 440 590" version="1.1" xmlns="http://www.w3.org/2000/svg" xmlns:xlink="http://www.w3.org/1999/xlink">
    <!-- Generator: Sketch 51.1 (57501) - http://www.bohemiancoding.com/sketch -->
    <title>Group 6</title>
    <desc>Created with Sketch.</desc>
    <defs>
        <rect id="path-1" x="0" y="0" width="400" height="550" rx="10"></rect>
        <filter x="-8.5%" y="-4.7%" width="117.0%" height="112.4%" filterUnits="objectBoundingBox" id="filter-2">
            <feOffset dx="0" dy="8" in="SourceAlpha" result="shadowOffsetOuter1"></feOffset>
            <feGaussianBlur stdDeviation="10" in="shadowOffsetOuter1" result="shadowBlurOuter1"></feGaussianBlur>
            <feColorMatrix values="0 0 0 0 0   0 0 0 0 0   0 0 0 0 0  0 0 0 0.29724298 0" type="matrix" in="shadowBlurOuter1"></feColorMatrix>
        </filter>
        <linearGradient x1="50%" y1="0%" x2="50%" y2="100%" id="linearGradient-3">
            <stop stop-color="#54D4F8" offset="0%"></stop>
            <stop stop-color="#2AA9EE" offset="100%"></stop>
        </linearGradient>
        <linearGradient x1="110.472147%" y1="128.039062%" x2="-12.6205842%" y2="-36.828125%" id="linearGradient-4">
            <stop stop-color="#58C4FF" offset="0%"></stop>
            <stop stop-color="#1B8ED0" offset="100%"></stop>
        </linearGradient>
    </defs>
    <g id="SG-Apple-Pay" stroke="none" stroke-width="1" fill="none" fill-rule="evenodd">
        <g id="Desktop-STRONA-GLOWNA-12" transform="translate(-427.000000, -3137.000000)">
            <g id="Secure-form" transform="translate(447.000000, 3145.000000)">
                <g id="Group-6" transform="translate(0.000000, 4.000000)">
                    <g id="Rectangle-5">
                        <use fill="black" fill-opacity="1" filter="url(#filter-2)" xlink:href="#path-1"></use>
                        <use fill="#FFFFFF" fill-rule="evenodd" xlink:href="#path-1"></use>
                    </g>
                    <path d="M20,12 C15.581722,12 12,15.581722 12,20 L12,530 C12,534.418278 15.581722,538 20,538 L380,538 C384.418278,538 388,534.418278 388,530 L388,20 C388,15.581722 384.418278,12 380,12 L20,12 Z M20,10 L380,10 C385.522847,10 390,14.4771525 390,20 L390,530 C390,535.522847 385.522847,540 380,540 L20,540 C14.4771525,540 10,535.522847 10,530 L10,20 C10,14.4771525 14.4771525,10 20,10 Z" id="Rectangle-5" fill="url(#linearGradient-3)" fill-rule="nonzero"></path>
                    <rect id="Rectangle-5" fill="#2AA9EE" opacity="0.301004464" x="30" y="90" width="160" height="40" rx="5"></rect>
                    <rect id="Rectangle-5" fill="#2AA9EE" opacity="0.301004464" x="30" y="150" width="340" height="40" rx="5"></rect>
                    <rect id="Rectangle-5" fill="#2AA9EE" opacity="0.301004464" x="210" y="90" width="160" height="40" rx="5"></rect>
                    <g id="Logo-vector" transform="translate(149.000000, 33.000000)">
                        <path d="M43.96,16.789 C43.515,16.698 43.181,16.652 42.959,16.652 C40.898,16.652 39.868,17.328 39.868,18.678 C39.868,19.68 40.449,20.182 41.612,20.182 C43.178,20.182 43.96,19.398 43.96,17.832 L43.96,16.789 Z M44.211,20.934 C43.975,21.323 43.562,21.642 42.974,21.889 C42.386,22.135 41.771,22.259 41.131,22.259 C39.927,22.259 38.981,21.958 38.292,21.355 C37.603,20.754 37.258,19.899 37.258,18.793 C37.258,17.498 37.744,16.486 38.714,15.755 C39.686,15.024 41.065,14.659 42.854,14.659 C43.16,14.659 43.522,14.711 43.94,14.815 C43.94,13.499 43.108,12.842 41.444,12.842 C40.463,12.842 39.642,13.005 38.981,13.332 L38.417,11.307 C39.315,10.875 40.383,10.66 41.622,10.66 C43.327,10.66 44.577,11.048 45.37,11.824 C46.164,12.6 46.56,14.07 46.56,16.235 L46.56,18.626 C46.56,20.115 46.859,21.052 47.458,21.435 C47.242,21.811 47.002,22.041 46.738,22.129 C46.473,22.215 46.17,22.259 45.83,22.259 C45.454,22.259 45.116,22.119 44.817,21.842 C44.517,21.562 44.315,21.26 44.211,20.934 Z" id="Fill-1" fill="#545554"></path>
                        <polyline id="Fill-2" fill="#545554" points="58.948 22.051 58.948 6.755 61.663 6.755 61.663 19.639 68.574 19.639 68.574 22.051 58.948 22.051"></polyline>
                        <path d="M76.046,16.789 C75.601,16.698 75.267,16.652 75.044,16.652 C72.984,16.652 71.955,17.328 71.955,18.678 C71.955,19.68 72.536,20.182 73.699,20.182 C75.263,20.182 76.046,19.398 76.046,17.832 L76.046,16.789 Z M76.298,20.934 C76.061,21.323 75.648,21.642 75.06,21.889 C74.472,22.135 73.858,22.259 73.218,22.259 C72.013,22.259 71.067,21.958 70.378,21.355 C69.689,20.754 69.344,19.899 69.344,18.793 C69.344,17.498 69.83,16.486 70.8,15.755 C71.772,15.024 73.152,14.659 74.941,14.659 C75.247,14.659 75.609,14.711 76.027,14.815 C76.027,13.499 75.195,12.842 73.531,12.842 C72.55,12.842 71.728,13.005 71.067,13.332 L70.503,11.307 C71.402,10.875 72.47,10.66 73.709,10.66 C75.414,10.66 76.664,11.048 77.456,11.824 C78.249,12.6 78.646,14.07 78.646,16.235 L78.646,18.626 C78.646,20.115 78.946,21.052 79.544,21.435 C79.329,21.811 79.089,22.041 78.824,22.129 C78.56,22.215 78.257,22.259 77.915,22.259 C77.54,22.259 77.203,22.119 76.904,21.842 C76.603,21.562 76.402,21.26 76.298,20.934 Z" id="Fill-3" fill="#545554"></path>
                        <path d="M87.877,22.051 L87.877,15.587 C87.877,14.634 87.693,13.938 87.328,13.499 C86.962,13.061 86.366,12.842 85.538,12.842 C85.155,12.842 84.746,12.95 84.311,13.165 C83.877,13.381 83.537,13.649 83.293,13.97 L83.293,22.051 L80.683,22.051 L80.683,10.869 L82.562,10.869 L83.043,11.913 C83.752,11.078 84.8,10.66 86.185,10.66 C87.514,10.66 88.564,11.059 89.334,11.855 C90.102,12.652 90.486,13.764 90.486,15.191 L90.486,22.051 L87.877,22.051" id="Fill-4" fill="#545554"></path>
                        <path d="M35.317,7.763 C34.2,7.021 32.434,6.651 30.019,6.651 C29.712,6.651 28.654,6.689 26.845,6.766 L26.845,22.051 L29.559,22.051 L29.559,9.115 C29.824,9.08 30.099,9.063 30.384,9.063 C32.938,9.063 34.216,9.856 34.216,11.443 C34.216,12.375 33.93,13.049 33.359,13.463 C33.08,13.666 32.719,13.819 32.278,13.922 L32.278,16.409 C35.42,16.017 36.993,14.292 36.993,11.234 C36.993,9.661 36.434,8.504 35.317,7.763" id="Fill-13" fill="#545554"></path>
                        <polyline id="Fill-14" fill="#545554" points="51.259 15.356 49.477 10.869 46.773 10.869 49.978 18.785 51.259 15.356"></polyline>
                        <path d="M55.272,10.869 L52.526,18.594 L52.523,18.588 L51.104,22.627 C50.697,23.652 50.091,24.128 48.089,24.128 L48.089,26.436 C49.307,26.436 50.374,26.189 51.289,25.699 C52.204,25.209 52.801,24.591 53.079,23.846 L57.976,10.869 L55.272,10.869" id="Fill-15" fill="#545554"></path>
                        <path d="M102.723,15.807 C102.723,14.311 102.232,13.079 101.25,12.111 C100.269,11.144 98.967,10.66 97.345,10.66 C95.822,10.66 94.515,11.206 93.425,12.299 C92.336,13.392 91.791,14.819 91.791,16.58 C91.791,18.369 92.288,19.762 93.279,20.761 C94.271,21.76 95.62,22.259 97.326,22.259 C99.149,22.259 100.52,21.887 101.439,21.143 L100.426,19.148 C99.807,19.768 98.902,20.077 97.711,20.077 C96.757,20.077 95.999,19.83 95.435,19.336 C94.986,18.941 94.706,18.416 94.585,17.769 L94.578,17.769 C94.231,15.91 94.815,14.607 94.815,14.607 L94.822,14.607 C95.275,13.435 96.127,12.842 97.388,12.842 C99.016,12.842 99.92,13.66 100.102,15.295 L96.971,15.295 L96.971,17.258 L102.503,17.258 C102.649,16.611 102.723,16.127 102.723,15.807" id="Fill-16" fill="#545554"></path>
                        <path d="M0,1.779 C0,1.779 16.908,3.462 8.681,22.591 L16.957,22.591 C16.957,22.591 21.525,1.459 0,1.779" id="Fill-17" fill="#545554"></path>
                        <path d="M21.848,4.387 L15.445,4.387 C13.074,2.326 9.558,0.907 4.403,0.754 C19.732,3.674 19.485,14.703 17.752,22.591 L21.848,22.591 C22.507,22.591 23.042,22.057 23.042,21.396 L23.042,5.582 C23.042,4.922 22.507,4.387 21.848,4.387" id="Fill-18" fill="#FBCD20"></path>
                        <path d="M6.105,4.387 L6.026,4.387 C5.367,4.387 4.832,4.922 4.832,5.582 L4.832,21.396 C4.832,22.057 5.367,22.591 6.026,22.591 L6.133,22.591 C7.56,20.613 14.048,10.72 6.105,4.387" id="Fill-19" fill="#FBCD20"></path>
                    </g>
                    <g id="Group-2" transform="translate(32.000000, 210.000000)" fill="url(#linearGradient-4)" fill-rule="nonzero">
                        <path d="M-2.22044605e-16,3 C-1.1045695,3 -2,2.1045695 -2,1 C-2,-0.1045695 -1.1045695,-1 -2.22044605e-16,-1 L45,-1 C46.1045695,-1 47,-0.1045695 47,1 C47,2.1045695 46.1045695,3 45,3 L-2.22044605e-16,3 Z M60,3 C58.8954305,3 58,2.1045695 58,1 C58,-0.1045695 58.8954305,-1 60,-1 L120,-1 C121.104569,-1 122,-0.1045695 122,1 C122,2.1045695 121.104569,3 120,3 L60,3 Z M135,3 C133.895431,3 133,2.1045695 133,1 C133,-0.1045695 133.895431,-1 135,-1 L180,-1 C181.104569,-1 182,-0.1045695 182,1 C182,2.1045695 181.104569,3 180,3 L135,3 Z M195,3 C193.895431,3 193,2.1045695 193,1 C193,-0.1045695 193.895431,-1 195,-1 L255,-1 C256.104569,-1 257,-0.1045695 257,1 C257,2.1045695 256.104569,3 255,3 L195,3 Z M270,3 C268.895431,3 268,2.1045695 268,1 C268,-0.1045695 268.895431,-1 270,-1 L315,-1 C316.104569,-1 317,-0.1045695 317,1 C317,2.1045695 316.104569,3 315,3 L270,3 Z M330,3 C328.895431,3 328,2.1045695 328,1 C328,-0.1045695 328.895431,-1 330,-1 L336.503906,-1 C337.608476,-1 338.503906,-0.1045695 338.503906,1 C338.503906,2.1045695 337.608476,3 336.503906,3 L330,3 Z" id="Line"></path>
                        <path d="M-4.54969395e-13,25 C-1.1045695,25 -2,24.1045695 -2,23 C-2,21.8954305 -1.1045695,21 -4.54969395e-13,21 L45,21 C46.1045695,21 47,21.8954305 47,23 C47,24.1045695 46.1045695,25 45,25 L-4.54969395e-13,25 Z M60,25 C58.8954305,25 58,24.1045695 58,23 C58,21.8954305 58.8954305,21 60,21 L120,21 C121.104569,21 122,21.8954305 122,23 C122,24.1045695 121.104569,25 120,25 L60,25 Z M135,25 C133.895431,25 133,24.1045695 133,23 C133,21.8954305 133.895431,21 135,21 L180,21 C181.104569,21 182,21.8954305 182,23 C182,24.1045695 181.104569,25 180,25 L135,25 Z M195,25 C193.895431,25 193,24.1045695 193,23 C193,21.8954305 193.895431,21 195,21 L255,21 C256.104569,21 257,21.8954305 257,23 C257,24.1045695 256.104569,25 255,25 L195,25 Z M270,25 C268.895431,25 268,24.1045695 268,23 C268,21.8954305 268.895431,21 270,21 L315,21 C316.104569,21 317,21.8954305 317,23 C317,24.1045695 316.104569,25 315,25 L270,25 Z M330,25 C328.895431,25 328,24.1045695 328,23 C328,21.8954305 328.895431,21 330,21 L336.503906,21 C337.608476,21 338.503906,21.8954305 338.503906,23 C338.503906,24.1045695 337.608476,25 336.503906,25 L330,25 Z" id="Line" transform="translate(168.251953, 23.000000) scale(-1, 1) translate(-168.251953, -23.000000) "></path>
                        <path d="M-2.22044605e-16,47 C-1.1045695,47 -2,46.1045695 -2,45 C-2,43.8954305 -1.1045695,43 -2.22044605e-16,43 L45,43 C46.1045695,43 47,43.8954305 47,45 C47,46.1045695 46.1045695,47 45,47 L-2.22044605e-16,47 Z M60,47 C58.8954305,47 58,46.1045695 58,45 C58,43.8954305 58.8954305,43 60,43 L120,43 C121.104569,43 122,43.8954305 122,45 C122,46.1045695 121.104569,47 120,47 L60,47 Z M135,47 C133.895431,47 133,46.1045695 133,45 C133,43.8954305 133.895431,43 135,43 L180,43 C181.104569,43 182,43.8954305 182,45 C182,46.1045695 181.104569,47 180,47 L135,47 Z M195,47 C193.895431,47 193,46.1045695 193,45 C193,43.8954305 193.895431,43 195,43 L255,43 C256.104569,43 257,43.8954305 257,45 C257,46.1045695 256.104569,47 255,47 L195,47 Z M270,47 C268.895431,47 268,46.1045695 268,45 C268,43.8954305 268.895431,43 270,43 L315,43 C316.104569,43 317,43.8954305 317,45 C317,46.1045695 316.104569,47 315,47 L270,47 Z M330,47 C328.895431,47 328,46.1045695 328,45 C328,43.8954305 328.895431,43 330,43 L336.503906,43 C337.608476,43 338.503906,43.8954305 338.503906,45 C338.503906,46.1045695 337.608476,47 336.503906,47 L330,47 Z" id="Line"></path>
                        <path d="M-4.54969395e-13,69 C-1.1045695,69 -2,68.1045695 -2,67 C-2,65.8954305 -1.1045695,65 -4.54969395e-13,65 L45,65 C46.1045695,65 47,65.8954305 47,67 C47,68.1045695 46.1045695,69 45,69 L-4.54969395e-13,69 Z M60,69 C58.8954305,69 58,68.1045695 58,67 C58,65.8954305 58.8954305,65 60,65 L120,65 C121.104569,65 122,65.8954305 122,67 C122,68.1045695 121.104569,69 120,69 L60,69 Z M135,69 C133.895431,69 133,68.1045695 133,67 C133,65.8954305 133.895431,65 135,65 L180,65 C181.104569,65 182,65.8954305 182,67 C182,68.1045695 181.104569,69 180,69 L135,69 Z M195,69 C193.895431,69 193,68.1045695 193,67 C193,65.8954305 193.895431,65 195,65 L255,65 C256.104569,65 257,65.8954305 257,67 C257,68.1045695 256.104569,69 255,69 L195,69 Z M270,69 C268.895431,69 268,68.1045695 268,67 C268,65.8954305 268.895431,65 270,65 L315,65 C316.104569,65 317,65.8954305 317,67 C317,68.1045695 316.104569,69 315,69 L270,69 Z M330,69 C328.895431,69 328,68.1045695 328,67 C328,65.8954305 328.895431,65 330,65 L336.503906,65 C337.608476,65 338.503906,65.8954305 338.503906,67 C338.503906,68.1045695 337.608476,69 336.503906,69 L330,69 Z" id="Line" transform="translate(168.251953, 67.000000) scale(-1, 1) translate(-168.251953, -67.000000) "></path>
                        <path d="M-2.22044605e-16,91 C-1.1045695,91 -2,90.1045695 -2,89 C-2,87.8954305 -1.1045695,87 -2.22044605e-16,87 L45,87 C46.1045695,87 47,87.8954305 47,89 C47,90.1045695 46.1045695,91 45,91 L-2.22044605e-16,91 Z M60,91 C58.8954305,91 58,90.1045695 58,89 C58,87.8954305 58.8954305,87 60,87 L120,87 C121.104569,87 122,87.8954305 122,89 C122,90.1045695 121.104569,91 120,91 L60,91 Z M135,91 C133.895431,91 133,90.1045695 133,89 C133,87.8954305 133.895431,87 135,87 L180,87 C181.104569,87 182,87.8954305 182,89 C182,90.1045695 181.104569,91 180,91 L135,91 Z M195,91 C193.895431,91 193,90.1045695 193,89 C193,87.8954305 193.895431,87 195,87 L255,87 C256.104569,87 257,87.8954305 257,89 C257,90.1045695 256.104569,91 255,91 L195,91 Z M270,91 C268.895431,91 268,90.1045695 268,89 C268,87.8954305 268.895431,87 270,87 L315,87 C316.104569,87 317,87.8954305 317,89 C317,90.1045695 316.104569,91 315,91 L270,91 Z M330,91 C328.895431,91 328,90.1045695 328,89 C328,87.8954305 328.895431,87 330,87 L336.503906,87 C337.608476,87 338.503906,87.8954305 338.503906,89 C338.503906,90.1045695 337.608476,91 336.503906,91 L330,91 Z" id="Line"></path>
                        <path d="M-4.54969395e-13,113 C-1.1045695,113 -2,112.104569 -2,111 C-2,109.895431 -1.1045695,109 -4.54969395e-13,109 L45,109 C46.1045695,109 47,109.895431 47,111 C47,112.104569 46.1045695,113 45,113 L-4.54969395e-13,113 Z M60,113 C58.8954305,113 58,112.104569 58,111 C58,109.895431 58.8954305,109 60,109 L120,109 C121.104569,109 122,109.895431 122,111 C122,112.104569 121.104569,113 120,113 L60,113 Z M135,113 C133.895431,113 133,112.104569 133,111 C133,109.895431 133.895431,109 135,109 L180,109 C181.104569,109 182,109.895431 182,111 C182,112.104569 181.104569,113 180,113 L135,113 Z M195,113 C193.895431,113 193,112.104569 193,111 C193,109.895431 193.895431,109 195,109 L255,109 C256.104569,109 257,109.895431 257,111 C257,112.104569 256.104569,113 255,113 L195,113 Z M270,113 C268.895431,113 268,112.104569 268,111 C268,109.895431 268.895431,109 270,109 L315,109 C316.104569,109 317,109.895431 317,111 C317,112.104569 316.104569,113 315,113 L270,113 Z M330,113 C328.895431,113 328,112.104569 328,111 C328,109.895431 328.895431,109 330,109 L336.503906,109 C337.608476,109 338.503906,109.895431 338.503906,111 C338.503906,112.104569 337.608476,113 336.503906,113 L330,113 Z" id="Line" transform="translate(168.251953, 111.000000) scale(-1, 1) translate(-168.251953, -111.000000) "></path>
                    </g>
                    <path d="M168.224,449.44 C168.224,450.688006 167.772005,451.739996 166.868,452.596 C165.963995,453.452004 164.768007,453.967999 163.28,454.144 L163.28,455.992 C163.28,456.264001 163.204001,456.479999 163.052,456.64 C162.899999,456.800001 162.696001,456.88 162.44,456.88 C162.183999,456.88 161.980001,456.800001 161.828,456.64 C161.675999,456.479999 161.6,456.264001 161.6,455.992 L161.6,454.168 C160.623995,454.104 159.680005,453.912002 158.768,453.592 C157.855995,453.271998 157.080003,452.816003 156.44,452.224 C156.183999,452.015999 156.056,451.744002 156.056,451.408 C156.056,451.183999 156.119999,450.988001 156.248,450.82 C156.376001,450.651999 156.527999,450.568 156.704,450.568 C156.896001,450.568 157.127999,450.655999 157.4,450.832 C159.000008,451.952006 160.607992,452.512 162.224,452.512 C163.488006,452.512 164.471996,452.248003 165.176,451.72 C165.880004,451.191997 166.232,450.440005 166.232,449.464 C166.232,448.887997 166.052002,448.420002 165.692,448.06 C165.331998,447.699998 164.876003,447.420001 164.324,447.22 C163.771997,447.019999 163.024005,446.808001 162.08,446.584 C160.863994,446.279998 159.884004,445.976002 159.14,445.672 C158.395996,445.367998 157.760003,444.904003 157.232,444.28 C156.703997,443.655997 156.44,442.816005 156.44,441.76 C156.44,440.895996 156.655998,440.116003 157.088,439.42 C157.520002,438.723997 158.123996,438.160002 158.9,437.728 C159.676004,437.295998 160.567995,437.032 161.576,436.936 L161.576,435.088 C161.576,434.831999 161.655999,434.620001 161.816,434.452 C161.976001,434.283999 162.175999,434.2 162.416,434.2 C162.672001,434.2 162.875999,434.279999 163.028,434.44 C163.180001,434.600001 163.256,434.815999 163.256,435.088 L163.256,436.936 C164.104004,437.016 164.919996,437.215998 165.704,437.536 C166.488004,437.856002 167.151997,438.295997 167.696,438.856 C167.968001,439.080001 168.104,439.351998 168.104,439.672 C168.104,439.896001 168.036001,440.091999 167.9,440.26 C167.763999,440.428001 167.608001,440.512 167.432,440.512 C167.223999,440.512 167.000001,440.424001 166.76,440.248 C166.055996,439.671997 165.372003,439.248001 164.708,438.976 C164.043997,438.703999 163.272004,438.568 162.392,438.568 C161.175994,438.568 160.212004,438.847997 159.5,439.408 C158.787996,439.968003 158.432,440.727995 158.432,441.688 C158.432,442.360003 158.627998,442.895998 159.02,443.296 C159.412002,443.696002 159.895997,444.003999 160.472,444.22 C161.048003,444.436001 161.839995,444.671999 162.848,444.928 C164.016006,445.216001 164.955996,445.503999 165.668,445.792 C166.380004,446.080001 166.983998,446.515997 167.48,447.1 C167.976002,447.684003 168.224,448.463995 168.224,449.44 Z M181.208,452.344 C181.496001,452.344 181.719999,452.415999 181.88,452.56 C182.040001,452.704001 182.12,452.903999 182.12,453.16 C182.12,453.432001 182.044001,453.639999 181.892,453.784 C181.739999,453.928001 181.512002,454 181.208,454 L173.264,454 C172.959998,454 172.732001,453.928001 172.58,453.784 C172.427999,453.639999 172.352,453.432001 172.352,453.16 C172.352,452.903999 172.431999,452.704001 172.592,452.56 C172.752001,452.415999 172.975999,452.344 173.264,452.344 L176.24,452.344 L176.24,439.48 L173.624,441.184 C173.495999,441.264 173.368001,441.304 173.24,441.304 C173.015999,441.304 172.820001,441.200001 172.652,440.992 C172.483999,440.783999 172.4,440.560001 172.4,440.32 C172.4,439.983998 172.527999,439.744001 172.784,439.6 L176.432,437.224 C176.704001,437.047999 176.983999,436.96 177.272,436.96 C177.544001,436.96 177.767999,437.047999 177.944,437.224 C178.120001,437.400001 178.208,437.647998 178.208,437.968 L178.208,452.344 L181.208,452.344 Z M195.992,452.344 C196.280001,452.344 196.503999,452.415999 196.664,452.56 C196.824001,452.704001 196.904,452.903999 196.904,453.16 C196.904,453.720003 196.600003,454 195.992,454 L186.584,454 C186.311999,454 186.088001,453.916001 185.912,453.748 C185.735999,453.579999 185.648,453.376001 185.648,453.136 C185.648,452.831998 185.759999,452.568001 185.984,452.344 L191.768,445.984 C192.568004,445.087996 193.147998,444.284004 193.508,443.572 C193.868002,442.859996 194.048,442.144004 194.048,441.424 C194.048,440.495995 193.780003,439.784002 193.244,439.288 C192.707997,438.791998 191.952005,438.544 190.976,438.544 C190.207996,438.544 189.472004,438.683999 188.768,438.964 C188.063996,439.244001 187.360004,439.671997 186.656,440.248 C186.415999,440.440001 186.192001,440.536 185.984,440.536 C185.807999,440.536 185.656001,440.452001 185.528,440.284 C185.399999,440.115999 185.336,439.912001 185.336,439.672 C185.336,439.335998 185.463999,439.064001 185.72,438.856 C186.376003,438.247997 187.175995,437.768002 188.12,437.416 C189.064005,437.063998 190.031995,436.888 191.024,436.888 C192.544008,436.888 193.755995,437.287996 194.66,438.088 C195.564005,438.888004 196.016,439.967993 196.016,441.328 C196.016,442.304005 195.796002,443.239996 195.356,444.136 C194.915998,445.032004 194.192005,446.031994 193.184,447.136 L188.384,452.344 L195.992,452.344 Z M204.872,436.888 C206.92001,436.888 208.499994,437.599993 209.612,439.024 C210.724006,440.448007 211.28,442.479987 211.28,445.12 C211.28,447.008009 211.024003,448.631993 210.512,449.992 C209.999997,451.352007 209.256005,452.391996 208.28,453.112 C207.303995,453.832004 206.144007,454.192 204.8,454.192 C203.887995,454.192 202.980005,454.016002 202.076,453.664 C201.171995,453.311998 200.400003,452.832003 199.76,452.224 C199.487999,451.967999 199.352,451.696001 199.352,451.408 C199.352,451.167999 199.415999,450.968001 199.544,450.808 C199.672001,450.647999 199.823999,450.568 200,450.568 C200.224001,450.568 200.455999,450.655999 200.696,450.832 C202.088007,451.968006 203.439993,452.536 204.752,452.536 C206.176007,452.536 207.287996,451.888006 208.088,450.592 C208.888004,449.295994 209.288,447.480012 209.288,445.144 L209.288,444.832 C208.919998,445.728004 208.324004,446.431997 207.5,446.944 C206.675996,447.456003 205.744005,447.712 204.704,447.712 C203.679995,447.712 202.768004,447.488002 201.968,447.04 C201.167996,446.591998 200.544002,445.960004 200.096,445.144 C199.647998,444.327996 199.424,443.392005 199.424,442.336 C199.424,441.295995 199.655998,440.360004 200.12,439.528 C200.584002,438.695996 201.231996,438.048002 202.064,437.584 C202.896004,437.119998 203.831995,436.888 204.872,436.888 Z M204.992,446.056 C206.096006,446.056 206.995997,445.708003 207.692,445.012 C208.388003,444.315997 208.736,443.416006 208.736,442.312 C208.736,441.191994 208.388003,440.284003 207.692,439.588 C206.995997,438.891997 206.088006,438.544 204.968,438.544 C203.879995,438.544 203.008003,438.887997 202.352,439.576 C201.695997,440.264003 201.368,441.175994 201.368,442.312 C201.368,443.448006 201.699997,444.355997 202.364,445.036 C203.028003,445.716003 203.903995,446.056 204.992,446.056 Z M215.312,451.408 C215.712002,451.408 216.035999,451.563998 216.284,451.876 C216.532001,452.188002 216.656,452.655997 216.656,453.28 C216.656,454.544006 216.248004,455.607996 215.432,456.472 C215.271999,456.648001 215.088001,456.736 214.88,456.736 C214.719999,456.736 214.576001,456.676001 214.448,456.556 C214.319999,456.435999 214.256,456.296001 214.256,456.136 C214.256,455.959999 214.319999,455.808001 214.448,455.68 C214.864002,455.247998 215.127999,454.712003 215.24,454.072 C214.887998,454.04 214.596001,453.908001 214.364,453.676 C214.131999,453.443999 214.016,453.144002 214.016,452.776 C214.016,452.375998 214.139999,452.048001 214.388,451.792 C214.636001,451.535999 214.943998,451.408 215.312,451.408 Z M224.768,436.888 C226.81601,436.888 228.395994,437.599993 229.508,439.024 C230.620006,440.448007 231.176,442.479987 231.176,445.12 C231.176,447.008009 230.920003,448.631993 230.408,449.992 C229.895997,451.352007 229.152005,452.391996 228.176,453.112 C227.199995,453.832004 226.040007,454.192 224.696,454.192 C223.783995,454.192 222.876005,454.016002 221.972,453.664 C221.067995,453.311998 220.296003,452.832003 219.656,452.224 C219.383999,451.967999 219.248,451.696001 219.248,451.408 C219.248,451.167999 219.311999,450.968001 219.44,450.808 C219.568001,450.647999 219.719999,450.568 219.896,450.568 C220.120001,450.568 220.351999,450.655999 220.592,450.832 C221.984007,451.968006 223.335993,452.536 224.648,452.536 C226.072007,452.536 227.183996,451.888006 227.984,450.592 C228.784004,449.295994 229.184,447.480012 229.184,445.144 L229.184,444.832 C228.815998,445.728004 228.220004,446.431997 227.396,446.944 C226.571996,447.456003 225.640005,447.712 224.6,447.712 C223.575995,447.712 222.664004,447.488002 221.864,447.04 C221.063996,446.591998 220.440002,445.960004 219.992,445.144 C219.543998,444.327996 219.32,443.392005 219.32,442.336 C219.32,441.295995 219.551998,440.360004 220.016,439.528 C220.480002,438.695996 221.127996,438.048002 221.96,437.584 C222.792004,437.119998 223.727995,436.888 224.768,436.888 Z M224.888,446.056 C225.992006,446.056 226.891997,445.708003 227.588,445.012 C228.284003,444.315997 228.632,443.416006 228.632,442.312 C228.632,441.191994 228.284003,440.284003 227.588,439.588 C226.891997,438.891997 225.984006,438.544 224.864,438.544 C223.775995,438.544 222.904003,438.887997 222.248,439.576 C221.591997,440.264003 221.264,441.175994 221.264,442.312 C221.264,443.448006 221.595997,444.355997 222.26,445.036 C222.924003,445.716003 223.799995,446.056 224.888,446.056 Z M239.168,436.888 C241.21601,436.888 242.795994,437.599993 243.908,439.024 C245.020006,440.448007 245.576,442.479987 245.576,445.12 C245.576,447.008009 245.320003,448.631993 244.808,449.992 C244.295997,451.352007 243.552005,452.391996 242.576,453.112 C241.599995,453.832004 240.440007,454.192 239.096,454.192 C238.183995,454.192 237.276005,454.016002 236.372,453.664 C235.467995,453.311998 234.696003,452.832003 234.056,452.224 C233.783999,451.967999 233.648,451.696001 233.648,451.408 C233.648,451.167999 233.711999,450.968001 233.84,450.808 C233.968001,450.647999 234.119999,450.568 234.296,450.568 C234.520001,450.568 234.751999,450.655999 234.992,450.832 C236.384007,451.968006 237.735993,452.536 239.048,452.536 C240.472007,452.536 241.583996,451.888006 242.384,450.592 C243.184004,449.295994 243.584,447.480012 243.584,445.144 L243.584,444.832 C243.215998,445.728004 242.620004,446.431997 241.796,446.944 C240.971996,447.456003 240.040005,447.712 239,447.712 C237.975995,447.712 237.064004,447.488002 236.264,447.04 C235.463996,446.591998 234.840002,445.960004 234.392,445.144 C233.943998,444.327996 233.72,443.392005 233.72,442.336 C233.72,441.295995 233.951998,440.360004 234.416,439.528 C234.880002,438.695996 235.527996,438.048002 236.36,437.584 C237.192004,437.119998 238.127995,436.888 239.168,436.888 Z M239.288,446.056 C240.392006,446.056 241.291997,445.708003 241.988,445.012 C242.684003,444.315997 243.032,443.416006 243.032,442.312 C243.032,441.191994 242.684003,440.284003 241.988,439.588 C241.291997,438.891997 240.384006,438.544 239.264,438.544 C238.175995,438.544 237.304003,438.887997 236.648,439.576 C235.991997,440.264003 235.664,441.175994 235.664,442.312 C235.664,443.448006 235.995997,444.355997 236.66,445.036 C237.324003,445.716003 238.199995,446.056 239.288,446.056 Z" id="$129,99" fill="#4A4A4A"></path>
                    <g id="Group-3" transform="translate(121.000000, 476.000000)">
                        <rect id="Rectangle-5" fill="#51CCB2" x="0" y="0" width="160" height="40" rx="5"></rect>
                        <g id="check-circle" transform="translate(13.000000, 10.000000)" fill="#FFFFFF" fill-rule="nonzero">
                            <path d="M19,10.08 C19,9.52771525 19.4477153,9.08 20,9.08 C20.5522847,9.08 21,9.52771525 21,10.08 L20.9999998,11.0005718 C20.9972144,15.8721262 17.7905232,20.161606 13.1188875,21.5428628 C8.44725179,22.9241196 3.42353274,21.0681151 0.772050431,16.9813447 C-1.87943188,12.8945744 -1.52705037,7.55057464 1.63810145,3.84735113 C4.80325327,0.144127612 10.0271837,-1.03615042 14.4769998,0.946571769 C14.9814723,1.17135157 15.208208,1.76252735 14.9834282,2.26699984 C14.7586484,2.77147232 14.1674726,2.99820803 13.6630002,2.77342823 C10.0222415,1.15120099 5.74811661,2.11688301 3.15844694,5.14679316 C0.568777265,8.17670331 0.280465125,12.5490667 2.44985974,15.8927879 C4.61925436,19.2365091 8.72956994,20.7550583 12.5518173,19.6249391 C16.3740647,18.4948199 18.9977212,14.9852455 19,11 L19,10.08 Z" id="Shape"></path>
                            <path d="M9.99964653,11.595433 L19.2925399,2.29324668 C19.682869,1.90252728 20.3160339,1.90221085 20.7067533,2.29253993 C21.0974727,2.68286901 21.0977891,3.31603391 20.7074601,3.70675332 L10.7074601,13.7167533 C10.3169931,14.1076108 9.68355552,14.1077691 9.29289322,13.7171068 L6.29289322,10.7171068 C5.90236893,10.3265825 5.90236893,9.69341751 6.29289322,9.30289322 C6.68341751,8.91236893 7.31658249,8.91236893 7.70710678,9.30289322 L9.99964653,11.595433 Z" id="Shape"></path>
                        </g>
                        <path d="M72.14,19.904 C72.7093362,20.0626675 73.1503318,20.3519979 73.463,20.772 C73.7756682,21.1920021 73.932,21.7053303 73.932,22.312 C73.932,23.1520042 73.631003,23.8099976 73.029,24.286 C72.426997,24.7620024 71.5986719,25 70.544,25 L66.932,25 C66.661332,25 66.4490008,24.9253341 66.295,24.776 C66.1409992,24.6266659 66.064,24.416668 66.064,24.146 L66.064,15.984 C66.064,15.713332 66.1409992,15.5033341 66.295,15.354 C66.4490008,15.2046659 66.661332,15.13 66.932,15.13 L70.404,15.13 C71.4306718,15.13 72.2356638,15.3563311 72.819,15.809 C73.4023363,16.2616689 73.694,16.8939959 73.694,17.706 C73.694,18.2286693 73.5563347,18.6813314 73.281,19.064 C73.0056653,19.4466686 72.6253358,19.7266658 72.14,19.904 Z M67.828,19.288 L70.11,19.288 C71.3513395,19.288 71.972,18.8260046 71.972,17.902 C71.972,17.435331 71.8180015,17.0900011 71.51,16.866 C71.2019985,16.6419989 70.7353365,16.53 70.11,16.53 L67.828,16.53 L67.828,19.288 Z M70.348,23.6 C71.0013366,23.6 71.4773318,23.4833345 71.776,23.25 C72.0746682,23.0166655 72.224,22.6526691 72.224,22.158 C72.224,21.6633309 72.0723349,21.2946679 71.769,21.052 C71.4656652,20.8093321 70.9920032,20.688 70.348,20.688 L67.828,20.688 L67.828,23.6 L70.348,23.6 Z M81.0546457,18.014 C81.3253137,18.014 81.5399782,18.0886659 81.6986457,18.238 C81.8573132,18.3873341 81.9366457,18.5879987 81.9366457,18.84 L81.9366457,24.272 C81.9366457,24.5146679 81.8549799,24.7106659 81.6916457,24.86 C81.5283115,25.0093341 81.3159803,25.084 81.0546457,25.084 C80.8026444,25.084 80.6019798,25.0140007 80.4526457,24.874 C80.3033116,24.7339993 80.2286457,24.5426679 80.2286457,24.3 L80.2286457,23.95 C80.013978,24.3233352 79.7246475,24.6103323 79.3606457,24.811 C78.9966439,25.0116677 78.5859813,25.112 78.1286457,25.112 C76.4486373,25.112 75.6086457,24.1693428 75.6086457,22.284 L75.6086457,18.84 C75.6086457,18.5879987 75.6879782,18.3873341 75.8466457,18.238 C76.0053132,18.0886659 76.2153111,18.014 76.4766457,18.014 C76.7473137,18.014 76.9619782,18.0886659 77.1206457,18.238 C77.2793132,18.3873341 77.3586457,18.5879987 77.3586457,18.84 L77.3586457,22.298 C77.3586457,22.7833358 77.4566447,23.1426655 77.6526457,23.376 C77.8486467,23.6093345 78.1566436,23.726 78.5766457,23.726 C79.0619815,23.726 79.4516442,23.5650016 79.7456457,23.243 C80.0396472,22.9209984 80.1866457,22.4940027 80.1866457,21.962 L80.1866457,18.84 C80.1866457,18.5879987 80.2659782,18.3873341 80.4246457,18.238 C80.5833132,18.0886659 80.7933111,18.014 81.0546457,18.014 Z M88.7092914,18.518 C88.7839584,18.3499992 88.8842908,18.2263337 89.0102914,18.147 C89.136292,18.0676663 89.2739573,18.028 89.4232914,18.028 C89.6379591,18.028 89.8316239,18.1003326 90.0042914,18.245 C90.1769589,18.3896674 90.2632914,18.5693323 90.2632914,18.784 C90.2632914,18.8866672 90.2352917,18.9939994 90.1792914,19.106 L86.3572914,27.114 C86.1986239,27.4313349 85.9512931,27.59 85.6152914,27.59 C85.4006237,27.59 85.2116256,27.522334 85.0482914,27.387 C84.8849572,27.251666 84.8032914,27.0813344 84.8032914,26.876 C84.8032914,26.7733328 84.8312911,26.6566673 84.8872914,26.526 L85.8392914,24.524 L83.2352914,19.106 C83.1886245,19.0126662 83.1652914,18.9053339 83.1652914,18.784 C83.1652914,18.5693323 83.2562905,18.3873341 83.4382914,18.238 C83.6202923,18.0886659 83.8279569,18.014 84.0612914,18.014 C84.2199589,18.014 84.3646241,18.0536663 84.4952914,18.133 C84.6259587,18.2123337 84.7286244,18.3359992 84.8032914,18.504 L86.7632914,22.83 L88.7092914,18.518 Z" id="Buy" fill="#FFFFFF"></path>
                    </g>
                </g>
            </g>
        </g>
    </g>
</svg>