<?xml version="1.0" encoding="UTF-8"?>
<svg width="22px" height="16px" viewBox="0 0 22 16" version="1.1" xmlns="http://www.w3.org/2000/svg" xmlns:xlink="http://www.w3.org/1999/xlink">
    <!-- Generator: Sketch 50.2 (55047) - http://www.bohemiancoding.com/sketch -->
    <title>mail</title>
    <desc>Created with Sketch.</desc>
    <defs></defs>
    <g id="E-booki---single" stroke="none" stroke-width="1" fill="none" fill-rule="evenodd" stroke-linecap="round" stroke-linejoin="round">
        <g id="Desktop-HD" transform="translate(-758.000000, -676.000000)" stroke="#51B7CC" stroke-width="2">
            <g id="Group" transform="translate(741.000000, 651.000000)">
                <g id="Form">
                    <g id="Name-&amp;-Surname" transform="translate(15.000000, 25.000000)">
                        <g id="mail" transform="translate(3.000000, 1.000000)">
                            <path d="M2,0 L18,0 C19.1,0 20,0.7875 20,1.75 L20,12.25 C20,13.2125 19.1,14 18,14 L2,14 C0.9,14 0,13.2125 0,12.25 L0,1.75 C0,0.7875 0.9,0 2,0 Z" id="Shape"></path>
                            <polyline id="Shape" points="20 1.75 10 7.875 0 1.75"></polyline>
                        </g>
                    </g>
                </g>
            </g>
        </g>
    </g>
</svg>