<?xml version="1.0" encoding="UTF-8"?>
<svg width="24px" height="18px" viewBox="0 0 24 18" version="1.1" xmlns="http://www.w3.org/2000/svg" xmlns:xlink="http://www.w3.org/1999/xlink">
    <!-- Generator: Sketch 50.2 (55047) - http://www.bohemiancoding.com/sketch -->
    <title>credit-card</title>
    <desc>Created with Sketch.</desc>
    <defs></defs>
    <g id="FAQ" stroke="none" stroke-width="1" fill="none" fill-rule="evenodd" stroke-linecap="round" stroke-linejoin="round">
        <g id="Desktop-HD" transform="translate(-166.000000, -1016.000000)" stroke="#000000" stroke-width="2">
            <g id="credit-card" transform="translate(167.000000, 1017.000000)">
                <rect id="Rectangle-path" x="0" y="0" width="22" height="16" rx="2"></rect>
                <path d="M0,6 L22,6" id="Shape"></path>
            </g>
        </g>
    </g>
</svg>