<?xml version="1.0" encoding="UTF-8"?>
<svg width="204px" height="276px" viewBox="0 0 204 276" version="1.1" xmlns="http://www.w3.org/2000/svg" xmlns:xlink="http://www.w3.org/1999/xlink">
    <!-- Generator: Sketch 50.2 (55047) - http://www.bohemiancoding.com/sketch -->
    <title>icons8-tree</title>
    <desc>Created with Sketch.</desc>
    <defs></defs>
    <g id="FAQ" stroke="none" stroke-width="1" fill="none" fill-rule="evenodd">
        <g id="Desktop-HD" transform="translate(-323.000000, -1807.000000)" fill-rule="nonzero">
            <g id="icons8-tree" transform="translate(323.000000, 1807.000000)">
                <path d="M162.015152,86.5516403 C166.393939,78.308627 168.969697,69.0352369 168.969697,58.9890644 C168.969697,26.5321993 142.69697,0 110.242424,0 C77.7878788,0 51.5151515,26.5321993 51.5151515,58.9890644 C51.5151515,60.2770352 51.5151515,61.8226002 51.7727273,63.1105711 C21.6363636,73.4143378 0,102.00729 0,135.494532 C0,177.739976 34,212 76.2424242,212 L139.606061,212 C175.151515,212 204,182.891859 204,147.343864 C204,119.523694 186.484848,95.8250304 162.015152,86.5516403 Z" id="Shape" fill="#8CCFB9"></path>
                <g id="Group" opacity="0.2" transform="translate(74.000000, 0.000000)" fill="#0C0F13">
                    <path d="M129.680769,147.542169 C129.680769,119.696386 112.157692,95.9759036 87.6769231,86.6939759 C92.0576923,78.4433735 94.6346154,69.1614458 94.6346154,59.1060241 C94.6346154,26.6192771 68.35,0.0626506024 35.8807692,0.0626506024 C22.4807692,0.0626506024 10.3692308,4.44578313 0.319230769,12.1807229 C1.86538462,11.9228916 3.66923077,11.9228916 5.21538462,11.9228916 C37.6846154,11.9228916 63.9692308,38.2216867 63.9692308,70.9662651 C63.9692308,81.0216867 61.3923077,90.3036145 57.0115385,98.5542169 C81.4923077,107.836145 99.0153846,131.556627 99.0153846,159.40241 C99.0153846,181.060241 88.45,200.139759 72.2153846,212 C104.684615,208.390361 129.680769,181.060241 129.680769,147.542169 Z" id="Shape"></path>
                </g>
                <path d="M101.5,276 C97.25,276 94,272.653299 94,268.276843 L94,84.7231565 C94,80.3467012 97.25,77 101.5,77 C105.75,77 109,80.3467012 109,84.7231565 L109,268.276843 C109,272.39586 105.75,276 101.5,276 Z" id="Shape" fill="#454B54"></path>
                <path d="M101.33135,143 C100.305796,143 99.0238535,142.739566 97.9982997,142.218698 L51.3356004,119.821373 C47.4897736,117.998334 45.9514428,113.310522 47.746162,109.404012 C49.5408812,105.497502 54.1558735,103.934898 58.0017003,105.757936 L104.6644,128.415695 C108.510226,130.238733 110.048557,134.926546 108.253838,138.833056 C106.971896,141.437396 104.151623,143 101.33135,143 Z" id="Shape" fill="#454B54"></path>
                <path d="M101.737006,191 C98.8937512,191 96.0504963,189.439303 94.7581078,186.578024 C92.9487638,182.67628 94.4996301,177.994188 98.118318,176.173375 L144.902784,152.762914 C148.779949,150.9421 153.432548,152.502797 155.241892,156.144425 C157.051236,160.046168 155.50037,164.72826 151.881682,166.549074 L105.097216,189.959535 C104.063305,190.739884 103.029395,191 101.737006,191 Z" id="Shape" fill="#454B54"></path>
            </g>
        </g>
    </g>
</svg>