<?xml version="1.0" encoding="UTF-8"?>
<svg width="328px" height="418px" viewBox="0 0 328 418" version="1.1" xmlns="http://www.w3.org/2000/svg" xmlns:xlink="http://www.w3.org/1999/xlink">
    <!-- Generator: Sketch 50.2 (55047) - http://www.bohemiancoding.com/sketch -->
    <title>left-rectangle</title>
    <desc>Created with Sketch.</desc>
    <defs>
        <linearGradient x1="-48.8208333%" y1="-43.915154%" x2="97.8377279%" y2="89.3949609%" id="linearGradient-1">
            <stop stop-color="#FFE56F" offset="0%"></stop>
            <stop stop-color="#63C9AC" offset="52.7027637%"></stop>
            <stop stop-color="#42A7E6" offset="100%"></stop>
        </linearGradient>
        <path d="M1146.25554,366 L1405.74446,366 C1409.31053,366 1410.60368,366.371302 1411.90738,367.068531 C1413.21109,367.765759 1414.23424,368.788913 1414.93147,370.092617 C1415.6287,371.396321 1416,372.689466 1416,376.255541 L1416,725.744459 C1416,729.310534 1415.6287,730.603679 1414.93147,731.907383 C1414.23424,733.211087 1413.21109,734.234241 1411.90738,734.931469 C1410.60368,735.628698 1409.31053,736 1405.74446,736 L1146.25554,736 C1142.68947,736 1141.39632,735.628698 1140.09262,734.931469 C1138.78891,734.234241 1137.76576,733.211087 1137.06853,731.907383 C1136.3713,730.603679 1136,729.310534 1136,725.744459 L1136,376.255541 C1136,372.689466 1136.3713,371.396321 1137.06853,370.092617 C1137.76576,368.788913 1138.78891,367.765759 1140.09262,367.068531 C1141.39632,366.371302 1142.68947,366 1146.25554,366 Z" id="path-2"></path>
        <filter x="-13.6%" y="-8.1%" width="127.1%" height="120.5%" filterUnits="objectBoundingBox" id="filter-3">
            <feMorphology radius="4" operator="dilate" in="SourceAlpha" result="shadowSpreadOuter1"></feMorphology>
            <feOffset dx="0" dy="8" in="shadowSpreadOuter1" result="shadowOffsetOuter1"></feOffset>
            <feGaussianBlur stdDeviation="10" in="shadowOffsetOuter1" result="shadowBlurOuter1"></feGaussianBlur>
            <feComposite in="shadowBlurOuter1" in2="SourceAlpha" operator="out" result="shadowBlurOuter1"></feComposite>
            <feColorMatrix values="0 0 0 0 0   0 0 0 0 0   0 0 0 0 0  0 0 0 0.201483243 0" type="matrix" in="shadowBlurOuter1"></feColorMatrix>
        </filter>
        <mask id="mask-4" maskContentUnits="userSpaceOnUse" maskUnits="objectBoundingBox" x="-4" y="-4" width="288" height="378">
            <rect x="1132" y="362" width="288" height="378" fill="white"></rect>
            <use xlink:href="#path-2" fill="black"></use>
        </mask>
    </defs>
    <g id="Cennik" stroke="none" stroke-width="1" fill="none" fill-rule="evenodd" stroke-dasharray="240,40" stroke-linecap="round">
        <g id="Desktop-HD" transform="translate(-1112.000000, -350.000000)">
            <g id="left-rectangle">
                <use fill="black" fill-opacity="1" filter="url(#filter-3)" xlink:href="#path-2"></use>
                <use stroke="url(#linearGradient-1)" mask="url(#mask-4)" stroke-width="8" fill="#FFFFFF" fill-rule="evenodd" xlink:href="#path-2"></use>
            </g>
        </g>
    </g>
</svg>