<?xml version="1.0" encoding="UTF-8"?>
<svg width="388px" height="239px" viewBox="0 0 388 239" version="1.1" xmlns="http://www.w3.org/2000/svg" xmlns:xlink="http://www.w3.org/1999/xlink">
    <!-- Generator: Sketch 51.1 (57501) - http://www.bohemiancoding.com/sketch -->
    <title>Cloud 1</title>
    <desc>Created with Sketch.</desc>
    <defs>
        <linearGradient x1="0%" y1="5.44615186%" x2="75.733488%" y2="89.8824897%" id="linearGradient-1">
            <stop stop-color="#61A3FA" offset="0%"></stop>
            <stop stop-color="#2AA9EE" offset="100%"></stop>
        </linearGradient>
        <path d="M162.01476,187.072061 C156.60601,190.453386 150.219658,192.406667 143.378882,192.406667 C127.96986,192.406667 114.866528,182.495971 110.048295,168.677531 C94.4954406,166.201496 81.4914962,156.039056 75.0192931,142.188721 C56.5336844,135.898071 43.2298137,118.333795 43.2298137,97.65 C43.2298137,71.683412 64.1973477,50.6333333 90.0621118,50.6333333 C97.6499926,50.6333333 104.816396,52.4449974 111.15557,55.6609769 C116.676111,43.3169217 129.027474,34.72 143.378882,34.72 C151.069766,34.72 158.186265,37.1889171 163.984912,41.3803571 C172.551747,30.2870106 185.954602,23.1466667 201.018634,23.1466667 C214.264313,23.1466667 226.225646,28.6672523 234.744287,37.5415797 C238.990734,35.7251572 243.664158,34.72 248.571429,34.72 C260.033589,34.72 270.219946,40.2038671 276.669382,48.700794 C281.418105,46.2376831 286.808114,44.8466667 292.521739,44.8466667 C304.491517,44.8466667 315.041003,50.9516009 321.249401,60.2291759 C350.76359,65.332874 373.217391,91.1555976 373.217391,122.243333 C373.217391,156.998613 345.153153,185.173333 310.534161,185.173333 C298.719901,185.173333 287.66902,181.892049 278.236401,176.187728 C271.948116,185.947551 261.011118,192.406667 248.571429,192.406667 C242.054375,192.406667 235.949754,190.63388 230.709929,187.54245 C221.05354,194.258402 209.332321,198.193333 196.695652,198.193333 C183.766745,198.193333 171.796117,194.074297 162.01476,187.072061 Z" id="path-2"></path>
        <filter x="-14.5%" y="-27.4%" width="129.1%" height="154.8%" filterUnits="objectBoundingBox" id="filter-3">
            <feMorphology radius="3" operator="dilate" in="SourceAlpha" result="shadowSpreadOuter1"></feMorphology>
            <feOffset dx="0" dy="0" in="shadowSpreadOuter1" result="shadowOffsetOuter1"></feOffset>
            <feGaussianBlur stdDeviation="15" in="shadowOffsetOuter1" result="shadowBlurOuter1"></feGaussianBlur>
            <feComposite in="shadowBlurOuter1" in2="SourceAlpha" operator="out" result="shadowBlurOuter1"></feComposite>
            <feColorMatrix values="0 0 0 0 0.844322128   0 0 0 0 0.945195035   0 0 0 0 1  0 0 0 1 0" type="matrix" in="shadowBlurOuter1"></feColorMatrix>
        </filter>
    </defs>
    <g id="Dokumenty-prawne" stroke="none" stroke-width="1" fill="none" fill-rule="evenodd" stroke-dasharray="120,15" stroke-linecap="round" stroke-linejoin="round">
        <g id="Legal" transform="translate(0.000000, -885.000000)">
            <g id="Cloud-1" transform="translate(215.000000, 1006.500000) scale(1, -1) translate(-215.000000, -1006.500000) translate(-95.000000, 790.000000)">
                <g id="Cloud-1-Orange" transform="translate(77.860465, 108.250000)">
                    <g id="Combined-Shape">
                        <use fill="black" fill-opacity="1" filter="url(#filter-3)" xlink:href="#path-2"></use>
                        <use stroke="url(#linearGradient-1)" stroke-width="6" fill="#FFFFFF" fill-rule="evenodd" xlink:href="#path-2"></use>
                    </g>
                </g>
            </g>
        </g>
    </g>
</svg>