<?xml version="1.0" encoding="UTF-8"?>
<svg width="193px" height="90px" viewBox="0 0 193 90" version="1.1" xmlns="http://www.w3.org/2000/svg" xmlns:xlink="http://www.w3.org/1999/xlink">
    <!-- Generator: Sketch 51.1 (57501) - http://www.bohemiancoding.com/sketch -->
    <title>Group 5</title>
    <desc>Created with Sketch.</desc>
    <defs></defs>
    <g id="SG-Apple-Pay" stroke="none" stroke-width="1" fill="none" fill-rule="evenodd">
        <g id="Desktop-STRONA-GLOWNA-12" transform="translate(-864.000000, -353.000000)" fill="#4A4A4A" fill-rule="nonzero">
            <g id="Group-5" transform="translate(864.000000, 353.000000)">
                <g id="apple-pay">
                    <path d="M49.2759399,37.2691244 C49.3776294,47.8358399 58.8946787,51.3514542 59,51.3966188 C58.9201011,51.6459276 57.4801049,56.4080855 53.9881595,61.329223 C50.9665281,65.581924 47.8323119,69.8201723 42.8949227,69.908695 C38.04288,69.995411 36.4848513,67.1373936 30.935509,67.1373936 C25.3897986,67.1373936 23.6556291,69.8201723 19.0632579,69.995411 C14.2983776,70.1688432 10.668425,65.3940391 7.62318713,61.1557908 C1.40015183,52.484183 -3.355649,36.6584987 3.03081588,25.9743552 C6.20316565,20.6684152 11.8705404,17.3081672 18.0245721,17.2232577 C22.7041058,17.1365416 27.1221521,20.2565138 29.9839857,20.2565138 C32.8421875,20.2565138 38.2117572,16.5042369 43.8573413,17.0552453 C46.2179908,17.1509943 52.8496001,17.974797 57.1078486,23.981692 C56.7628306,24.1876427 49.1924092,28.434924 49.2759399,37.2691244 Z M40.0714782,11.0672023 C42.6551405,8.13722682 44.3967477,4.05964776 43.9219325,0 C40.1957462,0.13986419 35.6905663,2.3238973 33.0197309,5.25207963 C30.6233981,7.84494653 28.5275342,11.9942508 29.093232,15.9732077 C33.2478648,16.2744536 37.4878159,13.9971777 40.0733329,11.0654092 L40.0714782,11.0672023 Z M77,6.22613482 C79.0850607,5.88624109 81.1792581,5.6029937 83.2802021,5.3767159 C85.7896539,5.11416209 88.3119753,4.98866514 90.8355535,5.00080285 C94.7602205,5.00080285 98.1428571,5.45623597 100.987138,6.36710221 C103.835094,7.27796845 106.170418,8.58282049 108.000459,10.279851 C109.58506,11.8060701 110.837244,13.6335742 111.680753,15.6510702 C112.562701,17.7240138 113,20.1132305 113,22.8151055 C113,26.0826574 112.399173,28.9417654 111.188333,31.3924293 C110.024769,33.7872508 108.332421,35.896414 106.234727,37.5660783 C104.140101,39.2287706 101.655949,40.4703681 98.7785944,41.2890633 C95.8994028,42.104144 92.7611392,42.512588 89.3582912,42.512588 C86.2861736,42.512588 83.702802,42.2939078 81.6118512,41.8547402 L81.6118512,69 L77,69 L77,6.22613482 Z M82.0017903,38.1534519 C83.0848998,38.4663853 84.2951181,38.6870666 85.6342354,38.8118782 C86.9733526,38.9384986 88.4055636,39 89.9344488,39 C95.6686635,39 100.113888,37.6795297 103.268333,35.0385891 C106.420987,32.3976485 108,28.5284896 108,23.4347302 C108,20.9819114 107.586449,18.8420259 106.757557,17.0186916 C105.970937,15.2483241 104.754785,13.7072071 103.221786,12.5381369 C101.692901,11.3732288 99.8775735,10.4941212 97.7740136,9.8953874 C95.6686635,9.29846247 93.3431109,9 90.7919851,9 C88.754665,9 87.0019968,9.07778113 85.5357708,9.23515225 C84.0713351,9.39252336 82.8915513,9.56617425 82,9.75429605 L82,38.1534519 L82.0017903,38.1534519 Z M149.323904,59.0489722 C149.323904,60.8970637 149.354718,62.7469885 149.419971,64.5950799 C149.483412,66.4431713 149.675547,68.2252595 150,69.9486781 L145.742228,69.9486781 L145.066132,63.4455231 L144.86856,63.4455231 C144.288531,64.340234 143.547182,65.2312781 142.644513,66.1223221 C141.741843,67.0133662 140.694167,67.8274065 139.501483,68.5607761 C138.306987,69.2941457 136.952983,69.8845083 135.435845,70.3300303 C133.813801,70.7896603 132.135645,71.0149576 130.451225,70.9992301 C128.194551,70.9992301 126.209766,70.6325453 124.496869,69.8991756 C122.787597,69.165806 121.384653,68.2105921 120.288037,67.0317005 C119.19924,65.8622905 118.360116,64.4786709 117.822916,62.9669994 C117.285124,61.4978376 117.006588,59.9445593 117,58.377939 C117,52.960171 119.305614,48.7854645 123.918653,45.8519861 C128.531693,42.9185076 135.484785,41.5159382 144.77793,41.6442779 L144.77793,40.4012164 C144.77793,39.1874897 144.663737,37.7995877 144.438976,36.2393439 C144.212374,34.6765398 143.702989,33.1693541 142.93634,31.7932906 C142.162364,30.3925546 141.002307,29.213663 139.454356,28.258449 C137.906404,27.3014017 135.807426,26.822878 133.164671,26.822878 C131.16176,26.822878 129.1806,27.125393 127.212128,27.7304229 C125.243656,28.3354529 123.45463,29.1788279 121.841426,30.2642149 L120.389542,26.9163827 C122.452268,25.5156467 124.583873,24.5127637 126.775294,23.9077338 C129.015522,23.2965181 131.326542,22.9912942 133.64682,23.0001889 C136.873229,23.0001889 139.501483,23.541049 141.535208,24.6246026 C143.567121,25.7081562 145.164012,27.1107256 146.325882,28.8304773 C147.497504,30.5757951 148.304287,32.5448116 148.696748,34.6167636 C149.111796,36.7102786 149.323065,38.8398891 149.327529,40.9750781 L149.327529,59.0489722 L149.323904,59.0489722 Z M143.996365,45.0178833 C141.420895,44.9565869 138.844131,45.0528979 136.280025,45.3062946 C133.597661,45.5614276 131.122472,46.1271575 128.859908,46.9923913 C126.59371,47.8613228 124.720054,49.1295929 123.233486,50.8008994 C121.746918,52.4722058 121,54.6907542 121,57.4565445 C121,60.7307521 121.937737,63.1434234 123.816846,64.6853145 C125.688685,66.2272057 127.791324,67 130.121128,67 C131.996602,67 133.679441,66.7448669 135.166008,66.2272057 C136.654393,65.7132419 137.94469,65.0217944 139.045986,64.1565605 C140.147282,63.2913267 141.066846,62.3077702 141.811947,61.2169839 C142.557048,60.1206513 143.122235,58.9984356 143.512958,57.839244 C143.836441,56.552486 144,55.6206957 144,55.0401755 L144,45.0178833 L143.996365,45.0178833 Z M157.892389,24.0036154 L169.820222,53.4188989 C170.485287,55.0836727 171.105828,56.7654386 171.681198,58.4624486 C172.267332,60.1906327 172.789358,61.779622 173.245444,63.2239934 L173.441432,63.2239934 C173.89935,61.8428924 174.419544,60.2864421 175.005678,58.5564503 C175.593644,56.830074 176.245718,55.0530813 176.961901,53.2272802 L188.113106,24.0018077 L193,24.0018077 L179.409012,57.1916187 C178.164591,60.3981298 176.876198,63.5878502 175.544189,66.7599014 C174.446622,69.3923882 173.222907,71.9719072 171.877187,74.4897288 C170.755779,76.5956143 169.497225,78.6275386 168.109442,80.5727198 C166.888112,82.2778951 165.459766,83.8290211 163.856306,85.1914544 C162.033794,86.7605588 160.352322,87.9102712 158.819214,88.6333607 C157.287938,89.3564503 156.262203,89.8119967 155.740178,90 L154.172269,86.3230896 C155.513463,85.7359371 156.82027,85.0750822 158.086546,84.3436319 C159.617924,83.4527551 161.030153,82.3760021 162.290228,81.1385374 C163.46616,80.0069022 164.753824,78.5173377 166.155051,76.6589975 C167.556278,74.8060805 168.810972,72.5590797 169.920963,69.9179951 C170.311109,68.9129006 170.507098,68.2512736 170.507098,67.9367297 C170.507098,67.4992605 170.312941,66.8376335 169.920963,65.957272 L153,24 L157.892389,24 L157.892389,24.0036154 Z" id="Shape"></path>
                </g>
            </g>
        </g>
    </g>
</svg>