<?xml version="1.0" encoding="UTF-8"?>
<svg width="158px" height="120px" viewBox="0 0 158 120" version="1.1" xmlns="http://www.w3.org/2000/svg" xmlns:xlink="http://www.w3.org/1999/xlink">
    <!-- Generator: Sketch 50.2 (55047) - http://www.bohemiancoding.com/sketch -->
    <title>platnosci-cykliczne</title>
    <desc>Created with Sketch.</desc>
    <defs>
        <linearGradient x1="100%" y1="100%" x2="0%" y2="0%" id="linearGradient-1">
            <stop stop-color="#00A3FC" offset="0%"></stop>
            <stop stop-color="#0F76B2" offset="100%"></stop>
        </linearGradient>
    </defs>
    <g id="Oferta-UX---New---Cartesian-18/12/14" stroke="none" stroke-width="1" fill="none" fill-rule="evenodd">
        <g id="Desktop-HD" transform="translate(-390.000000, -3773.000000)" fill="url(#linearGradient-1)" fill-rule="nonzero">
            <g id="Cala-naprzod" transform="translate(0.000000, 3442.000000)">
                <g id="Group-12" transform="translate(390.000000, 329.000000)">
                    <g id="Item" transform="translate(0.000000, 2.000000)">
                        <path d="M136.818927,10.5405423 C137.266725,10.5405423 137.629738,10.9035546 137.629738,11.3513531 C137.629738,11.7991515 137.266725,12.1621639 136.818927,12.1621639 L9.06399521,12.1621652 C7.27280213,12.1621652 5.82075325,13.6142141 5.82075325,15.4054071 C5.82075325,15.4981243 5.82472912,15.5907989 5.83266991,15.6831754 C6.56039725,24.1489499 7.01520999,32.627925 7.19710641,41.1200737 C7.20669577,41.5677695 6.85154036,41.9384723 6.4038446,41.9480617 C5.95614884,41.957651 5.58544601,41.6024956 5.57585665,41.1547999 C5.39470505,32.6974244 4.94175562,24.2531866 4.21700662,15.8220596 C4.20509544,15.6834948 4.19913163,15.544483 4.19913163,15.4054071 C4.19913163,12.7186172 6.37720524,10.5405436 9.0639952,10.5405436 L136.818927,10.5405423 Z M5.59234403,41.9632258 C5.58367199,41.5155113 5.9395862,41.1455369 6.38730066,41.1368649 C6.83501513,41.1281929 7.20498949,41.4841071 7.21366153,41.9318215 C7.33941196,48.4239836 7.30568907,54.9238286 7.1124942,61.4313446 C7.09920583,61.8789458 6.72558099,62.231026 6.27797975,62.2177376 C5.83037852,62.2044493 5.47829837,61.8308244 5.49158674,61.3832232 C5.68399536,54.902191 5.71758067,48.4288625 5.59234403,41.9632258 Z M4.5922068,78.3498309 C4.62681858,77.9033721 5.01680334,77.5695041 5.46326215,77.6041159 C5.90972097,77.6387276 6.24358896,78.0287124 6.20897719,78.4751712 C5.29927246,90.2094943 3.79208178,101.918595 1.68749536,113.602044 C1.28990905,115.809107 2.75442565,117.917207 4.9579486,118.314157 C5.19514395,118.356886 5.43567716,118.378378 5.67669045,118.378378 L121.674792,118.378376 C122.12259,118.378376 122.485603,118.741388 122.485603,119.189187 C122.485603,119.636985 122.12259,119.999997 121.674792,119.999997 L5.67669047,120 C5.33927181,120 5.00252527,119.969911 4.67045176,119.91009 C1.58551933,119.35436 -0.464804105,116.403019 0.0908655125,113.318424 C2.18650058,101.684659 3.68672579,90.029672 4.5922068,78.3498309 Z M122.485603,119.999997 C122.037804,119.999997 121.674792,119.636985 121.674792,119.189187 C121.674792,118.741388 122.037804,118.378376 122.485603,118.378376 L131.036794,118.378376 C132.978904,118.378376 134.648198,117.001054 135.017056,115.094294 C135.29088,113.678791 135.556109,112.263694 135.812741,110.849003 C135.892669,110.408396 136.314647,110.116008 136.755254,110.195936 C137.195862,110.275864 137.48825,110.697842 137.408321,111.13845 C137.150566,112.559332 136.884179,113.980609 136.609161,115.402282 C136.092761,118.071747 133.755749,119.999997 131.036794,119.999997 L122.485603,119.999997 Z M140.063858,94.2808468 C140.00456,94.7247018 139.596674,95.036447 139.152819,94.9771493 C138.708964,94.9178516 138.397219,94.5099658 138.456517,94.0661108 C139.743204,84.4350078 140.62968,74.8227304 141.115968,65.2292262 C141.960023,48.5776804 141.604146,31.8699327 140.048293,15.1056921 C139.893492,13.4377871 138.493997,12.1621639 136.818927,12.1621639 C136.371129,12.1621639 136.008116,11.7991515 136.008116,11.3513531 C136.008116,10.9035546 136.371129,10.5405423 136.818927,10.5405423 C139.331533,10.5405423 141.430774,12.453976 141.662975,14.955834 C143.225967,31.7969914 143.583495,48.5822512 142.73551,65.3113196 C142.246968,74.9493141 141.35641,84.6058407 140.063858,94.2808468 Z M26.0207187,1.62162162 C24.9012226,1.62162162 23.9936917,2.52915253 23.9936917,3.64864865 L23.9936917,19.0540541 C23.9936917,20.1735502 24.9012226,21.0810811 26.0207187,21.0810811 C27.1402148,21.0810811 28.0477458,20.1735502 28.0477458,19.0540541 L28.0477458,3.64864865 C28.0477458,2.52915253 27.1402148,1.62162162 26.0207187,1.62162162 Z M26.0207187,0 C28.0358117,-3.60072332e-16 29.6693674,1.63355564 29.6693674,3.64864865 L29.6693674,19.0540541 C29.6693674,21.0691471 28.0358117,22.7027027 26.0207187,22.7027027 C24.0056257,22.7027027 22.3720701,21.0691471 22.3720701,19.0540541 L22.3720701,3.64864865 C22.3720701,1.63355564 24.0056257,3.60072332e-16 26.0207187,0 Z M122.507205,1.62162162 C121.387709,1.62162162 120.480178,2.52915253 120.480178,3.64864865 L120.480178,19.0540541 C120.480178,20.1735502 121.387709,21.0810811 122.507205,21.0810811 C123.626701,21.0810811 124.534232,20.1735502 124.534232,19.0540541 L124.534232,3.64864865 C124.534232,2.52915253 123.626701,1.62162162 122.507205,1.62162162 Z M122.507205,0 C124.522298,-3.60072332e-16 126.155854,1.63355564 126.155854,3.64864865 L126.155854,19.0540541 C126.155854,21.0691471 124.522298,22.7027027 122.507205,22.7027027 C120.492112,22.7027027 118.858557,21.0691471 118.858557,19.0540541 L118.858557,3.64864865 C118.858557,1.63355564 120.492112,3.60072332e-16 122.507205,0 Z M72.2369349,104.594595 C71.7891365,104.594595 71.4261241,104.231582 71.4261241,103.783784 C71.4261241,103.335985 71.7891365,102.972973 72.2369349,102.972973 C91.7202401,102.972973 107.507205,87.5407711 107.507205,68.5135135 C107.507205,64.768223 106.895832,61.1049913 105.710307,57.6245679 C105.565921,57.2006855 105.792498,56.7400133 106.21638,56.5956277 C106.640263,56.4512421 107.100935,56.677819 107.245321,57.1017014 C108.487979,60.7498565 109.128827,64.5896904 109.128827,68.5135135 C109.128827,88.4447207 92.6076915,104.594595 72.2369349,104.594595 Z M103.195917,48.8830188 C103.443681,49.2560292 103.342148,49.7592658 102.969138,50.0070292 C102.596128,50.2547927 102.092891,50.1532601 101.845127,49.7802498 C95.3819962,40.049943 84.3344999,34.0540541 72.2369349,34.0540541 C52.7536298,34.0540541 36.9666647,49.486256 36.9666647,68.5135135 C36.9666647,84.0763181 47.6198673,97.5916389 62.7447641,101.710877 C63.1768254,101.828548 63.431689,102.274195 63.3140179,102.706256 C63.1963468,103.138317 62.7507006,103.393181 62.3186393,103.27551 C46.4974239,98.9666301 35.3450431,84.8180206 35.3450431,68.5135135 C35.3450431,48.5823063 51.8661784,32.4324324 72.2369349,32.4324324 C84.8807431,32.4324324 96.4339271,38.7027769 103.195917,48.8830188 Z M140.143267,16.1789656 C140.065228,15.7380196 140.359422,15.3172992 140.800368,15.2392603 C141.241314,15.1612213 141.662034,15.4554156 141.740073,15.8963616 L153.044233,79.7686301 C153.122272,80.2095761 152.828077,80.6302965 152.387131,80.7083354 C151.946185,80.7863743 151.525465,80.49218 151.447426,80.051234 L140.143267,16.1789656 Z M155.121278,100.809721 C155.043239,100.368775 155.337433,99.9480549 155.778379,99.8700159 C156.219325,99.791977 156.640046,100.086171 156.718085,100.527117 L157.431401,104.557593 C157.899635,107.203269 156.134469,109.727592 153.488793,110.195826 C153.208906,110.24536 152.925217,110.27027 152.640981,110.27027 L142.20218,110.27027 C141.754381,110.27027 141.391369,109.907258 141.391369,109.459459 C141.391369,109.011661 141.754381,108.648649 142.20218,108.648649 L152.640981,108.648649 C152.830472,108.648649 153.019598,108.632042 153.206189,108.599019 C154.969973,108.286863 156.14675,106.603981 155.834594,104.840197 L155.121278,100.809721 Z M66.717707,79.8364751 C66.2699085,79.8364751 65.9068962,79.4734628 65.9068962,79.0256643 C65.9068962,78.5778659 66.2699085,78.2148535 66.717707,78.2148535 C68.9253884,78.2148535 70.2159423,79.2717075 70.2159423,81.2264365 C70.2159423,83.2305748 68.9307344,84.3243243 66.717707,84.3243243 L49.6973518,84.3243243 C48.717489,84.3243243 47.8983145,84.0259619 47.2888969,83.4192601 C46.6861367,82.8191859 46.3782781,82.0579124 46.3782781,81.1832841 C46.3782781,80.0982652 46.8112899,79.1188078 47.6360922,78.2897433 L57.842969,67.7229836 C59.0497064,66.4496529 59.9244917,65.2916678 60.4684139,64.2570432 C60.991521,63.2620123 61.2486937,62.2900003 61.2486937,61.3331819 C61.2486937,60.1992722 60.9320675,59.3858136 60.3104177,58.831262 C59.6677287,58.2579422 58.7095121,57.9582103 57.401302,57.9582103 C56.2774984,57.9582103 55.1899692,58.1624901 54.1336735,58.5721999 C53.0409513,58.9960386 51.9360216,59.5798087 50.8225577,60.3224647 C50.4836338,60.5510352 50.1414619,60.7405888 49.7959156,60.8903981 C49.3976745,61.0630528 48.9897114,61.1514876 48.5775916,61.1514876 C47.8137732,61.1514876 47.1473877,60.8032759 46.6265017,60.1609246 C46.1339567,59.5535233 45.8855836,58.8260819 45.8855836,58.0104474 C45.8855836,57.454696 45.9957255,56.9530665 46.2230763,56.5149936 C46.4430007,56.0912302 46.7776357,55.7043536 47.2333735,55.3387262 C48.6205791,54.2756214 50.238195,53.4358694 52.0826043,52.8184518 C53.926246,52.201291 55.7747797,51.8918919 57.6252541,51.8918919 C59.0043171,51.8918919 60.2719676,52.0361113 61.4277253,52.3264547 C61.8620291,52.4355582 62.1256561,52.876077 62.0165525,53.3103809 C61.907449,53.7446848 61.4669302,54.0083117 61.0326263,53.8992082 C60.0116055,53.6427126 58.8759791,53.5135135 57.6252541,53.5135135 C55.9521987,53.5135135 54.2772555,53.7938579 52.5973675,54.3562019 C50.918247,54.918289 49.4602857,55.6751596 48.2341843,56.6145393 C47.9588618,56.8355841 47.7709472,57.0528351 47.662407,57.2619766 C47.5612932,57.4568088 47.5072052,57.7031466 47.5072052,58.0104474 C47.5072052,58.4606229 47.6320818,58.8263646 47.8860474,59.1395523 C48.1116719,59.4177901 48.3261556,59.529866 48.5775916,59.529866 C48.7626801,59.529866 48.9519166,59.4888449 49.1508839,59.402584 C49.402546,59.2934776 49.6575735,59.1521995 49.9193002,58.9757036 C51.1315071,58.1671743 52.3407253,57.5283053 53.5472556,57.0603234 C54.7902124,56.5782125 56.0765511,56.3365887 57.401302,56.3365887 C59.0791342,56.3365887 60.4201354,56.7560562 61.3899093,57.6211568 C62.3807222,58.5050256 62.8703153,59.7628613 62.8703153,61.3331819 C62.8703153,62.5627625 62.5452186,63.7915007 61.9037691,65.0116372 C61.2831349,66.1921801 60.3215318,67.4650889 59.0146575,68.8440292 L48.7941164,79.4248622 C48.2536673,79.9681853 47.9998997,80.5421985 47.9998997,81.1832841 C47.9998997,81.6320026 48.1399407,81.9782962 48.4329931,82.2700427 C48.7193882,82.5551615 49.1244726,82.7027027 49.6973518,82.7027027 L66.717707,82.7027027 C68.0879301,82.7027027 68.5943207,82.2717495 68.5943207,81.2264365 C68.5943207,80.246788 68.0932762,79.8364751 66.717707,79.8364751 Z M66.717707,78.2148535 C67.1655054,78.2148535 67.5285178,78.5778659 67.5285178,79.0256643 C67.5285178,79.4734628 67.1655054,79.8364751 66.717707,79.8364751 L54.8930392,79.8364751 C54.1754408,79.8364751 53.8115674,78.9729351 54.3127616,78.4593675 L62.0612543,70.5195808 C63.8593873,68.6754405 65.1250351,67.019602 65.8594114,65.563744 C66.5783876,64.138416 66.9370756,62.6165766 66.9370756,60.9879628 C66.9370756,59.4656167 66.5779771,58.1721634 65.8640736,57.0877557 C65.6178412,56.7137329 65.7214359,56.2109167 66.0954587,55.9646844 C66.4694816,55.718452 66.9722977,55.8220467 67.2185301,56.1960696 C68.1134099,57.5553771 68.5586972,59.1592781 68.5586972,60.9879628 C68.5586972,62.8690947 68.1410258,64.6411886 67.3072601,66.2940802 C66.4888945,67.9164419 65.1268646,69.6983766 63.2220574,71.6519203 L56.8172456,78.2148535 L66.717707,78.2148535 Z M79.8894399,62.6044491 C79.3605818,62.8956019 78.8591466,63.0501931 78.3786452,63.0501931 C77.5061208,63.0501931 76.7504404,62.6810436 76.166561,61.9827348 C75.6136992,61.3215224 75.3283139,60.5630436 75.3283139,59.7365433 C75.3283139,58.6087654 75.8731995,57.700183 76.888205,57.0984107 L83.8404109,52.9500878 C84.8526535,52.3649532 85.8401992,52.0645015 86.799242,52.0645015 C87.836099,52.0645015 88.7108852,52.3828906 89.3773638,53.0249957 C90.0534984,53.6764036 90.3870581,54.5648729 90.3870581,55.6370656 L90.3870581,63.3602308 C90.3870581,63.8080293 90.0240457,64.1710416 89.5762473,64.1710416 C89.1284488,64.1710416 88.7654365,63.8080293 88.7654365,63.3602308 L88.7654365,55.6370656 C88.7654365,54.9831539 88.5913766,54.5195283 88.2522569,54.1928103 C87.9034812,53.8567896 87.4345685,53.6861231 86.799242,53.6861231 C86.145822,53.6861231 85.4313492,53.9034949 84.6616591,54.3483302 L77.7171768,58.4921313 C77.1814094,58.8097769 76.9499356,59.1957534 76.9499356,59.7365433 C76.9499356,60.1758529 77.0975199,60.5680931 77.4106104,60.9425435 C77.6926832,61.2798973 77.9970319,61.4285714 78.3786452,61.4285714 C78.5550731,61.4285714 78.8001371,61.3530188 79.0853025,61.1964811 L83.3851817,58.6504897 C83.9256731,58.3304606 84.6090954,58.7200399 84.6090954,59.3481717 L84.6090954,79.0256643 C84.6090954,79.4734628 84.246083,79.8364751 83.7982846,79.8364751 L79.1400821,79.8364751 C77.7324796,79.8364751 77.218678,80.2503372 77.218678,81.2264365 C77.218678,82.2682805 77.7376526,82.7027027 79.1400821,82.7027027 L94.2792402,82.7027027 C95.6494633,82.7027027 96.1558539,82.2717495 96.1558539,81.2264365 C96.1558539,80.246788 95.6548094,79.8364751 94.2792402,79.8364751 C93.8314417,79.8364751 93.4684294,79.4734628 93.4684294,79.0256643 C93.4684294,78.5778659 93.8314417,78.2148535 94.2792402,78.2148535 C96.4869215,78.2148535 97.7774755,79.2717075 97.7774755,81.2264365 C97.7774755,83.2305748 96.4922676,84.3243243 94.2792402,84.3243243 L79.1400821,84.3243243 C76.8995403,84.3243243 75.5970564,83.2340437 75.5970564,81.2264365 C75.5970564,79.2681582 76.9047132,78.2148535 79.1400821,78.2148535 L82.9874738,78.2148535 L82.9874738,60.7704113 L79.8894399,62.6044491 Z M94.2792402,78.2148535 C94.7270386,78.2148535 95.090051,78.5778659 95.090051,79.0256643 C95.090051,79.4734628 94.7270386,79.8364751 94.2792402,79.8364751 L89.5762473,79.8364751 C89.1284488,79.8364751 88.7654365,79.4734628 88.7654365,79.0256643 L88.7654365,69.8467173 C88.7654365,69.3989189 89.1284488,69.0359065 89.5762473,69.0359065 C90.0240457,69.0359065 90.3870581,69.3989189 90.3870581,69.8467173 L90.3870581,78.2148535 L94.2792402,78.2148535 Z" id="platnosci-cykliczne"></path>
                    </g>
                </g>
            </g>
        </g>
    </g>
</svg>