<?xml version="1.0" encoding="UTF-8"?>
<svg width="200px" height="150px" viewBox="0 0 200 150" version="1.1" xmlns="http://www.w3.org/2000/svg" xmlns:xlink="http://www.w3.org/1999/xlink">
    <!-- Generator: Sketch 50.2 (55047) - http://www.bohemiancoding.com/sketch -->
    <title>Platnosci cykliczne - vector</title>
    <desc>Created with Sketch.</desc>
    <defs>
        <linearGradient x1="100%" y1="100%" x2="0%" y2="0%" id="linearGradient-1">
            <stop stop-color="#00A3FC" offset="0%"></stop>
            <stop stop-color="#0F76B2" offset="100%"></stop>
        </linearGradient>
    </defs>
    <g id="Platnosci-cykliczne---vector" stroke="none" stroke-width="1" fill="none" fill-rule="evenodd">
        <path d="M173.643997,4.76465173e-06 C174.212104,4.78135213e-06 174.672646,0.459986184 174.672646,1.02740198 C174.672646,1.59481778 174.212104,2.05479916 173.643997,2.05479914 L11.5621688,2.05479438 C9.28973853,2.05479438 7.44756983,3.89472207 7.44756983,6.1643879 C7.44756983,6.27408268 7.4519672,6.38373348 7.46075137,6.49307684 C8.32316805,17.2282422 8.88966934,27.9788754 9.1602541,38.7449552 C9.17451051,39.3121923 8.72567101,39.7835719 8.15774302,39.797811 C7.58981502,39.8120501 7.1178613,39.3637566 7.10360488,38.7965195 C6.83396615,28.0680804 6.26944658,17.3550548 5.41004504,6.65742112 C5.39686878,6.49340614 5.39027273,6.32893001 5.39027273,6.1643879 C5.39027273,2.75989047 8.15352472,-5.93132808e-15 11.5621688,0 L173.643997,4.76465173e-06 Z M7.12847833,39.8219626 C7.115216,39.2547014 7.56488089,38.7841072 8.13283297,38.770861 C8.70078505,38.7576148 9.17195243,39.2067327 9.18521476,39.7739938 C9.37749791,47.9983971 9.39712408,56.2318012 9.2440942,64.4741967 C9.23356126,65.0415149 8.76456014,65.492889 8.19655089,65.4823689 C7.62854163,65.4718488 7.17661779,65.0034182 7.18715072,64.4360999 C7.33964829,56.2223762 7.32009052,48.0176669 7.12847833,39.8219626 Z M6.37903662,85.9559999 C6.41186247,85.3895321 6.89824528,84.9568974 7.46540304,84.9896833 C8.03256079,85.0224692 8.46572239,85.5082604 8.43289654,86.0747282 C7.35084651,104.747407 5.24991524,123.373686 2.13015349,141.953343 C1.65943795,144.75651 3.54953953,147.40516 6.35094599,147.874437 C6.6320711,147.921529 6.91662939,147.945198 7.2016811,147.945198 L143.070758,147.945204 C143.638865,147.945204 144.099407,148.405186 144.099407,148.972602 C144.099407,149.540017 143.638865,149.999999 143.070758,149.999999 L7.20168105,149.999992 C6.80260872,149.999992 6.40422711,149.966856 6.01065194,149.900926 C2.08868282,149.243939 -0.557459448,145.53583 0.10031516,141.618707 C3.20868344,123.106901 5.30128869,104.554438 6.37903662,85.9559999 Z M144.099406,149.999999 C143.5313,149.999999 143.070758,149.540017 143.070758,148.972602 C143.070758,148.405186 143.5313,147.945204 144.099407,147.945205 L166.267101,147.945206 C166.982161,147.945206 167.6787,147.798567 168.32252,147.517877 C168.843185,147.29088 169.449509,147.528431 169.676783,148.048462 C169.904057,148.568494 169.666217,149.174081 169.145552,149.401078 C168.24338,149.794403 167.266786,150 166.267101,150 L144.099406,149.999999 Z M175.90761,128.581807 C175.823453,129.142962 175.299769,129.529729 174.73793,129.445674 C174.176091,129.361619 173.788854,128.838572 173.873011,128.277417 C176.545375,110.458257 178.297111,92.6858497 179.128272,74.9600851 C180.205263,51.9838814 179.743638,28.9368974 177.743322,5.81068083 C177.559555,3.68603151 175.77916,2.05479914 173.643997,2.05479914 C173.07589,2.05479914 172.615349,1.59481775 172.615349,1.02740195 C172.615349,0.459986154 173.07589,4.76465172e-06 173.643997,4.76465172e-06 C176.846741,4.7646517e-06 179.517335,2.44685431 179.792985,5.63382783 C181.801134,28.850597 182.264585,51.9887631 181.183318,75.0561957 C180.348874,92.8519668 178.590287,110.693879 175.90761,128.581807 Z M91.744322,132.53424 C91.1762151,132.53424 90.7156734,132.074258 90.7156734,131.506843 C90.7156734,130.939427 91.1762151,130.479445 91.744322,130.479445 C116.462139,130.479445 136.490534,110.924944 136.490534,86.8150649 C136.490534,82.0693203 135.714905,77.4275545 134.210869,73.0174292 C134.027692,72.4803181 134.315142,71.8965896 134.852908,71.7136353 C135.390673,71.5306809 135.975112,71.8177818 136.15829,72.3548929 C137.734809,76.977555 138.547831,81.8430976 138.547831,86.8150649 C138.547831,112.07036 117.588019,132.53424 91.744322,132.53424 Z M131.020947,61.9408096 C131.335276,62.4134597 131.206465,63.0511224 130.73324,63.3650693 C130.260014,63.6790162 129.621574,63.5503618 129.307245,63.0777118 C121.107687,50.7482143 107.092098,43.1506843 91.744322,43.1506843 C67.0265046,43.1506843 46.9981101,62.7051854 46.9981101,86.8150649 C46.9981101,106.535056 60.5134719,123.660632 79.7019224,128.880215 C80.2500641,129.029318 80.573401,129.594007 80.4241156,130.141482 C80.2748302,130.688957 79.7094538,131.0119 79.1613121,130.862797 C59.0894654,125.402915 44.940813,107.474884 44.940813,86.8150649 C44.940813,61.5597698 65.9006247,41.0958899 91.744322,41.0958899 C107.785098,41.0958899 122.442236,49.0411889 131.020947,61.9408096 Z M178.157357,10.8126529 C178.065319,10.2527331 178.445164,9.7243072 179.005766,9.6323806 C179.566368,9.54045399 180.095438,9.91983744 180.187476,10.4797572 L193.519522,91.5857166 C193.61156,92.1456364 193.231715,92.6740623 192.671113,92.7659889 C192.110511,92.8579155 191.581442,92.4785321 191.489403,91.9186123 L178.157357,10.8126529 Z M195.822318,118.278049 C195.73028,117.718129 196.110125,117.189703 196.670727,117.097777 C197.231329,117.00585 197.760398,117.385234 197.852437,117.945153 L199.91752,130.508156 C200.469751,133.867674 198.190678,137.03823 194.827067,137.58979 C194.496531,137.64399 194.162125,137.671226 193.827164,137.671226 L184.423358,137.671226 C183.855251,137.671226 183.39471,137.211244 183.39471,136.643829 C183.39471,136.076413 183.855251,135.616431 184.423358,135.616431 L193.827164,135.616431 C194.050471,135.616431 194.273408,135.598274 194.493766,135.562141 C196.736173,135.194434 198.255555,133.08073 197.887401,130.841051 L195.822318,118.278049 Z M84.7422621,101.162652 C84.1741552,101.162652 83.7136135,100.702671 83.7136135,100.135255 C83.7136135,99.5678392 84.1741552,99.1078578 84.7422621,99.1078578 C87.5430736,99.1078578 89.1803562,100.447022 89.1803562,102.923905 C89.1803562,105.463395 87.549856,106.84931 84.7422621,106.84931 L63.1491069,106.84931 C61.9059878,106.84931 60.8667285,106.471248 60.0935808,105.702482 C59.3288791,104.942114 58.9383092,103.977487 58.9383092,102.869225 C58.9383092,101.494373 59.4876568,100.253279 60.5340558,99.2027524 L73.483179,85.8133661 C75.0141263,84.1998992 76.1239372,82.7325894 76.8139931,81.4215926 C77.4776415,80.1607659 77.8039079,78.9291069 77.8039079,77.7167001 C77.8039079,76.2798968 77.4022148,75.2491445 76.6135485,74.5464593 C75.7981906,73.8199925 74.5825331,73.4401953 72.9228508,73.4401953 C71.4971188,73.4401953 70.1174069,73.6990429 68.7773198,74.2181958 C67.3910198,74.7552516 65.9892324,75.4949602 64.576618,76.4359969 C64.1466367,76.7256238 63.7125345,76.9658116 63.2741515,77.1556384 C62.7689163,77.3744133 62.2513473,77.4864711 61.7285046,77.4864711 C60.7594738,77.4864711 59.9140528,77.0452439 59.2532221,76.2313057 C58.6283468,75.4616533 58.3132442,74.5398954 58.3132442,73.5063861 C58.3132442,72.8021806 58.4529775,72.1665542 58.7414098,71.6114619 C59.0204206,71.0745015 59.4449608,70.5842812 60.0231401,70.1209862 C61.7830414,68.7739015 63.8352566,67.7098322 66.1751969,66.927488 C68.5141635,66.1454693 70.8593364,65.7534225 73.2069713,65.7534225 C74.9565424,65.7534225 76.5647682,65.9361662 78.0310393,66.3040671 C78.5820261,66.4423147 78.9164808,67.0005063 78.7780647,67.5508228 C78.6396487,68.1011393 78.0807773,68.4351871 77.5297905,68.2969395 C76.2344555,67.971928 74.7937243,67.8082169 73.2069713,67.8082169 C71.0844219,67.8082169 68.9594776,68.1634477 66.8282598,68.8760069 C64.6980159,69.5882404 62.8483491,70.5472888 61.2928353,71.7375986 C60.9435428,72.0176896 60.7051419,72.2929733 60.5674406,72.5579814 C60.4391608,72.8048578 60.3705413,73.1169981 60.3705413,73.5063861 C60.3705413,74.076814 60.528968,74.5402538 60.8511656,74.9371012 C61.1374078,75.2896627 61.4095161,75.4316767 61.7285046,75.4316767 C61.9633203,75.4316767 62.2033982,75.3796979 62.4558214,75.2703947 C62.7750967,75.1321434 63.0986416,74.9531267 63.4306854,74.7294847 C64.9685718,73.7049784 66.5026665,72.8954527 68.0333511,72.3024619 C69.6102487,71.6915681 71.2421836,71.3854009 72.9228508,71.3854009 C75.0514603,71.3854009 76.7527438,71.916918 77.9830634,73.013107 C79.2400747,74.1330777 79.861205,75.7269104 79.861205,77.7167001 C79.861205,79.2747302 79.4487656,80.8316929 78.6349802,82.3777562 C77.8476023,83.8736494 76.6276487,85.4865818 74.969661,87.2338689 L62.0032025,100.641088 C61.3175527,101.329545 60.9956063,102.056891 60.9956063,102.869225 C60.9956063,103.437807 61.1732715,103.876603 61.5450574,104.246282 C61.9083973,104.607563 62.4223143,104.794516 63.1491069,104.794516 L84.7422621,104.794516 C86.4806183,104.794516 87.1230591,104.248445 87.1230591,102.923905 C87.1230591,101.682569 86.4874007,101.162652 84.7422621,101.162652 Z M84.7422621,99.1078578 C85.310369,99.1078578 85.7709106,99.5678392 85.7709106,100.135255 C85.7709106,100.702671 85.310369,101.162652 84.7422621,101.162652 L69.7407017,101.162652 C68.8303086,101.162652 68.3686746,100.068441 69.0045229,99.4176871 L78.8347764,89.3569992 C81.1160076,87.0202462 82.7216925,84.9220949 83.6533713,83.0773435 C84.5655123,81.2712772 85.0205677,79.3429192 85.0205677,77.2792649 C85.0205677,75.3502649 84.5649915,73.7113002 83.659286,72.3372221 C83.3468992,71.8632891 83.4783263,71.2261591 83.9528366,70.9141523 C84.4273468,70.6021456 85.0652529,70.7334128 85.3776396,71.2073458 C86.5129437,72.929756 87.0778648,74.9620961 87.0778648,77.2792649 C87.0778648,79.6628908 86.5479791,81.9083521 85.4902084,84.0027694 C84.4519754,86.0585015 82.7240135,88.3164323 80.3074484,90.7918129 L72.181878,99.1078578 L84.7422621,99.1078578 Z M101.452799,79.3275522 C100.781854,79.6964787 100.1457,79.8923647 99.5361042,79.8923647 C98.4291618,79.8923647 97.4704554,79.424607 96.7297071,78.5397636 C96.0283098,77.7019261 95.6662511,76.7408399 95.6662511,75.6935622 C95.6662511,74.2645288 96.3575291,73.1132429 97.6452326,72.3507232 L106.465264,67.094287 C107.749462,66.3528495 109.002328,65.9721401 110.219034,65.9721401 C111.534459,65.9721401 112.644271,66.3755783 113.489811,67.1892046 C114.3476,68.0146187 114.770776,69.1404187 114.770776,70.499019 L114.770776,80.2852208 C114.770776,80.8526366 114.310234,81.312618 113.742127,81.312618 C113.17402,81.312618 112.713479,80.8526366 112.713479,80.2852208 L112.713479,70.499019 C112.713479,69.6704323 112.492655,69.0829615 112.062425,68.6689696 C111.619945,68.2431899 111.025051,68.0269345 110.219034,68.0269345 C109.390062,68.0269345 108.483634,68.3023713 107.507154,68.8660324 L98.6969215,74.116739 C98.0172112,74.5192351 97.7235482,75.0083149 97.7235482,75.6935622 C97.7235482,76.2502217 97.9107835,76.7472383 98.3079909,77.2217131 C98.6658472,77.6491819 99.0519642,77.8375704 99.5361042,77.8375704 C99.7599324,77.8375704 100.070837,77.7418359 100.432617,77.5434833 L105.88773,74.3173985 C106.573433,73.9118823 107.440468,74.4055273 107.440468,75.2014476 L107.440468,100.135255 C107.440468,100.702671 106.979926,101.162652 106.411819,101.162652 L100.502114,101.162652 C98.7163356,101.162652 98.0644927,101.687066 98.0644927,102.923905 C98.0644927,104.244049 98.7228983,104.794516 100.502114,104.794516 L119.708657,104.794516 C121.447013,104.794516 122.089454,104.248445 122.089454,102.923905 C122.089454,101.682569 121.453796,101.162652 119.708657,101.162652 C119.14055,101.162652 118.680009,100.702671 118.680009,100.135255 C118.680009,99.5678392 119.14055,99.1078578 119.708657,99.1078578 C122.509469,99.1078578 124.146751,100.447022 124.146751,102.923905 C124.146751,105.463395 122.516251,106.84931 119.708657,106.84931 L100.502114,106.84931 C97.6596133,106.84931 96.0071956,105.46779 96.0071956,102.923905 C96.0071956,100.442525 97.6661761,99.1078578 100.502114,99.1078578 L105.383171,99.1078578 L105.383171,77.0036004 L101.452799,79.3275522 Z M119.708657,99.1078578 C120.276764,99.1078578 120.737306,99.5678392 120.737306,100.135255 C120.737306,100.702671 120.276764,101.162652 119.708657,101.162652 L113.742127,101.162652 C113.17402,101.162652 112.713479,100.702671 112.713479,100.135255 L112.713479,88.5043983 C112.713479,87.9369825 113.17402,87.4770011 113.742127,87.4770011 C114.310234,87.4770011 114.770776,87.9369825 114.770776,88.5043983 L114.770776,99.1078578 L119.708657,99.1078578 Z M24.6875652,29.7945185 C24.1194582,29.7945185 23.6589166,29.3345371 23.6589166,28.7671213 C23.6589166,28.1997055 24.1194582,27.7397241 24.6875652,27.7397241 L52.4610759,27.7397241 C53.0291829,27.7397241 53.4897245,28.1997055 53.4897245,28.7671213 C53.4897245,29.3345371 53.0291829,29.7945185 52.4610759,29.7945185 L24.6875652,29.7945185 Z M92.5783693,29.7945185 C92.0102624,29.7945185 91.5497208,29.3345371 91.5497208,28.7671213 C91.5497208,28.1997055 92.0102624,27.7397241 92.5783693,27.7397241 L120.35188,27.7397241 C120.919987,27.7397241 121.380529,28.1997055 121.380529,28.7671213 C121.380529,29.3345371 120.919987,29.7945185 120.35188,29.7945185 L92.5783693,29.7945185 Z M160.469173,27.7397241 C161.03728,27.7397241 161.497822,28.1997055 161.497822,28.7671213 C161.497822,29.3345371 161.03728,29.7945185 160.469173,29.7945185 L132.695663,29.7945185 C132.127556,29.7945185 131.667014,29.3345371 131.667014,28.7671213 C131.667014,28.1997055 132.127556,27.7397241 132.695663,27.7397241 L160.469173,27.7397241 Z M92.5783693,27.7397241 C93.1464762,27.7397241 93.6070179,28.1997055 93.6070179,28.7671213 C93.6070179,29.3345371 93.1464762,29.7945185 92.5783693,29.7945185 L64.8048585,29.7945185 C64.2367516,29.7945185 63.77621,29.3345371 63.77621,28.7671213 C63.77621,28.1997055 64.2367516,27.7397241 64.8048585,27.7397241 L92.5783693,27.7397241 Z M25.0193195,18.4931518 C24.4512126,18.4931518 23.9906709,18.0331704 23.9906709,17.4657546 C23.9906709,16.8983388 24.4512126,16.4383574 25.0193195,16.4383574 L56.9074245,16.4383574 C57.4755314,16.4383574 57.936073,16.8983388 57.936073,17.4657546 C57.936073,18.0331704 57.4755314,18.4931518 56.9074245,18.4931518 L25.0193195,18.4931518 Z M62.0506672,18.4931518 C61.4825603,18.4931518 61.0220187,18.0331704 61.0220187,17.4657546 C61.0220187,16.8983388 61.4825603,16.4383574 62.0506672,16.4383574 L72.3371527,16.4383574 C72.9052596,16.4383574 73.3658012,16.8983388 73.3658012,17.4657546 C73.3658012,18.0331704 72.9052596,18.4931518 72.3371527,18.4931518 L62.0506672,18.4931518 Z M77.4803954,18.4931518 C76.9122885,18.4931518 76.4517469,18.0331704 76.4517469,17.4657546 C76.4517469,16.8983388 76.9122885,16.4383574 77.4803954,16.4383574 L109.3685,16.4383574 C109.936607,16.4383574 110.397149,16.8983388 110.397149,17.4657546 C110.397149,18.0331704 109.936607,18.4931518 109.3685,18.4931518 L77.4803954,18.4931518 Z M114.511743,18.4931518 C113.943636,18.4931518 113.483095,18.0331704 113.483095,17.4657546 C113.483095,16.8983388 113.943636,16.4383574 114.511743,16.4383574 L124.798229,16.4383574 C125.366336,16.4383574 125.826877,16.8983388 125.826877,17.4657546 C125.826877,18.0331704 125.366336,18.4931518 124.798229,18.4931518 L114.511743,18.4931518 Z M129.941471,18.4931518 C129.373364,18.4931518 128.912823,18.0331704 128.912823,17.4657546 C128.912823,16.8983388 129.373364,16.4383574 129.941471,16.4383574 L160.14945,16.4383574 C160.717557,16.4383574 161.178099,16.8983388 161.178099,17.4657546 C161.178099,18.0331704 160.717557,18.4931518 160.14945,18.4931518 L129.941471,18.4931518 Z" id="Combined-Shape" fill="url(#linearGradient-1)" fill-rule="nonzero"></path>
    </g>
</svg>