<?xml version="1.0" encoding="UTF-8"?>
<svg width="150px" height="150px" viewBox="0 0 150 150" version="1.1" xmlns="http://www.w3.org/2000/svg" xmlns:xlink="http://www.w3.org/1999/xlink">
    <!-- Generator: Sketch 51 (57462) - http://www.bohemiancoding.com/sketch -->
    <title>portfel</title>
    <desc>Created with Sketch.</desc>
    <defs></defs>
    <g id="Page-1" stroke="none" stroke-width="1" fill="none" fill-rule="evenodd">
        <g id="Artboard" fill="#FFFFFF" fill-rule="nonzero">
            <g id="portfel">
                <path d="M21.4906758,29.562424 C20.9254866,29.562424 20.4673103,29.1054601 20.4673103,28.5417665 C20.4673103,27.978073 20.9254866,27.5211091 21.4906758,27.5211091 L128.509324,27.5211091 C140.378297,27.5211091 150,37.1173509 150,48.954915 L150,119.591044 C150,120.154737 149.541824,120.611701 148.976634,120.611701 C148.411445,120.611701 147.953269,120.154737 147.953269,119.591044 L147.953269,48.954915 C147.953269,38.2447379 139.247918,29.562424 128.509324,29.562424 L21.4906758,29.562424 Z M147.706311,131.666315 C147.795931,131.109753 148.320963,130.73103 148.879001,130.820414 C149.43704,130.909797 149.816768,131.433439 149.727147,131.990001 C148.068588,142.29 139.133784,149.972189 128.564359,149.999928 L116.241024,150 C115.675834,150.000003 115.217655,149.543042 115.217652,148.979349 C115.217649,148.415655 115.675822,147.958688 116.241012,147.958685 L128.56166,147.958616 C138.121529,147.933524 146.206206,140.982279 147.706311,131.666315 Z M106.007362,147.958685 C106.572552,147.958685 107.030728,148.415649 107.030728,148.979343 C107.030728,149.543036 106.572552,150 106.007362,150 L21.4906758,150 C9.62170328,150 2.4995607e-15,140.403758 0,128.566194 L7.27144932e-15,48.954915 C6.81698373e-15,44.1087618 1.6184317,39.5058527 4.54867454,35.766559 C4.89671606,35.3224219 5.539859,35.2437745 5.9851745,35.590895 C6.43048999,35.9380155 6.50934612,36.5794565 6.1613046,37.0235936 C3.50991809,40.4070377 2.04673103,44.5684225 2.04673103,48.954915 L2.04673103,128.566194 C2.04673103,139.276371 10.7520816,147.958685 21.4906758,147.958685 L106.007362,147.958685 Z M112.841558,94.8844991 C117.350328,94.8844991 121.028482,91.0122771 121.028482,86.208911 C121.028482,84.4352563 120.52604,82.7445853 119.60192,81.314538 C119.295735,80.840727 119.432642,80.2090725 119.90771,79.9036981 C120.382778,79.5983237 121.016109,79.7348685 121.322294,80.2086795 C122.458741,81.9672962 123.075213,84.0416674 123.075213,86.208911 C123.075213,92.1157219 118.506193,96.9258139 112.841558,96.9258139 C109.814967,96.9258139 107.004894,95.5415245 105.0752,93.1885515 C104.717365,92.7522248 104.781933,92.1091968 105.219417,91.7523083 C105.656902,91.3954198 106.301636,91.4598172 106.659471,91.8961439 C108.207852,93.7841628 110.441507,94.8844991 112.841558,94.8844991 Z M17.8705089,27.8240982 C17.9821267,27.7112904 18.1218253,27.6228198 18.2834661,27.5706644 L71.8357941,10.2913559 C72.373542,10.117845 72.9505044,10.4119638 73.1244757,10.9482887 C73.2984469,11.4846136 73.0035477,12.0600492 72.4657998,12.23356 L22.4972266,28.3565266 C22.5081626,28.4160198 22.5139278,28.47732 22.5140397,28.5399476 C22.5150469,29.1036402 22.0576878,29.5614178 21.4924995,29.5624223 L21.4197954,29.5625499 C19.4332499,29.5696126 17.4886483,29.8736179 15.6325509,30.4577613 C15.0935594,30.6273905 14.518744,30.3291194 14.3486647,29.7915542 C14.1785854,29.2539891 14.4776478,28.6806947 15.0166393,28.5110655 C15.9494444,28.2174969 16.902349,27.9879316 17.8705089,27.8240982 Z M85.1236228,8.14935984 C84.5858749,8.32287072 84.0089125,8.02875187 83.8349413,7.492427 C83.66097,6.95610213 83.9558692,6.38066655 84.4936171,6.20715566 L101.573633,0.69608138 C108.413673,-1.51094074 115.834541,1.6794354 118.922133,8.15454023 L127.203008,25.5206789 C127.445747,26.0297363 127.228758,26.6386672 126.71835,26.880764 C126.207942,27.1228608 125.597396,26.9064464 125.354656,26.3973889 L117.073781,9.03125028 C114.427274,3.48116043 108.06653,0.746552306 102.203638,2.63828555 L85.1236228,8.14935984 Z M148.855479,66.8404765 C149.48758,66.8404765 150,67.2974404 150,67.8611339 C150,68.4248275 149.48758,68.8817914 148.855479,68.8817914 L108.222293,68.8817914 C97.8114539,68.8817914 92.7221475,74.3763344 92.7221475,85.8311338 C92.7221475,89.9598581 93.3969071,93.3241399 94.7280886,95.9241181 C94.9906267,96.4368907 94.7373256,97.0423711 94.1623246,97.2764965 C93.5873237,97.5106219 92.9083642,97.2847338 92.6458261,96.7719612 C91.1645664,93.87886 90.4331055,90.2318712 90.4331055,85.8311338 C90.4331055,73.3259334 96.4402433,66.8404765 108.222293,66.8404765 L148.855479,66.8404765 Z M100.940027,104.194135 C100.301395,104.037448 99.9101839,103.390599 100.066233,102.749357 C100.222282,102.108115 100.866499,101.715306 101.505131,101.871993 C103.003237,102.239549 104.66212,102.426807 106.479522,102.431247 L148.809636,102.431331 C149.467057,102.431332 150.000001,102.966456 150,103.626563 C149.999999,104.286671 149.467052,104.821792 148.809631,104.821791 L106.476626,104.821703 C104.474522,104.816816 102.628778,104.608465 100.940027,104.194135 Z M117.078471,76.4508145 C117.588394,76.6939276 117.804162,77.3032895 117.560404,77.8118624 C117.316646,78.3204354 116.705668,78.5356332 116.195745,78.2925202 C115.150417,77.7941443 114.014159,77.5333229 112.841558,77.5333229 C108.332788,77.5333229 104.654634,81.4055448 104.654634,86.208911 C104.654634,86.7286077 104.697669,87.2420464 104.782512,87.7453604 C104.876217,88.3012526 104.500345,88.8276544 103.942978,88.9211117 C103.38561,89.014569 102.857812,88.6396914 102.764107,88.0837992 C102.660427,87.4687336 102.607903,86.8420917 102.607903,86.208911 C102.607903,80.3021001 107.176923,75.492008 112.841558,75.492008 C114.321959,75.492008 115.759548,75.8219984 117.078471,76.4508145 Z" id="Combined-Shape"></path>
            </g>
        </g>
    </g>
</svg>