<?xml version="1.0" encoding="UTF-8"?>
<svg width="440px" height="590px" viewBox="0 0 440 590" version="1.1" xmlns="http://www.w3.org/2000/svg" xmlns:xlink="http://www.w3.org/1999/xlink">
    <!-- Generator: Sketch 51 (57462) - http://www.bohemiancoding.com/sketch -->
    <title>Group 6</title>
    <desc>Created with Sketch.</desc>
    <defs>
        <rect id="path-1" x="0" y="0" width="400" height="550" rx="10"></rect>
        <filter x="-8.5%" y="-4.7%" width="117.0%" height="112.4%" filterUnits="objectBoundingBox" id="filter-2">
            <feOffset dx="0" dy="8" in="SourceAlpha" result="shadowOffsetOuter1"></feOffset>
            <feGaussianBlur stdDeviation="10" in="shadowOffsetOuter1" result="shadowBlurOuter1"></feGaussianBlur>
            <feColorMatrix values="0 0 0 0 0   0 0 0 0 0   0 0 0 0 0  0 0 0 0.29724298 0" type="matrix" in="shadowBlurOuter1"></feColorMatrix>
        </filter>
        <linearGradient x1="50%" y1="0%" x2="50%" y2="100%" id="linearGradient-3">
            <stop stop-color="#54D4F8" offset="0%"></stop>
            <stop stop-color="#2AA9EE" offset="100%"></stop>
        </linearGradient>
        <linearGradient x1="110.472147%" y1="128.039062%" x2="-12.6205842%" y2="-36.828125%" id="linearGradient-4">
            <stop stop-color="#58C4FF" offset="0%"></stop>
            <stop stop-color="#1B8ED0" offset="100%"></stop>
        </linearGradient>
    </defs>
    <g id="SG-Apple-Pay" stroke="none" stroke-width="1" fill="none" fill-rule="evenodd">
        <g id="Desktop-STRONA-GLOWNA-12" transform="translate(-427.000000, -3137.000000)">
            <g id="Secure-form" transform="translate(447.000000, 3149.000000)">
                <g id="Group-6">
                    <g id="Rectangle-5">
                        <use fill="black" fill-opacity="1" filter="url(#filter-2)" xlink:href="#path-1"></use>
                        <use fill="#FFFFFF" fill-rule="evenodd" xlink:href="#path-1"></use>
                    </g>
                    <rect id="Rectangle-5" stroke="url(#linearGradient-3)" stroke-width="2" x="11" y="11" width="378" height="528" rx="10"></rect>
                    <rect id="Rectangle-5" fill="#2AA9EE" opacity="0.301004464" x="30" y="90" width="160" height="40" rx="5"></rect>
                    <rect id="Rectangle-5" fill="#2AA9EE" opacity="0.301004464" x="30" y="150" width="340" height="40" rx="5"></rect>
                    <rect id="Rectangle-5" fill="#2AA9EE" opacity="0.301004464" x="210" y="90" width="160" height="40" rx="5"></rect>
                    <g id="Logo-vector" transform="translate(149.000000, 33.000000)">
                        <path d="M43.96,16.789 C43.515,16.698 43.181,16.652 42.959,16.652 C40.898,16.652 39.868,17.328 39.868,18.678 C39.868,19.68 40.449,20.182 41.612,20.182 C43.178,20.182 43.96,19.398 43.96,17.832 L43.96,16.789 Z M44.211,20.934 C43.975,21.323 43.562,21.642 42.974,21.889 C42.386,22.135 41.771,22.259 41.131,22.259 C39.927,22.259 38.981,21.958 38.292,21.355 C37.603,20.754 37.258,19.899 37.258,18.793 C37.258,17.498 37.744,16.486 38.714,15.755 C39.686,15.024 41.065,14.659 42.854,14.659 C43.16,14.659 43.522,14.711 43.94,14.815 C43.94,13.499 43.108,12.842 41.444,12.842 C40.463,12.842 39.642,13.005 38.981,13.332 L38.417,11.307 C39.315,10.875 40.383,10.66 41.622,10.66 C43.327,10.66 44.577,11.048 45.37,11.824 C46.164,12.6 46.56,14.07 46.56,16.235 L46.56,18.626 C46.56,20.115 46.859,21.052 47.458,21.435 C47.242,21.811 47.002,22.041 46.738,22.129 C46.473,22.215 46.17,22.259 45.83,22.259 C45.454,22.259 45.116,22.119 44.817,21.842 C44.517,21.562 44.315,21.26 44.211,20.934 Z" id="Fill-1" fill="#545554"></path>
                        <polyline id="Fill-2" fill="#545554" points="58.948 22.051 58.948 6.755 61.663 6.755 61.663 19.639 68.574 19.639 68.574 22.051 58.948 22.051"></polyline>
                        <path d="M76.046,16.789 C75.601,16.698 75.267,16.652 75.044,16.652 C72.984,16.652 71.955,17.328 71.955,18.678 C71.955,19.68 72.536,20.182 73.699,20.182 C75.263,20.182 76.046,19.398 76.046,17.832 L76.046,16.789 Z M76.298,20.934 C76.061,21.323 75.648,21.642 75.06,21.889 C74.472,22.135 73.858,22.259 73.218,22.259 C72.013,22.259 71.067,21.958 70.378,21.355 C69.689,20.754 69.344,19.899 69.344,18.793 C69.344,17.498 69.83,16.486 70.8,15.755 C71.772,15.024 73.152,14.659 74.941,14.659 C75.247,14.659 75.609,14.711 76.027,14.815 C76.027,13.499 75.195,12.842 73.531,12.842 C72.55,12.842 71.728,13.005 71.067,13.332 L70.503,11.307 C71.402,10.875 72.47,10.66 73.709,10.66 C75.414,10.66 76.664,11.048 77.456,11.824 C78.249,12.6 78.646,14.07 78.646,16.235 L78.646,18.626 C78.646,20.115 78.946,21.052 79.544,21.435 C79.329,21.811 79.089,22.041 78.824,22.129 C78.56,22.215 78.257,22.259 77.915,22.259 C77.54,22.259 77.203,22.119 76.904,21.842 C76.603,21.562 76.402,21.26 76.298,20.934 Z" id="Fill-3" fill="#545554"></path>
                        <path d="M87.877,22.051 L87.877,15.587 C87.877,14.634 87.693,13.938 87.328,13.499 C86.962,13.061 86.366,12.842 85.538,12.842 C85.155,12.842 84.746,12.95 84.311,13.165 C83.877,13.381 83.537,13.649 83.293,13.97 L83.293,22.051 L80.683,22.051 L80.683,10.869 L82.562,10.869 L83.043,11.913 C83.752,11.078 84.8,10.66 86.185,10.66 C87.514,10.66 88.564,11.059 89.334,11.855 C90.102,12.652 90.486,13.764 90.486,15.191 L90.486,22.051 L87.877,22.051" id="Fill-4" fill="#545554"></path>
                        <path d="M35.317,7.763 C34.2,7.021 32.434,6.651 30.019,6.651 C29.712,6.651 28.654,6.689 26.845,6.766 L26.845,22.051 L29.559,22.051 L29.559,9.115 C29.824,9.08 30.099,9.063 30.384,9.063 C32.938,9.063 34.216,9.856 34.216,11.443 C34.216,12.375 33.93,13.049 33.359,13.463 C33.08,13.666 32.719,13.819 32.278,13.922 L32.278,16.409 C35.42,16.017 36.993,14.292 36.993,11.234 C36.993,9.661 36.434,8.504 35.317,7.763" id="Fill-13" fill="#545554"></path>
                        <polyline id="Fill-14" fill="#545554" points="51.259 15.356 49.477 10.869 46.773 10.869 49.978 18.785 51.259 15.356"></polyline>
                        <path d="M55.272,10.869 L52.526,18.594 L52.523,18.588 L51.104,22.627 C50.697,23.652 50.091,24.128 48.089,24.128 L48.089,26.436 C49.307,26.436 50.374,26.189 51.289,25.699 C52.204,25.209 52.801,24.591 53.079,23.846 L57.976,10.869 L55.272,10.869" id="Fill-15" fill="#545554"></path>
                        <path d="M102.723,15.807 C102.723,14.311 102.232,13.079 101.25,12.111 C100.269,11.144 98.967,10.66 97.345,10.66 C95.822,10.66 94.515,11.206 93.425,12.299 C92.336,13.392 91.791,14.819 91.791,16.58 C91.791,18.369 92.288,19.762 93.279,20.761 C94.271,21.76 95.62,22.259 97.326,22.259 C99.149,22.259 100.52,21.887 101.439,21.143 L100.426,19.148 C99.807,19.768 98.902,20.077 97.711,20.077 C96.757,20.077 95.999,19.83 95.435,19.336 C94.986,18.941 94.706,18.416 94.585,17.769 L94.578,17.769 C94.231,15.91 94.815,14.607 94.815,14.607 L94.822,14.607 C95.275,13.435 96.127,12.842 97.388,12.842 C99.016,12.842 99.92,13.66 100.102,15.295 L96.971,15.295 L96.971,17.258 L102.503,17.258 C102.649,16.611 102.723,16.127 102.723,15.807" id="Fill-16" fill="#545554"></path>
                        <path d="M0,1.779 C0,1.779 16.908,3.462 8.681,22.591 L16.957,22.591 C16.957,22.591 21.525,1.459 0,1.779" id="Fill-17" fill="#545554"></path>
                        <path d="M21.848,4.387 L15.445,4.387 C13.074,2.326 9.558,0.907 4.403,0.754 C19.732,3.674 19.485,14.703 17.752,22.591 L21.848,22.591 C22.507,22.591 23.042,22.057 23.042,21.396 L23.042,5.582 C23.042,4.922 22.507,4.387 21.848,4.387" id="Fill-18" fill="#FBCD20"></path>
                        <path d="M6.105,4.387 L6.026,4.387 C5.367,4.387 4.832,4.922 4.832,5.582 L4.832,21.396 C4.832,22.057 5.367,22.591 6.026,22.591 L6.133,22.591 C7.56,20.613 14.048,10.72 6.105,4.387" id="Fill-19" fill="#FBCD20"></path>
                    </g>
                    <g id="Group-2" transform="translate(32.000000, 210.000000)" fill="url(#linearGradient-4)" fill-rule="nonzero">
                        <path d="M-2.22044605e-16,3 C-1.1045695,3 -2,2.1045695 -2,1 C-2,-0.1045695 -1.1045695,-1 -2.22044605e-16,-1 L45,-1 C46.1045695,-1 47,-0.1045695 47,1 C47,2.1045695 46.1045695,3 45,3 L-2.22044605e-16,3 Z M60,3 C58.8954305,3 58,2.1045695 58,1 C58,-0.1045695 58.8954305,-1 60,-1 L120,-1 C121.104569,-1 122,-0.1045695 122,1 C122,2.1045695 121.104569,3 120,3 L60,3 Z M135,3 C133.895431,3 133,2.1045695 133,1 C133,-0.1045695 133.895431,-1 135,-1 L180,-1 C181.104569,-1 182,-0.1045695 182,1 C182,2.1045695 181.104569,3 180,3 L135,3 Z M195,3 C193.895431,3 193,2.1045695 193,1 C193,-0.1045695 193.895431,-1 195,-1 L255,-1 C256.104569,-1 257,-0.1045695 257,1 C257,2.1045695 256.104569,3 255,3 L195,3 Z M270,3 C268.895431,3 268,2.1045695 268,1 C268,-0.1045695 268.895431,-1 270,-1 L315,-1 C316.104569,-1 317,-0.1045695 317,1 C317,2.1045695 316.104569,3 315,3 L270,3 Z M330,3 C328.895431,3 328,2.1045695 328,1 C328,-0.1045695 328.895431,-1 330,-1 L336.503906,-1 C337.608476,-1 338.503906,-0.1045695 338.503906,1 C338.503906,2.1045695 337.608476,3 336.503906,3 L330,3 Z" id="Line"></path>
                        <path d="M-4.54969395e-13,25 C-1.1045695,25 -2,24.1045695 -2,23 C-2,21.8954305 -1.1045695,21 -4.54969395e-13,21 L45,21 C46.1045695,21 47,21.8954305 47,23 C47,24.1045695 46.1045695,25 45,25 L-4.54969395e-13,25 Z M60,25 C58.8954305,25 58,24.1045695 58,23 C58,21.8954305 58.8954305,21 60,21 L120,21 C121.104569,21 122,21.8954305 122,23 C122,24.1045695 121.104569,25 120,25 L60,25 Z M135,25 C133.895431,25 133,24.1045695 133,23 C133,21.8954305 133.895431,21 135,21 L180,21 C181.104569,21 182,21.8954305 182,23 C182,24.1045695 181.104569,25 180,25 L135,25 Z M195,25 C193.895431,25 193,24.1045695 193,23 C193,21.8954305 193.895431,21 195,21 L255,21 C256.104569,21 257,21.8954305 257,23 C257,24.1045695 256.104569,25 255,25 L195,25 Z M270,25 C268.895431,25 268,24.1045695 268,23 C268,21.8954305 268.895431,21 270,21 L315,21 C316.104569,21 317,21.8954305 317,23 C317,24.1045695 316.104569,25 315,25 L270,25 Z M330,25 C328.895431,25 328,24.1045695 328,23 C328,21.8954305 328.895431,21 330,21 L336.503906,21 C337.608476,21 338.503906,21.8954305 338.503906,23 C338.503906,24.1045695 337.608476,25 336.503906,25 L330,25 Z" id="Line" transform="translate(168.251953, 23.000000) scale(-1, 1) translate(-168.251953, -23.000000) "></path>
                        <path d="M-2.22044605e-16,47 C-1.1045695,47 -2,46.1045695 -2,45 C-2,43.8954305 -1.1045695,43 -2.22044605e-16,43 L45,43 C46.1045695,43 47,43.8954305 47,45 C47,46.1045695 46.1045695,47 45,47 L-2.22044605e-16,47 Z M60,47 C58.8954305,47 58,46.1045695 58,45 C58,43.8954305 58.8954305,43 60,43 L120,43 C121.104569,43 122,43.8954305 122,45 C122,46.1045695 121.104569,47 120,47 L60,47 Z M135,47 C133.895431,47 133,46.1045695 133,45 C133,43.8954305 133.895431,43 135,43 L180,43 C181.104569,43 182,43.8954305 182,45 C182,46.1045695 181.104569,47 180,47 L135,47 Z M195,47 C193.895431,47 193,46.1045695 193,45 C193,43.8954305 193.895431,43 195,43 L255,43 C256.104569,43 257,43.8954305 257,45 C257,46.1045695 256.104569,47 255,47 L195,47 Z M270,47 C268.895431,47 268,46.1045695 268,45 C268,43.8954305 268.895431,43 270,43 L315,43 C316.104569,43 317,43.8954305 317,45 C317,46.1045695 316.104569,47 315,47 L270,47 Z M330,47 C328.895431,47 328,46.1045695 328,45 C328,43.8954305 328.895431,43 330,43 L336.503906,43 C337.608476,43 338.503906,43.8954305 338.503906,45 C338.503906,46.1045695 337.608476,47 336.503906,47 L330,47 Z" id="Line"></path>
                        <path d="M-4.54969395e-13,69 C-1.1045695,69 -2,68.1045695 -2,67 C-2,65.8954305 -1.1045695,65 -4.54969395e-13,65 L45,65 C46.1045695,65 47,65.8954305 47,67 C47,68.1045695 46.1045695,69 45,69 L-4.54969395e-13,69 Z M60,69 C58.8954305,69 58,68.1045695 58,67 C58,65.8954305 58.8954305,65 60,65 L120,65 C121.104569,65 122,65.8954305 122,67 C122,68.1045695 121.104569,69 120,69 L60,69 Z M135,69 C133.895431,69 133,68.1045695 133,67 C133,65.8954305 133.895431,65 135,65 L180,65 C181.104569,65 182,65.8954305 182,67 C182,68.1045695 181.104569,69 180,69 L135,69 Z M195,69 C193.895431,69 193,68.1045695 193,67 C193,65.8954305 193.895431,65 195,65 L255,65 C256.104569,65 257,65.8954305 257,67 C257,68.1045695 256.104569,69 255,69 L195,69 Z M270,69 C268.895431,69 268,68.1045695 268,67 C268,65.8954305 268.895431,65 270,65 L315,65 C316.104569,65 317,65.8954305 317,67 C317,68.1045695 316.104569,69 315,69 L270,69 Z M330,69 C328.895431,69 328,68.1045695 328,67 C328,65.8954305 328.895431,65 330,65 L336.503906,65 C337.608476,65 338.503906,65.8954305 338.503906,67 C338.503906,68.1045695 337.608476,69 336.503906,69 L330,69 Z" id="Line" transform="translate(168.251953, 67.000000) scale(-1, 1) translate(-168.251953, -67.000000) "></path>
                        <path d="M-2.22044605e-16,91 C-1.1045695,91 -2,90.1045695 -2,89 C-2,87.8954305 -1.1045695,87 -2.22044605e-16,87 L45,87 C46.1045695,87 47,87.8954305 47,89 C47,90.1045695 46.1045695,91 45,91 L-2.22044605e-16,91 Z M60,91 C58.8954305,91 58,90.1045695 58,89 C58,87.8954305 58.8954305,87 60,87 L120,87 C121.104569,87 122,87.8954305 122,89 C122,90.1045695 121.104569,91 120,91 L60,91 Z M135,91 C133.895431,91 133,90.1045695 133,89 C133,87.8954305 133.895431,87 135,87 L180,87 C181.104569,87 182,87.8954305 182,89 C182,90.1045695 181.104569,91 180,91 L135,91 Z M195,91 C193.895431,91 193,90.1045695 193,89 C193,87.8954305 193.895431,87 195,87 L255,87 C256.104569,87 257,87.8954305 257,89 C257,90.1045695 256.104569,91 255,91 L195,91 Z M270,91 C268.895431,91 268,90.1045695 268,89 C268,87.8954305 268.895431,87 270,87 L315,87 C316.104569,87 317,87.8954305 317,89 C317,90.1045695 316.104569,91 315,91 L270,91 Z M330,91 C328.895431,91 328,90.1045695 328,89 C328,87.8954305 328.895431,87 330,87 L336.503906,87 C337.608476,87 338.503906,87.8954305 338.503906,89 C338.503906,90.1045695 337.608476,91 336.503906,91 L330,91 Z" id="Line"></path>
                        <path d="M-4.54969395e-13,113 C-1.1045695,113 -2,112.104569 -2,111 C-2,109.895431 -1.1045695,109 -4.54969395e-13,109 L45,109 C46.1045695,109 47,109.895431 47,111 C47,112.104569 46.1045695,113 45,113 L-4.54969395e-13,113 Z M60,113 C58.8954305,113 58,112.104569 58,111 C58,109.895431 58.8954305,109 60,109 L120,109 C121.104569,109 122,109.895431 122,111 C122,112.104569 121.104569,113 120,113 L60,113 Z M135,113 C133.895431,113 133,112.104569 133,111 C133,109.895431 133.895431,109 135,109 L180,109 C181.104569,109 182,109.895431 182,111 C182,112.104569 181.104569,113 180,113 L135,113 Z M195,113 C193.895431,113 193,112.104569 193,111 C193,109.895431 193.895431,109 195,109 L255,109 C256.104569,109 257,109.895431 257,111 C257,112.104569 256.104569,113 255,113 L195,113 Z M270,113 C268.895431,113 268,112.104569 268,111 C268,109.895431 268.895431,109 270,109 L315,109 C316.104569,109 317,109.895431 317,111 C317,112.104569 316.104569,113 315,113 L270,113 Z M330,113 C328.895431,113 328,112.104569 328,111 C328,109.895431 328.895431,109 330,109 L336.503906,109 C337.608476,109 338.503906,109.895431 338.503906,111 C338.503906,112.104569 337.608476,113 336.503906,113 L330,113 Z" id="Line" transform="translate(168.251953, 111.000000) scale(-1, 1) translate(-168.251953, -111.000000) "></path>
                    </g>
                    <text id="$129,99" font-family="Nunito-Regular, Nunito" font-size="24" font-weight="normal" fill="#4A4A4A">
                        <tspan x="155" y="454">$129,99</tspan>
                    </text>
                    <g id="Group-3" transform="translate(121.000000, 476.000000)">
                        <rect id="Rectangle-5" fill="#51CCB2" x="0" y="0" width="160" height="40" rx="5"></rect>
                        <g id="check-circle" transform="translate(13.000000, 10.000000)" stroke="#FFFFFF" stroke-linecap="round" stroke-linejoin="round" stroke-width="2">
                            <path d="M20,10.08 L20,11 C19.9974678,15.4286859 17.082294,19.328213 12.8353524,20.583901 C8.58841086,21.839589 4.02139355,20.1523121 1.61095509,16.4370663 C-0.799483376,12.7218205 -0.479136554,7.86363898 2.39827419,4.49707214 C5.27568494,1.13050531 10.0247126,0.0575252842 14.07,1.86" id="Shape"></path>
                            <polyline id="Shape" points="20 3 10 13.01 7 10.01"></polyline>
                        </g>
                        <text id="Buy" font-family="Nunito-Bold, Nunito" font-size="14" font-weight="bold" letter-spacing="0.1786457" fill="#FFFFFF">
                            <tspan x="65" y="25">Buy</tspan>
                        </text>
                    </g>
                </g>
            </g>
        </g>
    </g>
</svg>