<?xml version="1.0" encoding="UTF-8"?>
<svg width="19px" height="20px" viewBox="0 0 19 20" version="1.1" xmlns="http://www.w3.org/2000/svg" xmlns:xlink="http://www.w3.org/1999/xlink">
    <!-- Generator: Sketch 51 (57462) - http://www.bohemiancoding.com/sketch -->
    <title>zap</title>
    <desc>Created with Sketch.</desc>
    <defs></defs>
    <g id="FAQ" stroke="none" stroke-width="1" fill="none" fill-rule="evenodd" stroke-linecap="round" stroke-linejoin="round">
        <g id="Desktop-HD" transform="translate(-170.000000, -638.000000)" stroke="#000000" stroke-width="2">
            <g id="zap" transform="translate(171.000000, 639.000000)">
                <polygon id="Shape" points="9 0 0 10.8 8.1 10.8 7.2 18 16.2 7.2 8.1 7.2"></polygon>
            </g>
        </g>
    </g>
</svg>