<?xml version="1.0" encoding="UTF-8"?>
<svg width="399px" height="366px" viewBox="0 0 399 366" version="1.1" xmlns="http://www.w3.org/2000/svg" xmlns:xlink="http://www.w3.org/1999/xlink">
    <!-- Generator: Sketch 50.2 (55047) - http://www.bohemiancoding.com/sketch -->
    <title>Big Ship</title>
    <desc>Created with Sketch.</desc>
    <defs>
        <linearGradient x1="2.31811523%" y1="14.6395146%" x2="97.8377279%" y2="89.3949609%" id="linearGradient-1">
            <stop stop-color="#FFE56F" offset="0%"></stop>
            <stop stop-color="#63C9AC" offset="52.7027637%"></stop>
            <stop stop-color="#42A7E6" offset="100%"></stop>
        </linearGradient>
    </defs>
    <g id="Oferta-UX---New---Cartesian-18/12/14" stroke="none" stroke-width="1" fill="none" fill-rule="evenodd">
        <g id="Desktop-HD" transform="translate(-1484.000000, -3439.000000)" fill="url(#linearGradient-1)">
            <g id="Cala-naprzod" transform="translate(0.000000, 3442.000000)">
                <g id="Big-Ship" transform="translate(1487.000000, 0.000000)">
                    <g id="Water-Transportation-595b40b65ba036ed117d0d32" transform="translate(-2.482105, -2.482759)">
                        <path d="M190.885946,8.21805952 C190.824837,3.74801264 194.389629,0.0709182104 198.855532,0.000991011521 C200.226193,-0.0204708247 201.354727,1.07356365 201.376183,2.4445854 C201.397639,3.81560716 200.303893,4.94443814 198.933232,4.96589998 C197.206396,4.9929388 195.825997,6.41682574 195.849925,8.18411231 L195.849925,38.7857663 L134.092782,38.7857663 L134.092782,78.1522198 L66.5133717,78.1522198 C66.129601,79.0273144 65.2557883,79.6385646 64.2392481,79.6385646 C62.8684192,79.6385646 61.7571429,78.5269957 61.7571429,77.155806 L61.7571429,73.1867025 L129.128571,73.1867025 L129.128571,33.820249 L190.885735,33.820249 L190.885946,8.21805952 Z M61.7571429,173.759038 L61.7571429,101.983392 C61.7571429,100.612202 62.8684192,99.5006336 64.2392481,99.5006336 C65.610077,99.5006336 66.7213534,100.612202 66.7213534,101.983392 L66.7213534,177.663394 L9.29304862,191.607643 L38.2179147,255.360339 C38.7844209,256.608964 38.2317211,258.080539 36.9834252,258.647194 C35.7351294,259.213849 34.2639416,258.661004 33.6974355,257.41238 L2.29426514,188.197304 L61.7571429,173.759038 Z M38.3239222,281.171654 C38.0716524,279.823883 38.9594444,278.526739 40.3068611,278.274403 C41.6542778,278.022067 42.95108,278.910093 43.2033498,280.257864 L55.1732653,344.208088 L53.3181068,344.981018 C51.1829604,345.870602 49.3502436,346.744356 45.99661,348.424004 C38.6218744,352.117607 34.3613618,353.717394 30.5183841,353.717145 C29.3895815,353.701154 28.339127,354.295504 27.7692898,355.273485 C27.1987594,356.252655 27.1987594,357.464175 27.7692898,358.443345 C28.339127,359.421325 29.3895815,360.015675 30.5535338,359.999435 C35.4725235,359.999435 39.6716221,358.603865 46.2574858,355.320749 C46.7828485,355.058851 48.5537988,354.166659 48.7961719,354.045268 C56.1709075,350.351665 60.4314202,348.751877 64.2392481,348.751877 C68.0470761,348.751877 72.3075887,350.351665 79.6823243,354.045268 C79.9246974,354.166659 81.6956478,355.058851 82.2210104,355.320749 C88.8068741,358.603865 93.0059727,359.999435 97.9249624,359.999435 C102.843952,359.999435 107.043051,358.603865 113.628914,355.320749 C114.154277,355.058851 115.925227,354.166659 116.1676,354.045268 C120.506988,351.871905 123.472962,350.559363 126.178556,349.712895 C127.486882,349.303574 128.879223,350.03264 129.288436,351.34131 C129.697649,352.64998 128.968775,354.042687 127.660449,354.452008 C125.276516,355.197843 122.506413,356.423705 118.390197,358.485293 C118.156719,358.60223 116.380001,359.497327 115.843211,359.764922 C108.622104,363.364712 103.807179,364.964952 97.9249624,364.964952 C92.0427457,364.964952 87.2278206,363.364712 80.0067139,359.764922 C79.4699234,359.497327 77.6932062,358.60223 77.459728,358.485293 C70.8072418,355.153426 66.982841,353.717394 64.2392481,353.717394 C61.4956552,353.717394 57.6712545,355.153426 51.0187683,358.485293 C50.7852901,358.60223 49.0085728,359.497327 48.4717824,359.764922 C41.2506757,363.364712 36.4357506,364.964952 30.5886836,364.964703 C27.66806,365.006078 24.9519414,363.469291 23.4803529,360.943684 C22.0094576,358.419267 22.0094576,355.297562 23.4803529,352.773145 C24.9519414,350.247539 27.66806,348.710751 30.5535338,348.751877 C33.2971267,348.751877 37.1215275,347.315846 43.7740158,343.983977 C46.2670981,342.735331 47.9567337,341.913112 49.5590183,341.196047 L38.3239222,281.171654 Z M149.126134,360.621832 C147.890205,360.028674 147.369009,358.545643 147.962011,357.309388 C148.555012,356.073134 150.037653,355.551801 151.273583,356.144958 C156.72403,358.760783 160.836072,359.999435 165.296391,359.999435 C170.215381,359.999435 174.414479,358.603865 181.000343,355.320749 C181.525706,355.058851 183.296656,354.166659 183.539029,354.045268 C190.913765,350.351665 195.174277,348.751877 198.982105,348.751877 C202.789933,348.751877 207.050446,350.351665 214.425181,354.045268 C214.667555,354.166659 216.438505,355.058851 216.963868,355.320749 C223.549731,358.603865 227.74883,359.999435 232.66782,359.999435 C237.586809,359.999435 241.785908,358.603865 248.371772,355.320749 C248.897134,355.058851 250.668085,354.166659 250.910458,354.045268 C258.285193,350.351665 262.545706,348.751877 266.353534,348.751877 C270.161362,348.751877 274.421874,350.351665 281.79661,354.045268 C282.038983,354.166659 283.809933,355.058851 284.335296,355.320749 C290.92116,358.603865 295.120258,359.999435 300.039248,359.999435 C304.958238,359.999435 309.157336,358.603865 315.7432,355.320749 C316.268563,355.058851 318.039513,354.166659 318.281886,354.045268 C325.656622,350.351665 329.917134,348.751877 333.724962,348.751877 C336.987313,348.751877 340.770887,350.012485 346.2124,352.598337 C347.450599,353.186739 347.977488,354.667757 347.389241,355.906281 C346.800993,357.144806 345.320365,357.671835 344.082167,357.083432 C339.274857,354.798958 336.028662,353.717394 333.724962,353.717394 C330.98137,353.717394 327.156969,355.153426 320.504483,358.485293 C320.271004,358.60223 318.494287,359.497327 317.957497,359.764922 C310.73639,363.364712 305.921465,364.964952 300.039248,364.964952 C294.157031,364.964952 289.342106,363.364712 282.121,359.764922 C281.584209,359.497327 279.807492,358.60223 279.574014,358.485293 C272.921527,355.153426 269.097127,353.717394 266.353534,353.717394 C263.609941,353.717394 259.78554,355.153426 253.133054,358.485293 C252.899576,358.60223 251.122859,359.497327 250.586068,359.764922 C243.364961,363.364712 238.550036,364.964952 232.66782,364.964952 C226.785603,364.964952 221.970678,363.364712 214.749571,359.764922 C214.212781,359.497327 212.436063,358.60223 212.202585,358.485293 C205.550099,355.153426 201.725698,353.717394 198.982105,353.717394 C196.238512,353.717394 192.414112,355.153426 185.761625,358.485293 C185.528147,358.60223 183.75143,359.497327 183.21464,359.764922 C175.993533,363.364712 171.178608,364.964952 165.296391,364.964952 C159.948606,364.964952 155.187117,363.530671 149.126134,360.621832 Z M354.190197,343.983978 C360.842683,347.315846 364.667084,348.751877 367.375527,348.752126 C370.29615,348.710751 373.012269,350.247539 374.483858,352.773145 C375.957752,355.30271 375.951762,358.424469 374.46214,360.980732 C373.254731,363.028017 371.21439,364.4358 368.887816,364.843944 C367.537595,365.08081 366.251058,364.177969 366.014255,362.827393 C365.777451,361.476817 366.680055,360.189941 368.030275,359.953076 C368.929317,359.795359 369.718906,359.250563 370.17988,358.469002 C370.764271,357.466132 370.766596,356.254619 370.194921,355.273485 C369.625084,354.295504 368.574629,353.701154 367.410677,353.717394 C363.602849,353.717394 359.342336,352.117607 351.967603,348.424005 C348.613967,346.744356 346.78125,345.870602 344.646104,344.981018 L342.790945,344.208088 L359.192669,256.580577 L388.671161,191.607643 L385.86226,190.92561 C384.530119,190.60215 383.712351,189.259737 384.035725,187.927244 C384.359099,186.594752 385.70116,185.776769 387.033301,186.100229 L395.669944,188.197304 L363.961502,258.085225 L348.405192,341.196047 C350.007477,341.913112 351.697113,342.735331 354.190197,343.983978 Z M362.912746,180.243482 C364.244887,180.566941 365.062655,181.909355 364.739281,183.241847 C364.415906,184.574339 363.073846,185.392322 361.741704,185.068863 L331.242857,177.663394 L331.242857,78.1522198 L263.871429,78.1522198 L263.871429,65.6444887 C263.871429,64.273299 264.982705,63.1617301 266.353534,63.1617301 C267.724363,63.1617301 268.835639,64.273299 268.835639,65.6444887 L268.835639,73.1867025 L336.207068,73.1867025 L336.207068,173.759038 L362.912746,180.243482 Z M268.835639,33.820249 L268.835639,40.8169025 C268.835639,42.1880922 267.724363,43.2996611 266.353534,43.2996611 C264.982705,43.2996611 263.871429,42.1880922 263.871429,40.8169025 L263.871429,38.7857663 L202.114286,38.7857663 L202.114286,36.3030077 L202.114518,8.15016559 C202.126136,7.30031374 201.793894,6.48216296 201.193868,5.88227827 C200.594545,5.28309696 199.779105,4.95266586 198.933201,4.96590046 C197.56254,4.98734516 196.434019,3.89329657 196.41258,2.52227455 C196.391141,1.15125253 197.484902,0.0224352197 198.855563,0.000990525834 C201.04466,-0.0332590031 203.154146,0.821543002 204.70322,2.37025215 C206.25159,3.91825791 207.108208,6.02769237 207.078496,8.18411231 L207.078496,33.820249 L268.835639,33.820249 Z M142.839248,50.0333244 C141.468419,50.0333244 140.357143,48.9217555 140.357143,47.5505658 C140.357143,46.1793761 141.468419,45.0678072 142.839248,45.0678072 L198.243108,45.0678072 C198.782306,45.1570777 199.127075,45.1570777 199.464984,45.1011331 L257.607068,45.0678072 L257.607068,78.1522198 L255.124962,78.1522198 C253.3959,78.1522198 251.992782,79.5577105 251.992782,81.2932402 C251.992782,83.02877 253.3959,84.4342607 255.124962,84.4342607 L304.030499,84.4342607 C305.401328,84.4342607 306.512605,85.5458296 306.512605,86.9170193 C306.512605,88.288209 305.401328,89.3997779 304.030499,89.3997779 L255.124962,89.3997779 C250.652656,89.3997779 247.028571,85.7695653 247.028571,81.2932402 C247.028571,77.6835719 249.385192,74.6241021 252.642857,73.5747268 L252.642857,50.0333244 L200.055586,50.0333244 C199.325083,50.1337035 198.584299,50.1337035 197.853796,50.0333244 L142.839248,50.0333244 Z M320.014286,93.2738531 C320.014286,91.9026634 321.125562,90.7910945 322.496391,90.7910945 C323.86722,90.7910945 324.978496,91.9026634 324.978496,93.2738531 L324.978496,176.144909 L198.67772,145.471018 C197.663483,145.364651 196.778915,144.63494 196.52452,143.586909 C196.20108,142.254433 197.018781,140.911978 198.350907,140.588453 L198.982105,140.435158 L320.014286,169.829497 L320.014286,93.2738531 Z M174.23064,146.446394 C175.562766,146.122868 176.904867,146.940785 177.228307,148.273261 C177.551747,149.605737 176.734046,150.948192 175.40192,151.271717 L72.9857143,176.144909 L72.9857143,84.4342607 L94.0274759,84.4342607 C95.3983048,84.4342607 96.5095812,85.5458296 96.5095812,86.9170193 C96.5095812,88.288209 95.3983048,89.3997779 94.0274759,89.3997779 L77.9499248,89.3997779 L77.9499248,169.829497 L174.23064,146.446394 Z M150.935639,81.2932402 C150.935639,85.7695653 147.311555,89.3997779 142.839248,89.3997779 L118.848529,89.3997779 C117.4777,89.3997779 116.366423,88.288209 116.366423,86.9170193 C116.366423,85.5458296 117.4777,84.4342607 118.848529,84.4342607 L142.839248,84.4342607 C144.56831,84.4342607 145.971429,83.02877 145.971429,81.2932402 C145.971429,79.5577105 144.56831,78.1522198 142.839248,78.1522198 L140.357143,78.1522198 L140.357143,47.5505658 C140.357143,46.1793761 141.468419,45.0678072 142.839248,45.0678072 C144.210077,45.0678072 145.321353,46.1793761 145.321353,47.5505658 L145.321353,73.5747268 C148.579018,74.6241021 150.935639,77.6835719 150.935639,81.2932402 Z M165.296391,78.1522198 C163.567329,78.1522198 162.164211,79.5577105 162.164211,81.2932402 C162.164211,83.02877 163.567329,84.4342607 165.296391,84.4342607 C167.025453,84.4342607 168.428571,83.02877 168.428571,81.2932402 C168.428571,79.5577105 167.025453,78.1522198 165.296391,78.1522198 Z M165.296391,73.1867025 C169.768697,73.1867025 173.392782,76.8169152 173.392782,81.2932402 C173.392782,85.7695653 169.768697,89.3997779 165.296391,89.3997779 C160.824085,89.3997779 157.2,85.7695653 157.2,81.2932402 C157.2,76.8169152 160.824085,73.1867025 165.296391,73.1867025 Z M187.753534,78.1522198 C186.024471,78.1522198 184.621353,79.5577105 184.621353,81.2932402 C184.621353,83.02877 186.024471,84.4342607 187.753534,84.4342607 C189.482596,84.4342607 190.885714,83.02877 190.885714,81.2932402 C190.885714,79.5577105 189.482596,78.1522198 187.753534,78.1522198 Z M187.753534,73.1867025 C192.22584,73.1867025 195.849925,76.8169152 195.849925,81.2932402 C195.849925,85.7695653 192.22584,89.3997779 187.753534,89.3997779 C183.281227,89.3997779 179.657143,85.7695653 179.657143,81.2932402 C179.657143,76.8169152 183.281227,73.1867025 187.753534,73.1867025 Z M210.210677,78.1522198 C208.481614,78.1522198 207.078496,79.5577105 207.078496,81.2932402 C207.078496,83.02877 208.481614,84.4342607 210.210677,84.4342607 C211.939739,84.4342607 213.342857,83.02877 213.342857,81.2932402 C213.342857,79.5577105 211.939739,78.1522198 210.210677,78.1522198 Z M210.210677,73.1867025 C214.682983,73.1867025 218.307068,76.8169152 218.307068,81.2932402 C218.307068,85.7695653 214.682983,89.3997779 210.210677,89.3997779 C205.73837,89.3997779 202.114286,85.7695653 202.114286,81.2932402 C202.114286,76.8169152 205.73837,73.1867025 210.210677,73.1867025 Z M232.66782,78.1522198 C230.938757,78.1522198 229.535639,79.5577105 229.535639,81.2932402 C229.535639,83.02877 230.938757,84.4342607 232.66782,84.4342607 C234.396882,84.4342607 235.8,83.02877 235.8,81.2932402 C235.8,79.5577105 234.396882,78.1522198 232.66782,78.1522198 Z M232.66782,73.1867025 C237.140126,73.1867025 240.764211,76.8169152 240.764211,81.2932402 C240.764211,85.7695653 237.140126,89.3997779 232.66782,89.3997779 C228.195513,89.3997779 224.571429,85.7695653 224.571429,81.2932402 C224.571429,76.8169152 228.195513,73.1867025 232.66782,73.1867025 Z M97.9249624,117.518673 C96.1959,117.518673 94.792782,118.924164 94.792782,120.659694 C94.792782,122.395224 96.1959,123.800714 97.9249624,123.800714 C99.6540248,123.800714 101.057143,122.395224 101.057143,120.659694 C101.057143,118.924164 99.6540248,117.518673 97.9249624,117.518673 Z M97.9249624,112.553156 C102.397269,112.553156 106.021353,116.183369 106.021353,120.659694 C106.021353,125.136019 102.397269,128.766231 97.9249624,128.766231 C93.452656,128.766231 89.8285714,125.136019 89.8285714,120.659694 C89.8285714,116.183369 93.452656,112.553156 97.9249624,112.553156 Z M120.382105,117.518673 C118.653043,117.518673 117.249925,118.924164 117.249925,120.659694 C117.249925,122.395224 118.653043,123.800714 120.382105,123.800714 C122.111168,123.800714 123.514286,122.395224 123.514286,120.659694 C123.514286,118.924164 122.111168,117.518673 120.382105,117.518673 Z M120.382105,112.553156 C124.854412,112.553156 128.478496,116.183369 128.478496,120.659694 C128.478496,125.136019 124.854412,128.766231 120.382105,128.766231 C115.909799,128.766231 112.285714,125.136019 112.285714,120.659694 C112.285714,116.183369 115.909799,112.553156 120.382105,112.553156 Z M142.839248,117.518673 C141.110186,117.518673 139.707068,118.924164 139.707068,120.659694 C139.707068,122.395224 141.110186,123.800714 142.839248,123.800714 C144.56831,123.800714 145.971429,122.395224 145.971429,120.659694 C145.971429,118.924164 144.56831,117.518673 142.839248,117.518673 Z M142.839248,112.553156 C147.311555,112.553156 150.935639,116.183369 150.935639,120.659694 C150.935639,125.136019 147.311555,128.766231 142.839248,128.766231 C138.366942,128.766231 134.742857,125.136019 134.742857,120.659694 C134.742857,116.183369 138.366942,112.553156 142.839248,112.553156 Z M165.296391,117.518673 C163.567329,117.518673 162.164211,118.924164 162.164211,120.659694 C162.164211,122.395224 163.567329,123.800714 165.296391,123.800714 C167.025453,123.800714 168.428571,122.395224 168.428571,120.659694 C168.428571,118.924164 167.025453,117.518673 165.296391,117.518673 Z M165.296391,112.553156 C169.768697,112.553156 173.392782,116.183369 173.392782,120.659694 C173.392782,125.136019 169.768697,128.766231 165.296391,128.766231 C160.824085,128.766231 157.2,125.136019 157.2,120.659694 C157.2,116.183369 160.824085,112.553156 165.296391,112.553156 Z M187.753534,117.518673 C186.024471,117.518673 184.621353,118.924164 184.621353,120.659694 C184.621353,122.395224 186.024471,123.800714 187.753534,123.800714 C189.482596,123.800714 190.885714,122.395224 190.885714,120.659694 C190.885714,118.924164 189.482596,117.518673 187.753534,117.518673 Z M187.753534,112.553156 C192.22584,112.553156 195.849925,116.183369 195.849925,120.659694 C195.849925,125.136019 192.22584,128.766231 187.753534,128.766231 C183.281227,128.766231 179.657143,125.136019 179.657143,120.659694 C179.657143,116.183369 183.281227,112.553156 187.753534,112.553156 Z M210.210677,117.518673 C208.481614,117.518673 207.078496,118.924164 207.078496,120.659694 C207.078496,122.395224 208.481614,123.800714 210.210677,123.800714 C211.939739,123.800714 213.342857,122.395224 213.342857,120.659694 C213.342857,118.924164 211.939739,117.518673 210.210677,117.518673 Z M210.210677,112.553156 C214.682983,112.553156 218.307068,116.183369 218.307068,120.659694 C218.307068,125.136019 214.682983,128.766231 210.210677,128.766231 C205.73837,128.766231 202.114286,125.136019 202.114286,120.659694 C202.114286,116.183369 205.73837,112.553156 210.210677,112.553156 Z M232.66782,117.518673 C230.938757,117.518673 229.535639,118.924164 229.535639,120.659694 C229.535639,122.395224 230.938757,123.800714 232.66782,123.800714 C234.396882,123.800714 235.8,122.395224 235.8,120.659694 C235.8,118.924164 234.396882,117.518673 232.66782,117.518673 Z M232.66782,112.553156 C237.140126,112.553156 240.764211,116.183369 240.764211,120.659694 C240.764211,125.136019 237.140126,128.766231 232.66782,128.766231 C228.195513,128.766231 224.571429,125.136019 224.571429,120.659694 C224.571429,116.183369 228.195513,112.553156 232.66782,112.553156 Z M255.124962,117.518673 C253.3959,117.518673 251.992782,118.924164 251.992782,120.659694 C251.992782,122.395224 253.3959,123.800714 255.124962,123.800714 C256.854025,123.800714 258.257143,122.395224 258.257143,120.659694 C258.257143,118.924164 256.854025,117.518673 255.124962,117.518673 Z M255.124962,112.553156 C259.597269,112.553156 263.221353,116.183369 263.221353,120.659694 C263.221353,125.136019 259.597269,128.766231 255.124962,128.766231 C250.652656,128.766231 247.028571,125.136019 247.028571,120.659694 C247.028571,116.183369 250.652656,112.553156 255.124962,112.553156 Z M277.582105,117.518673 C275.853043,117.518673 274.449925,118.924164 274.449925,120.659694 C274.449925,122.395224 275.853043,123.800714 277.582105,123.800714 C279.311168,123.800714 280.714286,122.395224 280.714286,120.659694 C280.714286,118.924164 279.311168,117.518673 277.582105,117.518673 Z M277.582105,112.553156 C282.054412,112.553156 285.678496,116.183369 285.678496,120.659694 C285.678496,125.136019 282.054412,128.766231 277.582105,128.766231 C273.109799,128.766231 269.485714,125.136019 269.485714,120.659694 C269.485714,116.183369 273.109799,112.553156 277.582105,112.553156 Z M300.039248,117.518673 C298.310186,117.518673 296.907068,118.924164 296.907068,120.659694 C296.907068,122.395224 298.310186,123.800714 300.039248,123.800714 C301.76831,123.800714 303.171429,122.395224 303.171429,120.659694 C303.171429,118.924164 301.76831,117.518673 300.039248,117.518673 Z M300.039248,112.553156 C304.511555,112.553156 308.135639,116.183369 308.135639,120.659694 C308.135639,125.136019 304.511555,128.766231 300.039248,128.766231 C295.566942,128.766231 291.942857,125.136019 291.942857,120.659694 C291.942857,116.183369 295.566942,112.553156 300.039248,112.553156 Z M198.396529,156.979805 C197.064395,156.656315 196.246658,155.313882 196.570063,153.981397 C196.893468,152.648913 198.235548,151.830961 199.567682,152.154451 L379.836277,195.930162 L368.536566,220.826701 C367.969892,222.075249 366.49863,222.627896 365.25041,222.061073 C364.002191,221.494249 363.449689,220.022599 364.016364,218.774051 L372.836753,199.340177 L198.396529,156.979805 Z M348.402743,253.175383 L353.755815,241.381014 C354.32249,240.132466 355.793752,239.579819 357.041971,240.146642 C358.290191,240.713466 358.842692,242.185116 358.276018,243.433664 L353.171506,254.680382 L336.713399,342.605402 L334.572457,342.522918 C334.419538,342.517027 334.306063,342.509197 334.08644,342.491664 C328.805973,342.469836 324.606874,343.865406 318.02101,347.148522 C317.495648,347.41042 315.724697,348.302612 315.482324,348.424004 C308.107589,352.117607 303.847076,353.717394 300.039248,353.717394 C296.23142,353.717394 291.970908,352.117607 284.596172,348.424004 C284.353799,348.302612 282.582848,347.41042 282.057486,347.148522 C275.471622,343.865406 271.272524,342.469836 266.353534,342.469836 C261.434544,342.469836 257.235446,343.865406 250.649582,347.148522 C250.124219,347.41042 248.353269,348.302612 248.110896,348.424004 C241.98295,351.493157 238.201705,353.026787 234.795506,353.546566 C233.440356,353.75336 232.174195,352.822144 231.967456,351.466637 C231.760717,350.111131 232.691688,348.844637 234.046838,348.637843 C236.769578,348.222358 240.22014,346.82285 245.888299,343.983978 C246.121778,343.867042 247.898495,342.971945 248.435285,342.704349 C255.656392,339.104559 260.471317,337.504319 266.353534,337.504319 C272.235751,337.504319 277.050676,339.104559 284.271782,342.704349 C284.808573,342.971945 286.58529,343.867042 286.818768,343.983978 C293.471254,347.315846 297.295655,348.751877 300.039248,348.751877 C302.782841,348.751877 306.607242,347.315846 313.259728,343.983978 C313.493206,343.867042 315.269923,342.971945 315.806714,342.704349 C322.568312,339.333628 327.220216,337.716075 332.614105,337.523861 L348.402743,253.175383 Z M82.1574967,342.704349 C82.6942871,342.971945 84.4710043,343.867042 84.7044826,343.983978 C91.3569688,347.315846 95.1813695,348.751877 97.9249624,348.751877 C100.668555,348.751877 104.492956,347.315846 111.145442,343.983978 C111.37892,343.867042 113.155638,342.971945 113.692428,342.704349 C120.913535,339.104559 125.72846,337.504319 131.610677,337.504319 C137.492893,337.504319 142.307819,339.104559 149.528925,342.704349 C150.065716,342.971945 151.842433,343.867042 152.075911,343.983978 C158.728397,347.315846 162.552798,348.751877 165.296391,348.751877 C168.039984,348.751877 171.864385,347.315846 178.516871,343.983978 C178.750349,343.867042 180.527066,342.971945 181.063857,342.704349 C188.284963,339.104559 193.099889,337.504319 198.982105,337.504319 C203.424564,337.504319 207.631058,338.552347 212.312511,340.553336 C213.573074,341.092137 214.158292,342.551078 213.619633,343.811973 C213.080973,345.072867 211.622416,345.658239 210.361853,345.119438 C206.248444,343.361247 202.670565,342.469836 198.982105,342.469836 C194.063116,342.469836 189.864017,343.865406 183.278153,347.148522 C182.752791,347.41042 180.98184,348.302612 180.739467,348.424004 C173.364732,352.117607 169.104219,353.717394 165.296391,353.717394 C161.488563,353.717394 157.22805,352.117607 149.853315,348.424004 C149.610942,348.302612 147.839991,347.41042 147.314629,347.148522 C140.728765,343.865406 136.529666,342.469836 131.610677,342.469836 C126.691687,342.469836 122.492588,343.865406 115.906725,347.148522 C115.381362,347.41042 113.610412,348.302612 113.368039,348.424004 C105.993303,352.117607 101.73279,353.717394 97.9249624,353.717394 C94.1171345,353.717394 89.8566218,352.117607 82.4818862,348.424004 C82.2395131,348.302612 80.4685628,347.41042 79.9432001,347.148522 C73.3573364,343.865406 69.1582378,342.469836 64.2392481,342.469836 C63.6581473,342.509197 63.5446723,342.517027 63.3917532,342.522918 L61.2508116,342.605402 L51.6704746,291.423859 C51.4181945,290.07609 52.3059765,288.778939 53.6533913,288.526593 C55.0008061,288.274246 56.297615,289.162262 56.5498951,290.510032 L65.3501054,337.523861 C70.7439944,337.716075 75.3958981,339.333628 82.1574967,342.704349 Z M49.5614672,253.175383 L51.9819595,266.106507 C52.2342396,267.454276 51.3464576,268.751427 49.9990428,269.003773 C48.6516281,269.25612 47.3548191,268.368104 47.102539,267.020335 L44.7927043,254.680382 L18.1279342,195.930162 L149.495352,164.029419 C150.827486,163.705929 152.169566,164.52388 152.492971,165.856365 C152.816376,167.18885 151.99864,168.531283 150.666506,168.854773 L25.1274588,199.340177 L49.5614672,253.175383 Z M174.786926,162.997466 C173.454792,163.320956 172.112712,162.503004 171.789307,161.170519 C171.465902,159.838035 172.283638,158.495602 173.615772,158.172112 L198.396529,152.154451 C199.728663,151.830961 201.070742,152.648913 201.394147,153.981397 C201.717552,155.313882 200.899816,156.656315 199.567682,156.979805 L174.786926,162.997466 Z M198.982105,168.132685 C197.253043,168.132685 195.849925,169.538176 195.849925,171.273705 C195.849925,173.009235 197.253043,174.414726 198.982105,174.414726 C200.711168,174.414726 202.114286,173.009235 202.114286,171.273705 C202.114286,169.538176 200.711168,168.132685 198.982105,168.132685 Z M198.982105,163.167168 C203.454412,163.167168 207.078496,166.79738 207.078496,171.273705 C207.078496,175.75003 203.454412,179.380243 198.982105,179.380243 C194.509799,179.380243 190.885714,175.75003 190.885714,171.273705 C190.885714,166.79738 194.509799,163.167168 198.982105,163.167168 Z M198.982105,190.627801 C197.253043,190.627801 195.849925,192.033292 195.849925,193.768822 C195.849925,195.504351 197.253043,196.909842 198.982105,196.909842 C200.711168,196.909842 202.114286,195.504351 202.114286,193.768822 C202.114286,192.033292 200.711168,190.627801 198.982105,190.627801 Z M198.982105,185.662284 C203.454412,185.662284 207.078496,189.292497 207.078496,193.768822 C207.078496,198.245147 203.454412,201.875359 198.982105,201.875359 C194.509799,201.875359 190.885714,198.245147 190.885714,193.768822 C190.885714,189.292497 194.509799,185.662284 198.982105,185.662284 Z M100.40682,233.100216 C100.448083,236.022772 98.9149041,238.741684 96.3934934,240.2158 C93.8708928,241.690612 90.7504606,241.690612 88.22786,240.2158 C85.7064493,238.741684 84.1732707,236.022772 84.2142857,233.135275 L84.2142857,220.657515 C84.2142857,214.395158 88.5204754,208.868277 94.5917705,207.342033 L105.820338,204.530144 C106.877199,204.26548 107.949053,204.130155 109.012974,204.126309 C116.485502,204.099291 122.864211,210.283958 122.864211,217.845626 L122.863963,227.476437 C122.905225,230.398993 121.372047,233.117905 118.850636,234.592021 C116.328036,236.066833 113.207603,236.066833 110.685003,234.592021 C108.163592,233.117905 106.630414,230.398993 106.671429,227.511496 L106.671429,221.026585 L100.407029,222.595333 L100.40682,233.100216 Z M107.025957,209.346998 L95.7995694,212.15834 C91.93798,213.129093 89.1784962,216.670818 89.1784962,220.657515 L89.1782488,233.170334 C89.1622422,234.304051 89.7566038,235.358082 90.7328657,235.928843 C91.7079376,236.498909 92.9134158,236.498909 93.8884877,235.928843 C94.8647496,235.358082 95.4591111,234.304051 95.4428571,233.135275 L95.4428571,218.719707 L111.635639,214.664666 L111.635639,217.845626 L111.635392,227.546555 C111.619385,228.680272 112.213747,229.734303 113.190009,230.305064 C114.16508,230.87513 115.370559,230.87513 116.345631,230.305064 C117.321892,229.734303 117.916254,228.680272 117.9,227.511496 L117.9,217.845626 C117.9,213.064459 113.784966,209.074605 109.030918,209.091793 C108.369268,209.094186 107.696119,209.179173 107.025957,209.346998 Z M291.292534,227.476437 C291.333797,230.398993 289.800618,233.117905 287.279208,234.592021 C284.756607,236.066833 281.636175,236.066833 279.113574,234.592021 C276.592164,233.117905 275.058985,230.398993 275.1,227.511496 L275.1,217.845626 C275.1,210.28396 281.478712,204.099291 288.951236,204.126309 C290.015158,204.130155 291.087011,204.26548 292.143869,204.530143 L303.374624,207.342581 C309.443735,208.868277 313.749925,214.395158 313.749925,220.657515 L313.749677,233.100216 C313.79094,236.022772 312.257761,238.741684 309.736351,240.2158 C307.21375,241.690612 304.093318,241.690612 301.570717,240.2158 C299.049306,238.741684 297.516128,236.022772 297.557143,233.135275 L297.557143,222.595324 L291.2927,221.026565 L291.292534,227.476437 Z M280.064211,217.845626 L280.063963,227.546555 C280.047957,228.680272 280.642318,229.734303 281.61858,230.305064 C282.593652,230.87513 283.79913,230.87513 284.774202,230.305064 C285.750464,229.734303 286.344825,228.680272 286.328571,227.511496 L286.328571,214.664666 L302.521353,218.719707 L302.521353,220.657515 L302.521106,233.170334 C302.505099,234.304051 303.099461,235.358082 304.075723,235.928843 C305.050795,236.498909 306.256273,236.498909 307.231345,235.928843 C308.207607,235.358082 308.801968,234.304051 308.785714,233.135275 L308.785714,220.657515 C308.785714,216.670818 306.026231,213.129093 302.166825,212.158887 L290.93825,209.346997 C290.268091,209.179173 289.594942,209.094186 288.933292,209.091793 C284.179248,209.074605 280.064211,213.064461 280.064211,217.845626 Z M198.982105,213.122918 C197.253043,213.122918 195.849925,214.528408 195.849925,216.263938 C195.849925,217.999468 197.253043,219.404958 198.982105,219.404958 C200.711168,219.404958 202.114286,217.999468 202.114286,216.263938 C202.114286,214.528408 200.711168,213.122918 198.982105,213.122918 Z M198.982105,208.1574 C203.454412,208.1574 207.078496,211.787613 207.078496,216.263938 C207.078496,220.740263 203.454412,224.370476 198.982105,224.370476 C194.509799,224.370476 190.885714,220.740263 190.885714,216.263938 C190.885714,211.787613 194.509799,208.1574 198.982105,208.1574 Z M198.982105,235.618034 C197.253043,235.618034 195.849925,237.023524 195.849925,238.759054 C195.849925,240.494584 197.253043,241.900075 198.982105,241.900075 C200.711168,241.900075 202.114286,240.494584 202.114286,238.759054 C202.114286,237.023524 200.711168,235.618034 198.982105,235.618034 Z M198.982105,230.652517 C203.454412,230.652517 207.078496,234.282729 207.078496,238.759054 C207.078496,243.235379 203.454412,246.865592 198.982105,246.865592 C194.509799,246.865592 190.885714,243.235379 190.885714,238.759054 C190.885714,234.282729 194.509799,230.652517 198.982105,230.652517 Z M198.982105,258.11315 C197.253043,258.11315 195.849925,259.518641 195.849925,261.254171 C195.849925,262.9897 197.253043,264.395191 198.982105,264.395191 C200.711168,264.395191 202.114286,262.9897 202.114286,261.254171 C202.114286,259.518641 200.711168,258.11315 198.982105,258.11315 Z M198.982105,253.147633 C203.454412,253.147633 207.078496,256.777845 207.078496,261.254171 C207.078496,265.730496 203.454412,269.360708 198.982105,269.360708 C194.509799,269.360708 190.885714,265.730496 190.885714,261.254171 C190.885714,256.777845 194.509799,253.147633 198.982105,253.147633 Z M198.982105,280.608266 C197.253043,280.608266 195.849925,282.013757 195.849925,283.749287 C195.849925,285.484817 197.253043,286.890307 198.982105,286.890307 C200.711168,286.890307 202.114286,285.484817 202.114286,283.749287 C202.114286,282.013757 200.711168,280.608266 198.982105,280.608266 Z M198.982105,275.642749 C203.454412,275.642749 207.078496,279.272962 207.078496,283.749287 C207.078496,288.225612 203.454412,291.855825 198.982105,291.855825 C194.509799,291.855825 190.885714,288.225612 190.885714,283.749287 C190.885714,279.272962 194.509799,275.642749 198.982105,275.642749 Z M198.982105,303.103383 C197.253043,303.103383 195.849925,304.508873 195.849925,306.244403 C195.849925,307.979933 197.253043,309.385424 198.982105,309.385424 C200.711168,309.385424 202.114286,307.979933 202.114286,306.244403 C202.114286,304.508873 200.711168,303.103383 198.982105,303.103383 Z M198.982105,298.137865 C203.454412,298.137865 207.078496,301.768078 207.078496,306.244403 C207.078496,310.720728 203.454412,314.350941 198.982105,314.350941 C194.509799,314.350941 190.885714,310.720728 190.885714,306.244403 C190.885714,301.768078 194.509799,298.137865 198.982105,298.137865 Z M198.982105,325.598499 C197.253043,325.598499 195.849925,327.00399 195.849925,328.739519 C195.849925,330.475049 197.253043,331.88054 198.982105,331.88054 C200.711168,331.88054 202.114286,330.475049 202.114286,328.739519 C202.114286,327.00399 200.711168,325.598499 198.982105,325.598499 Z M198.982105,320.632982 C203.454412,320.632982 207.078496,324.263194 207.078496,328.739519 C207.078496,333.215844 203.454412,336.846057 198.982105,336.846057 C194.509799,336.846057 190.885714,333.215844 190.885714,328.739519 C190.885714,324.263194 194.509799,320.632982 198.982105,320.632982 Z M8.09639098,353.717394 C6.36732862,353.717394 4.96421053,355.122885 4.96421053,356.858415 C4.96421053,358.593945 6.36732862,359.999435 8.09639098,359.999435 C9.82545334,359.999435 11.2285714,358.593945 11.2285714,356.858415 C11.2285714,355.122885 9.82545334,353.717394 8.09639098,353.717394 Z M8.09639098,348.751877 C12.5686974,348.751877 16.192782,352.38209 16.192782,356.858415 C16.192782,361.33474 12.5686974,364.964952 8.09639098,364.964952 C3.62408458,364.964952 0,361.33474 0,356.858415 C0,352.38209 3.62408458,348.751877 8.09639098,348.751877 Z M389.86782,353.717394 C388.138757,353.717394 386.735639,355.122885 386.735639,356.858415 C386.735639,358.593945 388.138757,359.999435 389.86782,359.999435 C391.596882,359.999435 393,358.593945 393,356.858415 C393,355.122885 391.596882,353.717394 389.86782,353.717394 Z M389.86782,348.751877 C394.340126,348.751877 397.964211,352.38209 397.964211,356.858415 C397.964211,361.33474 394.340126,364.964952 389.86782,364.964952 C385.395513,364.964952 381.771429,361.33474 381.771429,356.858415 C381.771429,352.38209 385.395513,348.751877 389.86782,348.751877 Z" id="Combined-Shape" fill-rule="nonzero"></path>
                    </g>
                </g>
            </g>
        </g>
    </g>
</svg>