<?xml version="1.0" encoding="UTF-8"?>
<svg width="176px" height="120px" viewBox="0 0 176 120" version="1.1" xmlns="http://www.w3.org/2000/svg" xmlns:xlink="http://www.w3.org/1999/xlink">
    <!-- Generator: Sketch 50.2 (55047) - http://www.bohemiancoding.com/sketch -->
    <title>Linki płatnicze - vector</title>
    <desc>Created with Sketch.</desc>
    <defs>
        <linearGradient x1="100%" y1="100%" x2="0%" y2="0%" id="linearGradient-1">
            <stop stop-color="#00A3FC" offset="0%"></stop>
            <stop stop-color="#0F76B2" offset="100%"></stop>
        </linearGradient>
    </defs>
    <g id="Oferta-UX---New---Cartesian-18/12/14" stroke="none" stroke-width="1" fill="none" fill-rule="evenodd">
        <g id="Desktop-HD" transform="translate(-392.000000, -2365.000000)" fill="url(#linearGradient-1)" fill-rule="nonzero">
            <g id="komfortowe" transform="translate(-185.000000, 1849.000000)">
                <g id="Group-15" transform="translate(577.000000, 516.000000)">
                    <g id="Item">
                        <g id="Linki-płatnicze---vector">
                            <path d="M17.0140845,1.6 C8.5011207,1.6 1.6,8.5969696 1.6,17.228169 L1.6,102.771831 C1.6,111.40303 8.5011207,118.4 17.0140845,118.4 L158.985915,118.4 C167.498879,118.4 174.4,111.40303 174.4,102.771831 L174.4,17.228169 C174.4,8.5969696 167.498879,1.6 158.985915,1.6 L17.0140845,1.6 Z M17.0322581,0 L158.967742,0 C168.374398,-2.00752657e-15 176,7.72768788 176,17.260274 L176,102.739726 C176,112.272312 168.374398,120 158.967742,120 L17.0322581,120 C7.62560168,120 1.08054886e-15,112.272312 0,102.739726 L0,17.260274 C-1.08054886e-15,7.72768788 7.62560168,1.82502415e-15 17.0322581,0 Z M0.8,23.2 L0.8,21.6 L175.2,21.6 L175.2,23.2 L0.8,23.2 Z M49.6,0.8 L51.2,0.8 L51.2,22.4 L49.6,22.4 L49.6,0.8 Z M40.4,14.4 C41.5045695,14.4 42.4,13.5045695 42.4,12.4 C42.4,11.2954305 41.5045695,10.4 40.4,10.4 C39.2954305,10.4 38.4,11.2954305 38.4,12.4 C38.4,13.5045695 39.2954305,14.4 40.4,14.4 Z M40.4,16 C38.4117749,16 36.8,14.3882251 36.8,12.4 C36.8,10.4117749 38.4117749,8.8 40.4,8.8 C42.3882251,8.8 44,10.4117749 44,12.4 C44,14.3882251 42.3882251,16 40.4,16 Z M26,14.4 C27.1045695,14.4 28,13.5045695 28,12.4 C28,11.2954305 27.1045695,10.4 26,10.4 C24.8954305,10.4 24,11.2954305 24,12.4 C24,13.5045695 24.8954305,14.4 26,14.4 Z M26,16 C24.0117749,16 22.4,14.3882251 22.4,12.4 C22.4,10.4117749 24.0117749,8.8 26,8.8 C27.9882251,8.8 29.6,10.4117749 29.6,12.4 C29.6,14.3882251 27.9882251,16 26,16 Z M12.4,14.4 C13.5045695,14.4 14.4,13.5045695 14.4,12.4 C14.4,11.2954305 13.5045695,10.4 12.4,10.4 C11.2954305,10.4 10.4,11.2954305 10.4,12.4 C10.4,13.5045695 11.2954305,14.4 12.4,14.4 Z M12.4,16 C10.4117749,16 8.8,14.3882251 8.8,12.4 C8.8,10.4117749 10.4117749,8.8 12.4,8.8 C14.3882251,8.8 16,10.4117749 16,12.4 C16,14.3882251 14.3882251,16 12.4,16 Z M37.6,43.2 C37.1581722,43.2 36.8,42.8418278 36.8,42.4 C36.8,41.9581722 37.1581722,41.6 37.6,41.6 L45.6,41.6 C46.0418278,41.6 46.4,41.9581722 46.4,42.4 C46.4,42.8418278 46.0418278,43.2 45.6,43.2 L37.6,43.2 Z M49.6,43.2 C49.1581722,43.2 48.8,42.8418278 48.8,42.4 C48.8,41.9581722 49.1581722,41.6 49.6,41.6 L73.6,41.6 C74.0418278,41.6 74.4,41.9581722 74.4,42.4 C74.4,42.8418278 74.0418278,43.2 73.6,43.2 L49.6,43.2 Z M77.6,43.2 C77.1581722,43.2 76.8,42.8418278 76.8,42.4 C76.8,41.9581722 77.1581722,41.6 77.6,41.6 L85.6,41.6 C86.0418278,41.6 86.4,41.9581722 86.4,42.4 C86.4,42.8418278 86.0418278,43.2 85.6,43.2 L77.6,43.2 Z M90.4,43.2 C89.9581722,43.2 89.6,42.8418278 89.6,42.4 C89.6,41.9581722 89.9581722,41.6 90.4,41.6 L114.4,41.6 C114.841828,41.6 115.2,41.9581722 115.2,42.4 C115.2,42.8418278 114.841828,43.2 114.4,43.2 L90.4,43.2 Z M118.4,43.2 C117.958172,43.2 117.6,42.8418278 117.6,42.4 C117.6,41.9581722 117.958172,41.6 118.4,41.6 L126.4,41.6 C126.841828,41.6 127.2,41.9581722 127.2,42.4 C127.2,42.8418278 126.841828,43.2 126.4,43.2 L118.4,43.2 Z M130.4,43.2 C129.958172,43.2 129.6,42.8418278 129.6,42.4 C129.6,41.9581722 129.958172,41.6 130.4,41.6 L154.4,41.6 C154.841828,41.6 155.2,41.9581722 155.2,42.4 C155.2,42.8418278 154.841828,43.2 154.4,43.2 L130.4,43.2 Z M159.2,43.2 C158.758172,43.2 158.4,42.8418278 158.4,42.4 C158.4,41.9581722 158.758172,41.6 159.2,41.6 L167.2,41.6 C167.641828,41.6 168,41.9581722 168,42.4 C168,42.8418278 167.641828,43.2 167.2,43.2 L159.2,43.2 Z M163.2,41.6 C163.641828,41.6 164,41.9581722 164,42.4 C164,42.8418278 163.641828,43.2 163.2,43.2 L139.2,43.2 C138.758172,43.2 138.4,42.8418278 138.4,42.4 C138.4,41.9581722 138.758172,41.6 139.2,41.6 L163.2,41.6 Z M134.4,41.6 C134.841828,41.6 135.2,41.9581722 135.2,42.4 C135.2,42.8418278 134.841828,43.2 134.4,43.2 L126.4,43.2 C125.958172,43.2 125.6,42.8418278 125.6,42.4 C125.6,41.9581722 125.958172,41.6 126.4,41.6 L134.4,41.6 Z M122.4,41.6 C122.841828,41.6 123.2,41.9581722 123.2,42.4 C123.2,42.8418278 122.841828,43.2 122.4,43.2 L98.4,43.2 C97.9581722,43.2 97.6,42.8418278 97.6,42.4 C97.6,41.9581722 97.9581722,41.6 98.4,41.6 L122.4,41.6 Z M94.4,41.6 C94.8418278,41.6 95.2,41.9581722 95.2,42.4 C95.2,42.8418278 94.8418278,43.2 94.4,43.2 L86.4,43.2 C85.9581722,43.2 85.6,42.8418278 85.6,42.4 C85.6,41.9581722 85.9581722,41.6 86.4,41.6 L94.4,41.6 Z M81.6,41.6 C82.0418278,41.6 82.4,41.9581722 82.4,42.4 C82.4,42.8418278 82.0418278,43.2 81.6,43.2 L57.6,43.2 C57.1581722,43.2 56.8,42.8418278 56.8,42.4 C56.8,41.9581722 57.1581722,41.6 57.6,41.6 L81.6,41.6 Z M53.6,41.6 C54.0418278,41.6 54.4,41.9581722 54.4,42.4 C54.4,42.8418278 54.0418278,43.2 53.6,43.2 L45.6,43.2 C45.1581722,43.2 44.8,42.8418278 44.8,42.4 C44.8,41.9581722 45.1581722,41.6 45.6,41.6 L53.6,41.6 Z M41.6,41.6 C42.0418278,41.6 42.4,41.9581722 42.4,42.4 C42.4,42.8418278 42.0418278,43.2 41.6,43.2 L17.6,43.2 C17.1581722,43.2 16.8,42.8418278 16.8,42.4 C16.8,41.9581722 17.1581722,41.6 17.6,41.6 L41.6,41.6 Z M8.8,34.4 C8.3581722,34.4 8,34.0418278 8,33.6 C8,33.1581722 8.3581722,32.8 8.8,32.8 L32.8,32.8 C33.2418278,32.8 33.6,33.1581722 33.6,33.6 C33.6,34.0418278 33.2418278,34.4 32.8,34.4 L8.8,34.4 Z M37.6,34.4 C37.1581722,34.4 36.8,34.0418278 36.8,33.6 C36.8,33.1581722 37.1581722,32.8 37.6,32.8 L45.6,32.8 C46.0418278,32.8 46.4,33.1581722 46.4,33.6 C46.4,34.0418278 46.0418278,34.4 45.6,34.4 L37.6,34.4 Z M49.6,34.4 C49.1581722,34.4 48.8,34.0418278 48.8,33.6 C48.8,33.1581722 49.1581722,32.8 49.6,32.8 L73.6,32.8 C74.0418278,32.8 74.4,33.1581722 74.4,33.6 C74.4,34.0418278 74.0418278,34.4 73.6,34.4 L49.6,34.4 Z M77.6,34.4 C77.1581722,34.4 76.8,34.0418278 76.8,33.6 C76.8,33.1581722 77.1581722,32.8 77.6,32.8 L85.6,32.8 C86.0418278,32.8 86.4,33.1581722 86.4,33.6 C86.4,34.0418278 86.0418278,34.4 85.6,34.4 L77.6,34.4 Z M89.6,34.4 C89.1581722,34.4 88.8,34.0418278 88.8,33.6 C88.8,33.1581722 89.1581722,32.8 89.6,32.8 L113.6,32.8 C114.041828,32.8 114.4,33.1581722 114.4,33.6 C114.4,34.0418278 114.041828,34.4 113.6,34.4 L89.6,34.4 Z M118.4,34.4 C117.958172,34.4 117.6,34.0418278 117.6,33.6 C117.6,33.1581722 117.958172,32.8 118.4,32.8 L126.4,32.8 C126.841828,32.8 127.2,33.1581722 127.2,33.6 C127.2,34.0418278 126.841828,34.4 126.4,34.4 L118.4,34.4 Z M130.4,34.4 C129.958172,34.4 129.6,34.0418278 129.6,33.6 C129.6,33.1581722 129.958172,32.8 130.4,32.8 L154.4,32.8 C154.841828,32.8 155.2,33.1581722 155.2,33.6 C155.2,34.0418278 154.841828,34.4 154.4,34.4 L130.4,34.4 Z M159.2,34.4 C158.758172,34.4 158.4,34.0418278 158.4,33.6 C158.4,33.1581722 158.758172,32.8 159.2,32.8 L167.2,32.8 C167.641828,32.8 168,33.1581722 168,33.6 C168,34.0418278 167.641828,34.4 167.2,34.4 L159.2,34.4 Z M37.6,60.8 C37.1581722,60.8 36.8,60.4418278 36.8,60 C36.8,59.5581722 37.1581722,59.2 37.6,59.2 L45.6,59.2 C46.0418278,59.2 46.4,59.5581722 46.4,60 C46.4,60.4418278 46.0418278,60.8 45.6,60.8 L37.6,60.8 Z M49.6,60.8 C49.1581722,60.8 48.8,60.4418278 48.8,60 C48.8,59.5581722 49.1581722,59.2 49.6,59.2 L73.6,59.2 C74.0418278,59.2 74.4,59.5581722 74.4,60 C74.4,60.4418278 74.0418278,60.8 73.6,60.8 L49.6,60.8 Z M77.6,60.8 C77.1581722,60.8 76.8,60.4418278 76.8,60 C76.8,59.5581722 77.1581722,59.2 77.6,59.2 L85.6,59.2 C86.0418278,59.2 86.4,59.5581722 86.4,60 C86.4,60.4418278 86.0418278,60.8 85.6,60.8 L77.6,60.8 Z M90.4,60.8 C89.9581722,60.8 89.6,60.4418278 89.6,60 C89.6,59.5581722 89.9581722,59.2 90.4,59.2 L114.4,59.2 C114.841828,59.2 115.2,59.5581722 115.2,60 C115.2,60.4418278 114.841828,60.8 114.4,60.8 L90.4,60.8 Z M118.4,60.8 C117.958172,60.8 117.6,60.4418278 117.6,60 C117.6,59.5581722 117.958172,59.2 118.4,59.2 L126.4,59.2 C126.841828,59.2 127.2,59.5581722 127.2,60 C127.2,60.4418278 126.841828,60.8 126.4,60.8 L118.4,60.8 Z M130.4,60.8 C129.958172,60.8 129.6,60.4418278 129.6,60 C129.6,59.5581722 129.958172,59.2 130.4,59.2 L154.4,59.2 C154.841828,59.2 155.2,59.5581722 155.2,60 C155.2,60.4418278 154.841828,60.8 154.4,60.8 L130.4,60.8 Z M159.2,60.8 C158.758172,60.8 158.4,60.4418278 158.4,60 C158.4,59.5581722 158.758172,59.2 159.2,59.2 L167.2,59.2 C167.641828,59.2 168,59.5581722 168,60 C168,60.4418278 167.641828,60.8 167.2,60.8 L159.2,60.8 Z M163.2,59.2 C163.641828,59.2 164,59.5581722 164,60 C164,60.4418278 163.641828,60.8 163.2,60.8 L139.2,60.8 C138.758172,60.8 138.4,60.4418278 138.4,60 C138.4,59.5581722 138.758172,59.2 139.2,59.2 L163.2,59.2 Z M134.4,59.2 C134.841828,59.2 135.2,59.5581722 135.2,60 C135.2,60.4418278 134.841828,60.8 134.4,60.8 L126.4,60.8 C125.958172,60.8 125.6,60.4418278 125.6,60 C125.6,59.5581722 125.958172,59.2 126.4,59.2 L134.4,59.2 Z M122.4,59.2 C122.841828,59.2 123.2,59.5581722 123.2,60 C123.2,60.4418278 122.841828,60.8 122.4,60.8 L98.4,60.8 C97.9581722,60.8 97.6,60.4418278 97.6,60 C97.6,59.5581722 97.9581722,59.2 98.4,59.2 L122.4,59.2 Z M94.4,59.2 C94.8418278,59.2 95.2,59.5581722 95.2,60 C95.2,60.4418278 94.8418278,60.8 94.4,60.8 L86.4,60.8 C85.9581722,60.8 85.6,60.4418278 85.6,60 C85.6,59.5581722 85.9581722,59.2 86.4,59.2 L94.4,59.2 Z M81.6,59.2 C82.0418278,59.2 82.4,59.5581722 82.4,60 C82.4,60.4418278 82.0418278,60.8 81.6,60.8 L57.6,60.8 C57.1581722,60.8 56.8,60.4418278 56.8,60 C56.8,59.5581722 57.1581722,59.2 57.6,59.2 L81.6,59.2 Z M53.6,59.2 C54.0418278,59.2 54.4,59.5581722 54.4,60 C54.4,60.4418278 54.0418278,60.8 53.6,60.8 L45.6,60.8 C45.1581722,60.8 44.8,60.4418278 44.8,60 C44.8,59.5581722 45.1581722,59.2 45.6,59.2 L53.6,59.2 Z M41.6,59.2 C42.0418278,59.2 42.4,59.5581722 42.4,60 C42.4,60.4418278 42.0418278,60.8 41.6,60.8 L17.6,60.8 C17.1581722,60.8 16.8,60.4418278 16.8,60 C16.8,59.5581722 17.1581722,59.2 17.6,59.2 L41.6,59.2 Z M12.8292509,59.2 L8.77074909,59.2 C8.34507612,59.2 8,59.5581722 8,60 C8,60.4418278 8.34507612,60.8 8.77074909,60.8 L12.8292509,60.8 C13.2549239,60.8 13.6,60.4418278 13.6,60 C13.6,59.5581722 13.2549239,59.2 12.8292509,59.2 Z M12.8292509,41.6 L8.77074909,41.6 C8.34507612,41.6 8,41.9581722 8,42.4 C8,42.8418278 8.34507612,43.2 8.77074909,43.2 L12.8292509,43.2 C13.2549239,43.2 13.6,42.8418278 13.6,42.4 C13.6,41.9581722 13.2549239,41.6 12.8292509,41.6 Z M8.8,52 C8.3581722,52 8,51.6418278 8,51.2 C8,50.7581722 8.3581722,50.4 8.8,50.4 L32.8,50.4 C33.2418278,50.4 33.6,50.7581722 33.6,51.2 C33.6,51.6418278 33.2418278,52 32.8,52 L8.8,52 Z M37.6,52 C37.1581722,52 36.8,51.6418278 36.8,51.2 C36.8,50.7581722 37.1581722,50.4 37.6,50.4 L45.6,50.4 C46.0418278,50.4 46.4,50.7581722 46.4,51.2 C46.4,51.6418278 46.0418278,52 45.6,52 L37.6,52 Z M49.6,52 C49.1581722,52 48.8,51.6418278 48.8,51.2 C48.8,50.7581722 49.1581722,50.4 49.6,50.4 L73.6,50.4 C74.0418278,50.4 74.4,50.7581722 74.4,51.2 C74.4,51.6418278 74.0418278,52 73.6,52 L49.6,52 Z M77.6,52 C77.1581722,52 76.8,51.6418278 76.8,51.2 C76.8,50.7581722 77.1581722,50.4 77.6,50.4 L85.6,50.4 C86.0418278,50.4 86.4,50.7581722 86.4,51.2 C86.4,51.6418278 86.0418278,52 85.6,52 L77.6,52 Z M89.6,52 C89.1581722,52 88.8,51.6418278 88.8,51.2 C88.8,50.7581722 89.1581722,50.4 89.6,50.4 L113.6,50.4 C114.041828,50.4 114.4,50.7581722 114.4,51.2 C114.4,51.6418278 114.041828,52 113.6,52 L89.6,52 Z M118.4,52 C117.958172,52 117.6,51.6418278 117.6,51.2 C117.6,50.7581722 117.958172,50.4 118.4,50.4 L126.4,50.4 C126.841828,50.4 127.2,50.7581722 127.2,51.2 C127.2,51.6418278 126.841828,52 126.4,52 L118.4,52 Z M130.4,52 C129.958172,52 129.6,51.6418278 129.6,51.2 C129.6,50.7581722 129.958172,50.4 130.4,50.4 L154.4,50.4 C154.841828,50.4 155.2,50.7581722 155.2,51.2 C155.2,51.6418278 154.841828,52 154.4,52 L130.4,52 Z M159.2,52 C158.758172,52 158.4,51.6418278 158.4,51.2 C158.4,50.7581722 158.758172,50.4 159.2,50.4 L167.2,50.4 C167.641828,50.4 168,50.7581722 168,51.2 C168,51.6418278 167.641828,52 167.2,52 L159.2,52 Z M37.6,79.2 C37.1581722,79.2 36.8,78.8418278 36.8,78.4 C36.8,77.9581722 37.1581722,77.6 37.6,77.6 L45.6,77.6 C46.0418278,77.6 46.4,77.9581722 46.4,78.4 C46.4,78.8418278 46.0418278,79.2 45.6,79.2 L37.6,79.2 Z M49.6,79.2 C49.1581722,79.2 48.8,78.8418278 48.8,78.4 C48.8,77.9581722 49.1581722,77.6 49.6,77.6 L73.6,77.6 C74.0418278,77.6 74.4,77.9581722 74.4,78.4 C74.4,78.8418278 74.0418278,79.2 73.6,79.2 L49.6,79.2 Z M77.6,79.2 C77.1581722,79.2 76.8,78.8418278 76.8,78.4 C76.8,77.9581722 77.1581722,77.6 77.6,77.6 L85.6,77.6 C86.0418278,77.6 86.4,77.9581722 86.4,78.4 C86.4,78.8418278 86.0418278,79.2 85.6,79.2 L77.6,79.2 Z M90.4,79.2 C89.9581722,79.2 89.6,78.8418278 89.6,78.4 C89.6,77.9581722 89.9581722,77.6 90.4,77.6 L114.4,77.6 C114.841828,77.6 115.2,77.9581722 115.2,78.4 C115.2,78.8418278 114.841828,79.2 114.4,79.2 L90.4,79.2 Z M118.4,79.2 C117.958172,79.2 117.6,78.8418278 117.6,78.4 C117.6,77.9581722 117.958172,77.6 118.4,77.6 L126.4,77.6 C126.841828,77.6 127.2,77.9581722 127.2,78.4 C127.2,78.8418278 126.841828,79.2 126.4,79.2 L118.4,79.2 Z M130.4,79.2 C129.958172,79.2 129.6,78.8418278 129.6,78.4 C129.6,77.9581722 129.958172,77.6 130.4,77.6 L154.4,77.6 C154.841828,77.6 155.2,77.9581722 155.2,78.4 C155.2,78.8418278 154.841828,79.2 154.4,79.2 L130.4,79.2 Z M159.2,79.2 C158.758172,79.2 158.4,78.8418278 158.4,78.4 C158.4,77.9581722 158.758172,77.6 159.2,77.6 L167.2,77.6 C167.641828,77.6 168,77.9581722 168,78.4 C168,78.8418278 167.641828,79.2 167.2,79.2 L159.2,79.2 Z M163.2,77.6 C163.641828,77.6 164,77.9581722 164,78.4 C164,78.8418278 163.641828,79.2 163.2,79.2 L139.2,79.2 C138.758172,79.2 138.4,78.8418278 138.4,78.4 C138.4,77.9581722 138.758172,77.6 139.2,77.6 L163.2,77.6 Z M134.4,77.6 C134.841828,77.6 135.2,77.9581722 135.2,78.4 C135.2,78.8418278 134.841828,79.2 134.4,79.2 L126.4,79.2 C125.958172,79.2 125.6,78.8418278 125.6,78.4 C125.6,77.9581722 125.958172,77.6 126.4,77.6 L134.4,77.6 Z M122.4,77.6 C122.841828,77.6 123.2,77.9581722 123.2,78.4 C123.2,78.8418278 122.841828,79.2 122.4,79.2 L98.4,79.2 C97.9581722,79.2 97.6,78.8418278 97.6,78.4 C97.6,77.9581722 97.9581722,77.6 98.4,77.6 L122.4,77.6 Z M94.4,77.6 C94.8418278,77.6 95.2,77.9581722 95.2,78.4 C95.2,78.8418278 94.8418278,79.2 94.4,79.2 L86.4,79.2 C85.9581722,79.2 85.6,78.8418278 85.6,78.4 C85.6,77.9581722 85.9581722,77.6 86.4,77.6 L94.4,77.6 Z M81.6,77.6 C82.0418278,77.6 82.4,77.9581722 82.4,78.4 C82.4,78.8418278 82.0418278,79.2 81.6,79.2 L57.6,79.2 C57.1581722,79.2 56.8,78.8418278 56.8,78.4 C56.8,77.9581722 57.1581722,77.6 57.6,77.6 L81.6,77.6 Z M53.6,77.6 C54.0418278,77.6 54.4,77.9581722 54.4,78.4 C54.4,78.8418278 54.0418278,79.2 53.6,79.2 L45.6,79.2 C45.1581722,79.2 44.8,78.8418278 44.8,78.4 C44.8,77.9581722 45.1581722,77.6 45.6,77.6 L53.6,77.6 Z M41.6,77.6 C42.0418278,77.6 42.4,77.9581722 42.4,78.4 C42.4,78.8418278 42.0418278,79.2 41.6,79.2 L17.6,79.2 C17.1581722,79.2 16.8,78.8418278 16.8,78.4 C16.8,77.9581722 17.1581722,77.6 17.6,77.6 L41.6,77.6 Z M12.8292509,77.6 L8.77074909,77.6 C8.34507612,77.6 8,77.9581722 8,78.4 C8,78.8418278 8.34507612,79.2 8.77074909,79.2 L12.8292509,79.2 C13.2549239,79.2 13.6,78.8418278 13.6,78.4 C13.6,77.9581722 13.2549239,77.6 12.8292509,77.6 Z M8.8,69.6 C8.3581722,69.6 8,69.2418278 8,68.8 C8,68.3581722 8.3581722,68 8.8,68 L32.8,68 C33.2418278,68 33.6,68.3581722 33.6,68.8 C33.6,69.2418278 33.2418278,69.6 32.8,69.6 L8.8,69.6 Z M37.6,69.6 C37.1581722,69.6 36.8,69.2418278 36.8,68.8 C36.8,68.3581722 37.1581722,68 37.6,68 L45.6,68 C46.0418278,68 46.4,68.3581722 46.4,68.8 C46.4,69.2418278 46.0418278,69.6 45.6,69.6 L37.6,69.6 Z M49.6,69.6 C49.1581722,69.6 48.8,69.2418278 48.8,68.8 C48.8,68.3581722 49.1581722,68 49.6,68 L73.6,68 C74.0418278,68 74.4,68.3581722 74.4,68.8 C74.4,69.2418278 74.0418278,69.6 73.6,69.6 L49.6,69.6 Z M77.6,69.6 C77.1581722,69.6 76.8,69.2418278 76.8,68.8 C76.8,68.3581722 77.1581722,68 77.6,68 L85.6,68 C86.0418278,68 86.4,68.3581722 86.4,68.8 C86.4,69.2418278 86.0418278,69.6 85.6,69.6 L77.6,69.6 Z M89.6,69.6 C89.1581722,69.6 88.8,69.2418278 88.8,68.8 C88.8,68.3581722 89.1581722,68 89.6,68 L113.6,68 C114.041828,68 114.4,68.3581722 114.4,68.8 C114.4,69.2418278 114.041828,69.6 113.6,69.6 L89.6,69.6 Z M118.4,69.6 C117.958172,69.6 117.6,69.2418278 117.6,68.8 C117.6,68.3581722 117.958172,68 118.4,68 L126.4,68 C126.841828,68 127.2,68.3581722 127.2,68.8 C127.2,69.2418278 126.841828,69.6 126.4,69.6 L118.4,69.6 Z M130.4,69.6 C129.958172,69.6 129.6,69.2418278 129.6,68.8 C129.6,68.3581722 129.958172,68 130.4,68 L154.4,68 C154.841828,68 155.2,68.3581722 155.2,68.8 C155.2,69.2418278 154.841828,69.6 154.4,69.6 L130.4,69.6 Z M159.2,69.6 C158.758172,69.6 158.4,69.2418278 158.4,68.8 C158.4,68.3581722 158.758172,68 159.2,68 L167.2,68 C167.641828,68 168,68.3581722 168,68.8 C168,69.2418278 167.641828,69.6 167.2,69.6 L159.2,69.6 Z M37.6,96.8 C37.1581722,96.8 36.8,96.4418278 36.8,96 C36.8,95.5581722 37.1581722,95.2 37.6,95.2 L45.6,95.2 C46.0418278,95.2 46.4,95.5581722 46.4,96 C46.4,96.4418278 46.0418278,96.8 45.6,96.8 L37.6,96.8 Z M49.6,96.8 C49.1581722,96.8 48.8,96.4418278 48.8,96 C48.8,95.5581722 49.1581722,95.2 49.6,95.2 L73.6,95.2 C74.0418278,95.2 74.4,95.5581722 74.4,96 C74.4,96.4418278 74.0418278,96.8 73.6,96.8 L49.6,96.8 Z M77.6,96.8 C77.1581722,96.8 76.8,96.4418278 76.8,96 C76.8,95.5581722 77.1581722,95.2 77.6,95.2 L85.6,95.2 C86.0418278,95.2 86.4,95.5581722 86.4,96 C86.4,96.4418278 86.0418278,96.8 85.6,96.8 L77.6,96.8 Z M90.4,96.8 C89.9581722,96.8 89.6,96.4418278 89.6,96 C89.6,95.5581722 89.9581722,95.2 90.4,95.2 L114.4,95.2 C114.841828,95.2 115.2,95.5581722 115.2,96 C115.2,96.4418278 114.841828,96.8 114.4,96.8 L90.4,96.8 Z M118.4,96.8 C117.958172,96.8 117.6,96.4418278 117.6,96 C117.6,95.5581722 117.958172,95.2 118.4,95.2 L126.4,95.2 C126.841828,95.2 127.2,95.5581722 127.2,96 C127.2,96.4418278 126.841828,96.8 126.4,96.8 L118.4,96.8 Z M130.4,96.8 C129.958172,96.8 129.6,96.4418278 129.6,96 C129.6,95.5581722 129.958172,95.2 130.4,95.2 L154.4,95.2 C154.841828,95.2 155.2,95.5581722 155.2,96 C155.2,96.4418278 154.841828,96.8 154.4,96.8 L130.4,96.8 Z M159.2,96.8 C158.758172,96.8 158.4,96.4418278 158.4,96 C158.4,95.5581722 158.758172,95.2 159.2,95.2 L167.2,95.2 C167.641828,95.2 168,95.5581722 168,96 C168,96.4418278 167.641828,96.8 167.2,96.8 L159.2,96.8 Z M163.2,95.2 C163.641828,95.2 164,95.5581722 164,96 C164,96.4418278 163.641828,96.8 163.2,96.8 L139.2,96.8 C138.758172,96.8 138.4,96.4418278 138.4,96 C138.4,95.5581722 138.758172,95.2 139.2,95.2 L163.2,95.2 Z M134.4,95.2 C134.841828,95.2 135.2,95.5581722 135.2,96 C135.2,96.4418278 134.841828,96.8 134.4,96.8 L126.4,96.8 C125.958172,96.8 125.6,96.4418278 125.6,96 C125.6,95.5581722 125.958172,95.2 126.4,95.2 L134.4,95.2 Z M122.4,95.2 C122.841828,95.2 123.2,95.5581722 123.2,96 C123.2,96.4418278 122.841828,96.8 122.4,96.8 L98.4,96.8 C97.9581722,96.8 97.6,96.4418278 97.6,96 C97.6,95.5581722 97.9581722,95.2 98.4,95.2 L122.4,95.2 Z M94.4,95.2 C94.8418278,95.2 95.2,95.5581722 95.2,96 C95.2,96.4418278 94.8418278,96.8 94.4,96.8 L86.4,96.8 C85.9581722,96.8 85.6,96.4418278 85.6,96 C85.6,95.5581722 85.9581722,95.2 86.4,95.2 L94.4,95.2 Z M81.6,95.2 C82.0418278,95.2 82.4,95.5581722 82.4,96 C82.4,96.4418278 82.0418278,96.8 81.6,96.8 L57.6,96.8 C57.1581722,96.8 56.8,96.4418278 56.8,96 C56.8,95.5581722 57.1581722,95.2 57.6,95.2 L81.6,95.2 Z M53.6,95.2 C54.0418278,95.2 54.4,95.5581722 54.4,96 C54.4,96.4418278 54.0418278,96.8 53.6,96.8 L45.6,96.8 C45.1581722,96.8 44.8,96.4418278 44.8,96 C44.8,95.5581722 45.1581722,95.2 45.6,95.2 L53.6,95.2 Z M41.6,95.2 C42.0418278,95.2 42.4,95.5581722 42.4,96 C42.4,96.4418278 42.0418278,96.8 41.6,96.8 L17.6,96.8 C17.1581722,96.8 16.8,96.4418278 16.8,96 C16.8,95.5581722 17.1581722,95.2 17.6,95.2 L41.6,95.2 Z M12.8292509,95.2 L8.77074909,95.2 C8.34507612,95.2 8,95.5581722 8,96 C8,96.4418278 8.34507612,96.8 8.77074909,96.8 L12.8292509,96.8 C13.2549239,96.8 13.6,96.4418278 13.6,96 C13.6,95.5581722 13.2549239,95.2 12.8292509,95.2 Z M8.8,88 C8.3581722,88 8,87.6418278 8,87.2 C8,86.7581722 8.3581722,86.4 8.8,86.4 L32.8,86.4 C33.2418278,86.4 33.6,86.7581722 33.6,87.2 C33.6,87.6418278 33.2418278,88 32.8,88 L8.8,88 Z M37.6,88 C37.1581722,88 36.8,87.6418278 36.8,87.2 C36.8,86.7581722 37.1581722,86.4 37.6,86.4 L45.6,86.4 C46.0418278,86.4 46.4,86.7581722 46.4,87.2 C46.4,87.6418278 46.0418278,88 45.6,88 L37.6,88 Z M49.6,88 C49.1581722,88 48.8,87.6418278 48.8,87.2 C48.8,86.7581722 49.1581722,86.4 49.6,86.4 L73.6,86.4 C74.0418278,86.4 74.4,86.7581722 74.4,87.2 C74.4,87.6418278 74.0418278,88 73.6,88 L49.6,88 Z M77.6,88 C77.1581722,88 76.8,87.6418278 76.8,87.2 C76.8,86.7581722 77.1581722,86.4 77.6,86.4 L85.6,86.4 C86.0418278,86.4 86.4,86.7581722 86.4,87.2 C86.4,87.6418278 86.0418278,88 85.6,88 L77.6,88 Z M89.6,88 C89.1581722,88 88.8,87.6418278 88.8,87.2 C88.8,86.7581722 89.1581722,86.4 89.6,86.4 L113.6,86.4 C114.041828,86.4 114.4,86.7581722 114.4,87.2 C114.4,87.6418278 114.041828,88 113.6,88 L89.6,88 Z M118.4,88 C117.958172,88 117.6,87.6418278 117.6,87.2 C117.6,86.7581722 117.958172,86.4 118.4,86.4 L126.4,86.4 C126.841828,86.4 127.2,86.7581722 127.2,87.2 C127.2,87.6418278 126.841828,88 126.4,88 L118.4,88 Z M130.4,88 C129.958172,88 129.6,87.6418278 129.6,87.2 C129.6,86.7581722 129.958172,86.4 130.4,86.4 L154.4,86.4 C154.841828,86.4 155.2,86.7581722 155.2,87.2 C155.2,87.6418278 154.841828,88 154.4,88 L130.4,88 Z M159.2,88 C158.758172,88 158.4,87.6418278 158.4,87.2 C158.4,86.7581722 158.758172,86.4 159.2,86.4 L167.2,86.4 C167.641828,86.4 168,86.7581722 168,87.2 C168,87.6418278 167.641828,88 167.2,88 L159.2,88 Z M8.8,105.6 C8.3581722,105.6 8,105.241828 8,104.8 C8,104.358172 8.3581722,104 8.8,104 L32.8,104 C33.2418278,104 33.6,104.358172 33.6,104.8 C33.6,105.241828 33.2418278,105.6 32.8,105.6 L8.8,105.6 Z M37.6,105.6 C37.1581722,105.6 36.8,105.241828 36.8,104.8 C36.8,104.358172 37.1581722,104 37.6,104 L45.6,104 C46.0418278,104 46.4,104.358172 46.4,104.8 C46.4,105.241828 46.0418278,105.6 45.6,105.6 L37.6,105.6 Z M49.6,105.6 C49.1581722,105.6 48.8,105.241828 48.8,104.8 C48.8,104.358172 49.1581722,104 49.6,104 L73.6,104 C74.0418278,104 74.4,104.358172 74.4,104.8 C74.4,105.241828 74.0418278,105.6 73.6,105.6 L49.6,105.6 Z M77.6,105.6 C77.1581722,105.6 76.8,105.241828 76.8,104.8 C76.8,104.358172 77.1581722,104 77.6,104 L85.6,104 C86.0418278,104 86.4,104.358172 86.4,104.8 C86.4,105.241828 86.0418278,105.6 85.6,105.6 L77.6,105.6 Z M89.6,105.6 C89.1581722,105.6 88.8,105.241828 88.8,104.8 C88.8,104.358172 89.1581722,104 89.6,104 L113.6,104 C114.041828,104 114.4,104.358172 114.4,104.8 C114.4,105.241828 114.041828,105.6 113.6,105.6 L89.6,105.6 Z M118.4,105.6 C117.958172,105.6 117.6,105.241828 117.6,104.8 C117.6,104.358172 117.958172,104 118.4,104 L126.4,104 C126.841828,104 127.2,104.358172 127.2,104.8 C127.2,105.241828 126.841828,105.6 126.4,105.6 L118.4,105.6 Z M130.4,105.6 C129.958172,105.6 129.6,105.241828 129.6,104.8 C129.6,104.358172 129.958172,104 130.4,104 L154.4,104 C154.841828,104 155.2,104.358172 155.2,104.8 C155.2,105.241828 154.841828,105.6 154.4,105.6 L130.4,105.6 Z M159.2,105.6 C158.758172,105.6 158.4,105.241828 158.4,104.8 C158.4,104.358172 158.758172,104 159.2,104 L167.2,104 C167.641828,104 168,104.358172 168,104.8 C168,105.241828 167.641828,105.6 167.2,105.6 L159.2,105.6 Z M64.7918367,9.88056112 C64.866667,9.70100111 64.9901352,9.61122244 65.1622449,9.61122244 C65.2744904,9.61122244 65.3755098,9.64863022 65.4653061,9.72344689 C65.5551025,9.79826357 65.6,9.89178301 65.6,10.004008 C65.6,10.0563797 65.5887756,10.1124914 65.5663265,10.1723447 L63.7030612,14.8857715 C63.658163,14.9830332 63.5926875,15.0597192 63.5066327,15.1158317 C63.4205778,15.1719442 63.3251706,15.2 63.2204082,15.2 C63.1231288,15.2 63.031463,15.1719442 62.9454082,15.1158317 C62.8593533,15.0597192 62.7938778,14.9830332 62.7489796,14.8857715 L61.2,10.9466934 L59.6622449,14.8857715 C59.6248297,14.9830332 59.5612249,15.0597192 59.4714286,15.1158317 C59.3816322,15.1719442 59.2843543,15.2 59.1795918,15.2 C59.0823124,15.2 58.988776,15.1719442 58.8989796,15.1158317 C58.8091832,15.0597192 58.741837,14.9830332 58.6969388,14.8857715 L56.8336735,10.1835671 C56.8112244,10.1237138 56.8,10.0713429 56.8,10.0264529 C56.8,9.90674623 56.8505097,9.80574523 56.9515306,9.72344689 C57.0525515,9.64114855 57.1629246,9.6 57.2826531,9.6 C57.4622458,9.6 57.5894554,9.68977866 57.6642857,9.86933868 L59.2020408,14.0104208 L60.7846939,9.90300601 C60.8295921,9.80574434 60.8913261,9.73092879 60.969898,9.67855711 C61.0484698,9.62618544 61.1326526,9.6 61.222449,9.6 C61.3197284,9.6 61.4076527,9.62618544 61.4862245,9.67855711 C61.5647963,9.73092879 61.6227889,9.80574434 61.6602041,9.90300601 L63.2428571,13.9991984 L64.7918367,9.88056112 Z M74.3918367,9.88056112 C74.466667,9.70100111 74.5901352,9.61122244 74.7622449,9.61122244 C74.8744904,9.61122244 74.9755098,9.64863022 75.0653061,9.72344689 C75.1551025,9.79826357 75.2,9.89178301 75.2,10.004008 C75.2,10.0563797 75.1887756,10.1124914 75.1663265,10.1723447 L73.3030612,14.8857715 C73.258163,14.9830332 73.1926875,15.0597192 73.1066327,15.1158317 C73.0205778,15.1719442 72.9251706,15.2 72.8204082,15.2 C72.7231288,15.2 72.631463,15.1719442 72.5454082,15.1158317 C72.4593533,15.0597192 72.3938778,14.9830332 72.3489796,14.8857715 L70.8,10.9466934 L69.2622449,14.8857715 C69.2248297,14.9830332 69.1612249,15.0597192 69.0714286,15.1158317 C68.9816322,15.1719442 68.8843543,15.2 68.7795918,15.2 C68.6823124,15.2 68.588776,15.1719442 68.4989796,15.1158317 C68.4091832,15.0597192 68.341837,14.9830332 68.2969388,14.8857715 L66.4336735,10.1835671 C66.4112244,10.1237138 66.4,10.0713429 66.4,10.0264529 C66.4,9.90674623 66.4505097,9.80574523 66.5515306,9.72344689 C66.6525515,9.64114855 66.7629246,9.6 66.8826531,9.6 C67.0622458,9.6 67.1894554,9.68977866 67.2642857,9.86933868 L68.8020408,14.0104208 L70.3846939,9.90300601 C70.4295921,9.80574434 70.4913261,9.73092879 70.569898,9.67855711 C70.6484698,9.62618544 70.7326526,9.6 70.822449,9.6 C70.9197284,9.6 71.0076527,9.62618544 71.0862245,9.67855711 C71.1647963,9.73092879 71.2227889,9.80574434 71.2602041,9.90300601 L72.8428571,13.9991984 L74.3918367,9.88056112 Z M84.7918367,9.88056112 C84.866667,9.70100111 84.9901352,9.61122244 85.1622449,9.61122244 C85.2744904,9.61122244 85.3755098,9.64863022 85.4653061,9.72344689 C85.5551025,9.79826357 85.6,9.89178301 85.6,10.004008 C85.6,10.0563797 85.5887756,10.1124914 85.5663265,10.1723447 L83.7030612,14.8857715 C83.658163,14.9830332 83.5926875,15.0597192 83.5066327,15.1158317 C83.4205778,15.1719442 83.3251706,15.2 83.2204082,15.2 C83.1231288,15.2 83.031463,15.1719442 82.9454082,15.1158317 C82.8593533,15.0597192 82.7938778,14.9830332 82.7489796,14.8857715 L81.2,10.9466934 L79.6622449,14.8857715 C79.6248297,14.9830332 79.5612249,15.0597192 79.4714286,15.1158317 C79.3816322,15.1719442 79.2843543,15.2 79.1795918,15.2 C79.0823124,15.2 78.988776,15.1719442 78.8989796,15.1158317 C78.8091832,15.0597192 78.741837,14.9830332 78.6969388,14.8857715 L76.8336735,10.1835671 C76.8112244,10.1237138 76.8,10.0713429 76.8,10.0264529 C76.8,9.90674623 76.8505097,9.80574523 76.9515306,9.72344689 C77.0525515,9.64114855 77.1629246,9.6 77.2826531,9.6 C77.4622458,9.6 77.5894554,9.68977866 77.6642857,9.86933868 L79.2020408,14.0104208 L80.7846939,9.90300601 C80.8295921,9.80574434 80.8913261,9.73092879 80.969898,9.67855711 C81.0484698,9.62618544 81.1326526,9.6 81.222449,9.6 C81.3197284,9.6 81.4076527,9.62618544 81.4862245,9.67855711 C81.5647963,9.73092879 81.6227889,9.80574434 81.6602041,9.90300601 L83.2428571,13.9991984 L84.7918367,9.88056112 Z" id="Combined-Shape"></path>
                        </g>
                    </g>
                </g>
            </g>
        </g>
    </g>
</svg>