<?xml version="1.0" encoding="UTF-8"?>
<svg width="176px" height="49px" viewBox="0 0 176 49" version="1.1" xmlns="http://www.w3.org/2000/svg" xmlns:xlink="http://www.w3.org/1999/xlink">
    <!-- Generator: Sketch 50.2 (55047) - http://www.bohemiancoding.com/sketch -->
    <title>Magento</title>
    <desc>Created with Sketch.</desc>
    <defs></defs>
    <g id="Oferta-UX---New---Cartesian-18/12/14" stroke="none" stroke-width="1" fill="none" fill-rule="evenodd">
        <g id="Desktop-HD" transform="translate(-643.000000, -1526.000000)" fill-rule="nonzero">
            <g id="Group-7" transform="translate(390.000000, 799.000000)">
                <g id="Poznaj-nasze" transform="translate(178.000000, 615.000000)">
                    <g id="Magento" transform="translate(75.000000, 112.000000)">
                        <polygon id="Shape" fill="#F26322" points="21.0211854 0 0 12.1829301 0 36.5168838 6.00075662 40 5.95838588 15.6607285 20.9788146 6.95559692 35.9992434 15.6607285 35.9992434 39.9893645 42 36.5168838 42 12.1616591"></polygon>
                        <polygon id="Shape" fill="#F26322" points="24.0017647 40.3090792 21.0052941 42.0568255 17.9929412 40.3250161 17.9929412 16 12 19.4742434 12.0105882 43.7886349 21 49 30 43.7886349 30 19.4742434 24.0017647 16"></polygon>
                        <path d="M56.1005167,12 L64.5162048,32.9454545 L64.5864256,32.9454545 L72.796853,12 L76,12 L76,36 L73.7853452,36 L73.7853452,15.0864745 L73.7151245,15.0864745 C73.5998904,15.4660754 73.4756537,15.8456763 73.3424143,16.2252772 C73.2271802,16.5374723 73.0957413,16.8833703 72.9480977,17.2629712 C72.8022546,17.6461197 72.6672147,18.0026608 72.5591827,18.3379157 L65.504697,36 L63.495303,36 L56.3705965,18.3432373 C56.2337561,18.0310421 56.0969156,17.6904656 55.9600752,17.3215078 C55.8232347,16.9525499 55.6971974,16.5995565 55.5819634,16.2625277 C55.4451229,15.8580931 55.3082824,15.4660754 55.171442,15.0864745 L55.1012212,15.0864745 L55.1012212,36 L53,36 L53,12 L56.1005167,12 Z" id="Shape" fill="#4D4D4D"></path>
                        <path d="M81.4651398,36.6933353 C80.8051126,36.5147259 80.1878165,36.2094466 79.6490401,35.7951965 C79.1352301,35.3918302 78.7223234,34.8786062 78.4418996,34.2947763 C78.1472999,33.6960171 78,32.9968776 78,32.1973579 C78,31.1759451 78.1922084,30.3429653 78.5766251,29.6984186 C78.9561118,29.0615113 79.4937127,28.5290177 80.1394409,28.1504499 C80.7969013,27.7630175 81.5621421,27.468921 82.4351634,27.2681606 C83.3593312,27.0603284 84.2949918,26.905096 85.2374537,26.8032416 C86.0996969,26.7151888 86.8308072,26.6200918 87.4307848,26.5179505 C88.0307623,26.4158092 88.5175705,26.2872521 88.8912092,26.1322791 C89.2648479,25.9773061 89.5360952,25.7712625 89.7049512,25.5141482 C89.8738071,25.257034 89.9582351,24.9065837 89.9582351,24.4627975 L89.9582351,24.1299578 C89.9582351,22.953572 89.5953744,22.081849 88.8696531,21.5147888 C88.1439317,20.9477286 87.1020546,20.6641985 85.7440216,20.6641985 C82.6147974,20.6641985 80.9711463,21.9427255 80.8130684,24.4997797 L78.7382957,24.4997797 C78.8532615,22.8338201 79.4819805,21.5007003 80.6244527,20.5004202 C81.7669249,19.5001401 83.4716515,19 85.7386325,19 C87.664309,19 89.1822162,19.4173704 90.2923543,20.2521112 C91.4024924,21.086852 91.9575615,22.4481488 91.9575615,24.3360014 L91.9575615,33.6977781 C91.9575615,34.2084845 92.0545638,34.5800675 92.2485685,34.8125269 C92.4425733,35.0449864 92.731784,35.1735435 93.1162007,35.1981983 C93.2354785,35.1978882 93.3544966,35.1872809 93.4718761,35.1664993 C93.5958235,35.1453666 93.735938,35.1083844 93.8976086,35.0661191 L94,35.0661191 L94,36.5665393 C93.8128599,36.6424411 93.6200938,36.7042569 93.4233749,36.7514502 C93.1439997,36.8127691 92.8581524,36.8411471 92.5719097,36.8359809 C91.8030762,36.8359809 91.1905243,36.6405036 90.734254,36.2495491 C90.2779836,35.8585945 90.0282924,35.2422247 89.9851802,34.4004397 L89.9851802,34.035901 L89.8935669,34.035901 C89.6177441,34.4005722 89.3170686,34.7465294 88.9936005,35.0714022 C88.6136698,35.4479802 88.1841404,35.7731277 87.7164028,36.0382223 C87.1718266,36.3445736 86.5883587,36.5790612 85.9811384,36.7356007 C85.323678,36.9152285 84.5764006,37.0032813 83.7393062,36.9997592 C82.9687476,37.0056271 82.2012404,36.9042355 81.4597508,36.6986185 M86.6439879,34.8812081 C87.3804873,34.5818285 87.9984282,34.1979182 88.4978107,33.7294771 C89.4454648,32.8556273 89.9868417,31.6394999 89.9959582,30.364098 L89.9959582,27.2628774 C89.4283148,27.5728234 88.7421129,27.8123271 87.9373526,27.9813885 C87.1325923,28.1504499 86.2990906,28.2895734 85.4368474,28.3987589 C84.68957,28.5114665 83.9979791,28.6276963 83.3620748,28.7474481 C82.7261704,28.8671999 82.1764904,29.0609162 81.7130347,29.3285968 C81.2549664,29.5892693 80.8741808,29.9625755 80.6082856,30.4116466 C80.3352419,30.8659992 80.1987201,31.4612363 80.1987201,32.1973579 C80.1987201,32.7961171 80.3065005,33.2962572 80.5220613,33.6977781 C80.7236064,34.0817235 81.0154701,34.4131285 81.3735264,34.6645982 C81.7464634,34.9180332 82.1682226,35.0942095 82.613001,35.1823488 C83.1056513,35.2834012 83.6078379,35.3329877 84.1111485,35.3302775 C85.0632087,35.3302775 85.9074885,35.1805877 86.6439879,34.8812081" id="Shape" fill="#4D4D4D"></path>
                        <path d="M97.7042254,41.700966 C96.5492958,40.8313648 95.8943662,39.7416793 95.7394366,38.4319095 L97.7359155,38.4319095 C97.915493,39.4482336 98.4542254,40.1764799 99.3521127,40.6166484 C100.25,41.056817 101.322183,41.2769012 102.568662,41.2769012 C104.413732,41.2769012 105.774648,40.8313648 106.651408,39.9402919 C107.528169,39.049219 107.966549,37.8235464 107.966549,36.2632742 L107.966549,33.4880653 L107.866197,33.4880653 C107.221831,34.4793392 106.477113,35.234425 105.632042,35.7533229 C104.786972,36.2722208 103.709507,36.5316697 102.399648,36.5316697 C101.265845,36.5316697 100.244718,36.3169533 99.3362676,35.8875206 C98.4389134,35.4698131 97.6421723,34.8579228 97.0017606,34.094639 C96.3573944,33.3288173 95.8626761,32.4091156 95.5176056,31.3355338 C95.1725352,30.261952 95,29.0828013 95,27.7980818 C95,26.3773752 95.1989437,25.1194952 95.596831,24.0244418 C95.9947183,22.9293884 96.528169,22.0096866 97.1971831,21.2653366 C97.8485572,20.5326778 98.6511264,19.9552931 99.5475352,19.5744452 C100.448955,19.1908239 101.417118,18.9954909 102.394366,19.000079 C103.725352,19.000079 104.823944,19.277421 105.690141,19.8321049 C106.556338,20.3867888 107.278169,21.1365068 107.855634,22.0812587 L107.955986,22.0812587 L107.955986,19.3650968 L110,19.3650968 L110,36.1934914 C110,38.1330959 109.466549,39.7023146 108.399648,40.9011476 C107.089789,42.3003825 105.169014,43 102.637324,43 C100.503521,43 98.8591549,42.5651994 97.7042254,41.6955981 M106.735915,32.8385483 C107.647887,31.5502502 108.103873,29.8575695 108.103873,27.7605064 C108.103873,26.7227107 107.992958,25.7743801 107.771127,24.9155147 C107.549296,24.0566492 107.204225,23.3176671 106.735915,22.6985683 C106.275556,22.0830523 105.675831,21.5895475 104.987676,21.2599687 C104.286972,20.9200011 103.47007,20.7500173 102.536972,20.7500173 C100.825704,20.7500173 99.4982394,21.3923771 98.5545775,22.6770966 C97.6109155,23.9618162 97.1390845,25.6777577 97.1390845,27.8249213 C97.131643,28.7554061 97.2434996,29.6829118 97.471831,30.5840265 C97.693662,31.4285776 98.0264085,32.1621918 98.4700704,32.7848692 C98.9040879,33.3962588 99.474167,33.894714 100.133803,34.2395726 C100.799296,34.5902759 101.588028,34.7656276 102.5,34.7656276 C104.408451,34.7656276 105.818662,34.1214786 106.730634,32.8331804" id="Shape" fill="#4D4D4D"></path>
                        <path d="M117.518681,36.3206554 C116.564099,35.8882783 115.718766,35.2418451 115.046391,34.4300761 C114.381574,33.6225863 113.874304,32.6693973 113.524583,31.5705091 C113.174861,30.4716208 113,29.2814511 113,28 C113,26.715038 113.185249,25.5248683 113.555746,24.4294909 C113.926243,23.3341135 114.4439,22.3826799 115.108718,21.5751902 C115.769936,20.7701206 116.598116,20.1228017 117.534263,19.6793446 C118.483013,19.2264482 119.547759,19 120.728503,19 C122.082376,19 123.223299,19.2598011 124.151274,19.7794032 C125.059646,20.281374 125.834797,20.9986659 126.410614,21.8700995 C126.988867,22.7442949 127.399184,23.7466355 127.641565,24.8771211 C127.882852,26.0229926 128.00299,27.1916774 127.999943,28.3633704 L115.093136,28.3633704 C115.106244,29.2805119 115.244323,30.1914145 115.503453,31.0702165 C115.731634,31.8551755 116.097604,32.5919594 116.583782,33.2451726 C117.056745,33.8696093 117.66908,34.3713553 118.370478,34.7091867 C119.090697,35.06378 119.932107,35.2410767 120.894707,35.2410767 C122.314369,35.2410767 123.412011,34.8917496 124.187631,34.1930954 C124.963251,33.4944412 125.513803,32.5588063 125.839287,31.3861908 L127.80777,31.3861908 C127.437272,33.0924517 126.67204,34.4546518 125.512072,35.4727911 C124.352104,36.4909304 122.812982,37 120.894707,37 C119.627399,37 118.502057,36.7735518 117.518681,36.3206554 M125.512072,24.3610298 C125.293929,23.6202458 124.977102,22.9777648 124.561591,22.4335869 C124.143228,21.8878053 123.604132,21.4494383 122.987843,21.1538912 C122.354189,20.8449386 121.601076,20.6904623 120.728503,20.6904623 C119.85593,20.6904623 119.095891,20.8449386 118.448387,21.1538912 C117.800363,21.4504602 117.224211,21.8872457 116.760374,22.4335869 C116.288166,23.0013036 115.917298,23.6482236 115.664464,24.3452311 C115.382424,25.1149171 115.200831,25.9186844 115.124299,26.736103 L125.87045,26.736103 C125.855355,25.9318046 125.734839,25.1331131 125.512072,24.3610298" id="Shape" fill="#4D4D4D"></path>
                        <path d="M132.004335,19.3781513 L132.004335,22.0684274 L132.070975,22.0684274 C132.64391,21.1703022 133.40064,20.4189813 134.285483,19.8697479 C135.20136,19.289916 136.32741,19 137.663633,19 C139.215156,19 140.493283,19.4717887 141.498013,20.4153661 C142.502744,21.3589436 143.0034,22.7166867 142.999983,24.4885954 L143,37 L140.995648,37 L140.995648,24.6938776 C140.995648,23.3541417 140.655611,22.3709484 139.975539,21.7442977 C139.295466,21.1176471 138.362502,20.8061224 137.176647,20.8097239 C136.492226,20.8057042 135.812899,20.9338707 135.172312,21.1878752 C134.566576,21.4244015 134.007119,21.7759506 133.521683,22.22509 C133.048697,22.6649781 132.668074,23.204092 132.404177,23.8079232 C132.130856,24.4383465 131.992594,25.1244544 131.999209,25.817527 L131.999209,37 L130,37 L130,19.3781513 L132.004335,19.3781513 Z" id="Shape" fill="#4D4D4D"></path>
                        <path d="M149.556749,36.2757516 C148.94784,35.7895532 148.643385,34.9833934 148.643385,33.8572721 L148.643385,21.1052891 L146,21.1052891 L146,19.3785698 L148.643385,19.3785698 L148.643385,14 L150.744124,14 L150.744124,19.3785698 L154,19.3785698 L154,21.1052891 L150.744124,21.1052891 L150.744124,33.5194357 C150.744124,34.1522086 150.885606,34.5865697 151.16857,34.8225189 C151.451533,35.0584681 151.874188,35.1764428 152.436535,35.1764428 C152.693181,35.17507 152.948945,35.1463066 153.199463,35.090643 C153.414429,35.0478786 153.624891,34.9850398 153.828073,34.9029562 L153.930154,34.9029562 L153.930154,36.6940253 C153.307087,36.9031459 152.653287,37.0064667 151.99597,36.9996867 C150.978733,36.9996867 150.165659,36.7565875 149.556749,36.2703891" id="Shape" fill="#4D4D4D"></path>
                        <path d="M159.669983,36.3208541 C158.697451,35.8815214 157.834854,35.2343129 157.143947,34.425563 C156.450525,33.6183094 155.919845,32.6671541 155.551907,31.5720971 C155.183969,30.4770401 155,29.2872185 155,28.0026323 C155,26.7180462 155.183969,25.5282246 155.551907,24.4331676 C155.919845,23.3381106 156.450525,22.3852004 157.143947,21.574437 C157.835096,20.7659406 158.697631,20.1187785 159.669983,19.6791459 C160.664124,19.226382 161.785627,19 163.034494,19 C164.283361,19 165.399558,19.226382 166.383085,19.6791459 C167.348988,20.1219334 168.20568,20.7687881 168.893201,21.574437 C169.586622,22.3816906 170.110227,23.3346008 170.464013,24.4331676 C170.8178,25.5317344 170.996462,26.721556 171,28.0026323 C171,29.2872185 170.821338,30.4770401 170.464013,31.5720971 C170.106689,32.6671541 169.583085,33.6183094 168.893201,34.425563 C168.205917,35.2314599 167.349165,35.8783596 166.383085,36.3208541 C165.403096,36.773618 164.286899,37 163.034494,37 C161.78209,37 160.660586,36.773618 159.669983,36.3208541 M165.581758,34.7098567 C166.310241,34.3408162 166.941039,33.8069982 167.423217,33.1515063 C167.914981,32.4881544 168.282919,31.712489 168.527032,30.8245101 C169.018463,28.9748447 169.018463,27.03042 168.527032,25.1807546 C168.282919,24.2927757 167.914981,23.5171103 167.423217,22.8537584 C166.94148,22.197861 166.310575,21.6639524 165.581758,21.295408 C164.845882,20.9163498 163.998563,20.7285756 163.039801,20.7320854 C162.081039,20.7355952 161.226645,20.9233694 160.476617,21.295408 C159.751996,21.6701543 159.122407,22.2029491 158.635158,22.8537584 C158.132781,23.5171103 157.759536,24.2927757 157.515423,25.1807546 C157.025197,27.0305747 157.025197,28.9746899 157.515423,30.8245101 C157.759536,31.7089792 158.132781,32.4846446 158.635158,33.1515063 C159.122946,33.8018153 159.752409,34.3345033 160.476617,34.7098567 C161.201879,35.0854051 162.056274,35.2731793 163.039801,35.2731793 C164.023328,35.2731793 164.870647,35.0854051 165.581758,34.7098567" id="Shape" fill="#4D4D4D"></path>
                        <path d="M173.997564,21 C172.818514,21 172,20.2 172,19.0047619 C172,17.8095238 172.838002,17 173.997564,17 C175.157125,17 176,17.8095238 176,19.0047619 C176,20.2 175.161998,21 173.997564,21 Z M173.997564,17.2285714 C173.047503,17.2285714 172.287454,17.8666667 172.287454,19 C172.287454,20.1333333 173.042631,20.7619048 173.997564,20.7619048 C174.952497,20.7619048 175.717418,20.1238095 175.717418,19 C175.717418,17.8761905 174.952497,17.2285714 173.997564,17.2285714 Z M174.587089,20.0714286 L173.909866,19.1238095 L173.690621,19.1238095 L173.690621,20.0380952 L173.300853,20.0380952 L173.300853,17.8190476 L173.98782,17.8190476 C174.460414,17.8190476 174.777101,18.052381 174.777101,18.4666667 C174.777101,18.7857143 174.601705,18.9904762 174.319123,19.0761905 L174.971985,19.9809524 L174.587089,20.0714286 Z M173.992692,18.1714286 L173.690621,18.1714286 L173.690621,18.8238095 L173.973203,18.8238095 C174.226553,18.8238095 174.387333,18.7190476 174.387333,18.4952381 C174.387333,18.2714286 174.246041,18.1666667 173.992692,18.1666667 L173.992692,18.1714286 Z" id="Shape" fill="#4D4D4D"></path>
                    </g>
                </g>
            </g>
        </g>
    </g>
</svg>