<?xml version="1.0" encoding="UTF-8"?>
<svg width="120px" height="120px" viewBox="0 0 120 120" version="1.1" xmlns="http://www.w3.org/2000/svg" xmlns:xlink="http://www.w3.org/1999/xlink">
    <!-- Generator: Sketch 50.2 (55047) - http://www.bohemiancoding.com/sketch -->
    <title>portfel - vector</title>
    <desc>Created with Sketch.</desc>
    <defs>
        <linearGradient x1="100%" y1="100%" x2="0%" y2="0%" id="linearGradient-1">
            <stop stop-color="#00A3FC" offset="0%"></stop>
            <stop stop-color="#0F76B2" offset="100%"></stop>
        </linearGradient>
    </defs>
    <g id="Oferta-UX---New---Cartesian-18/12/14" stroke="none" stroke-width="1" fill="none" fill-rule="evenodd">
        <g id="Desktop-HD" transform="translate(-784.000000, -2798.000000)" fill="url(#linearGradient-1)" fill-rule="nonzero">
            <g id="komfortowe" transform="translate(-185.000000, 1849.000000)">
                <g id="Group-16" transform="translate(577.000000, 949.000000)">
                    <g id="Item" transform="translate(392.000000, 0.000000)">
                        <g id="portfel---vector">
                            <path d="M17.1925406,23.6499392 C16.7403893,23.6499392 16.3738482,23.284368 16.3738482,22.8334132 C16.3738482,22.3824584 16.7403893,22.0168873 17.1925406,22.0168873 L102.807459,22.0168873 C112.302637,22.0168873 120,29.6938807 120,39.163932 L120,95.6728348 C120,96.1237897 119.633459,96.4893608 119.181308,96.4893608 C118.729156,96.4893608 118.362615,96.1237897 118.362615,95.6728348 L118.362615,39.163932 C118.362615,30.5957904 111.398335,23.6499392 102.807459,23.6499392 L17.1925406,23.6499392 Z M118.165049,105.333052 C118.236745,104.887803 118.65677,104.584824 119.103201,104.656331 C119.549632,104.727837 119.853414,105.146751 119.781718,105.592 C118.45487,113.832 111.307027,119.977751 102.851487,119.999942 L92.9928188,120 C92.5406675,120.000003 92.1741243,119.634434 92.1741216,119.183479 C92.174119,118.732524 92.5406579,118.366951 92.9928092,118.366948 L102.849328,118.366893 C110.497224,118.346819 116.964965,112.785823 118.165049,105.333052 Z M84.8058899,118.366948 C85.2580413,118.366948 85.6245823,118.732519 85.6245823,119.183474 C85.6245823,119.634429 85.2580413,120 84.8058899,120 L17.1925406,120 C7.69736263,120 1.99964856e-15,112.323007 0,102.852955 L5.81715945e-15,39.163932 C5.45358699e-15,35.2870094 1.29474536,31.6046822 3.63893963,28.6132472 C3.91737285,28.2579375 4.4318872,28.1950196 4.7881396,28.472716 C5.14439199,28.7504124 5.2074769,29.2635652 4.92904368,29.6188749 C2.80793447,32.3256302 1.63738482,35.654738 1.63738482,39.163932 L1.63738482,102.852955 C1.63738482,111.421097 8.60166529,118.366948 17.1925406,118.366948 L84.8058899,118.366948 Z M90.2732466,75.9075993 C93.8802626,75.9075993 96.8227859,72.8098217 96.8227859,68.9671288 C96.8227859,67.5482051 96.4208322,66.1956683 95.6815357,65.0516304 C95.436588,64.6725816 95.5461137,64.167258 95.9261682,63.9229584 C96.3062228,63.6786589 96.8128872,63.7878948 97.0578349,64.1669436 C97.9669931,65.573837 98.4601707,67.2333339 98.4601707,68.9671288 C98.4601707,73.6925775 94.8049546,77.5406512 90.2732466,77.5406512 C87.8519736,77.5406512 85.6039154,76.4332196 84.06016,74.5508412 C83.7738917,74.2017798 83.8255463,73.6873574 84.1755338,73.4018466 C84.5255213,73.1163358 85.0413086,73.1678537 85.3275769,73.5169151 C86.5662819,75.0273302 88.3532059,75.9075993 90.2732466,75.9075993 Z M14.2964071,22.2592785 C14.3857014,22.1690323 14.4974603,22.0982558 14.6267729,22.0565316 L57.4686353,8.2330847 C57.8988336,8.09427599 58.3604035,8.32957107 58.4995805,8.75863097 C58.6387575,9.18769087 58.4028382,9.64803933 57.9726398,9.78684804 L17.9977813,22.6852213 C18.0065301,22.7328158 18.0111422,22.781856 18.0112317,22.8319581 C18.0120375,23.2829122 17.6461502,23.6491342 17.1939996,23.6499379 L17.1358363,23.6500399 C15.5465999,23.6556901 13.9909186,23.8988943 12.5060407,24.366209 C12.0748475,24.5019124 11.6149952,24.2632955 11.4789317,23.8332434 C11.3428683,23.4031912 11.5821183,22.9445558 12.0133115,22.8088524 C12.7595556,22.5739975 13.5218792,22.3903453 14.2964071,22.2592785 Z M68.0988982,6.51948787 C67.6686999,6.65829658 67.20713,6.4230015 67.067953,5.9939416 C66.928776,5.5648817 67.1646954,5.10453324 67.5948937,4.96572453 L81.2589061,0.556865104 C86.7309386,-1.20875259 92.6676332,1.34354832 95.1377061,6.52363219 L101.762406,20.4165431 C101.956598,20.8237891 101.783007,21.3109338 101.37468,21.5046112 C100.966354,21.6982886 100.477916,21.5251571 100.283725,21.1179111 L93.6590249,7.22500023 C91.5418196,2.78492834 86.4532242,0.597241845 81.7629106,2.11062844 L68.0988982,6.51948787 Z M119.084383,53.4723812 C119.590064,53.4723812 120,53.8379523 120,54.2889072 C120,54.739862 119.590064,55.1054331 119.084383,55.1054331 L86.5778342,55.1054331 C78.2491631,55.1054331 74.177718,59.5010675 74.177718,68.6649071 C74.177718,71.9678865 74.7175257,74.6593119 75.7824709,76.7392945 C75.9925014,77.1495125 75.7898604,77.6338969 75.3298597,77.8211972 C74.869859,78.0084975 74.3266913,77.827787 74.1166609,77.417569 C72.9316531,75.103088 72.3464844,72.185497 72.3464844,68.6649071 C72.3464844,58.6607467 77.1521946,53.4723812 86.5778342,53.4723812 L119.084383,53.4723812 Z M80.7520217,83.3553077 C80.2411158,83.2299582 79.9281471,82.7124791 80.0529865,82.1994857 C80.1778259,81.6864923 80.6931993,81.3722449 81.2041051,81.4975944 C82.4025895,81.7916395 83.7296957,81.9414456 85.1836174,81.9449972 L119.047709,81.9450648 C119.573646,81.9450659 120.000001,82.3731649 120,82.9012508 C119.999999,83.4293366 119.573642,83.857434 119.047705,83.8574329 L85.1813006,83.8573625 C83.5796177,83.8534531 82.1030226,83.6867724 80.7520217,83.3553077 Z M93.6627771,61.1606516 C94.0707149,61.3551421 94.24333,61.8426316 94.0483235,62.2494899 C93.8533171,62.6563483 93.3645341,62.8285065 92.9565962,62.6340161 C92.1203333,62.2353154 91.2113275,62.0266583 90.2732466,62.0266583 C86.6662306,62.0266583 83.7237073,65.1244359 83.7237073,68.9671288 C83.7237073,69.3828862 83.7581355,69.7936372 83.8260093,70.1962884 C83.9009735,70.6410021 83.6002757,71.0621235 83.154382,71.1368893 C82.7084883,71.2116552 82.2862496,70.9117531 82.2112854,70.4670394 C82.1283414,69.9749869 82.0863225,69.4736733 82.0863225,68.9671288 C82.0863225,64.2416801 85.7415386,60.3936064 90.2732466,60.3936064 C91.4575673,60.3936064 92.6076385,60.6575987 93.6627771,61.1606516 Z" id="Combined-Shape"></path>
                        </g>
                    </g>
                </g>
            </g>
        </g>
    </g>
</svg>