<?xml version="1.0" encoding="UTF-8"?>
<svg width="22px" height="18px" viewBox="0 0 22 18" version="1.1" xmlns="http://www.w3.org/2000/svg" xmlns:xlink="http://www.w3.org/1999/xlink">
    <!-- Generator: Sketch 50.2 (55047) - http://www.bohemiancoding.com/sketch -->
    <title>mail</title>
    <desc>Created with Sketch.</desc>
    <defs></defs>
    <g id="Press-Room" stroke="none" stroke-width="1" fill="none" fill-rule="evenodd" stroke-linecap="round" stroke-linejoin="round">
        <g id="Desktop-HD" transform="translate(-344.000000, -468.000000)" stroke="#000000" stroke-width="2">
            <g id="mail" transform="translate(345.000000, 469.000000)">
                <path d="M2,0 L18,0 C19.1,0 20,0.9 20,2 L20,14 C20,15.1 19.1,16 18,16 L2,16 C0.9,16 0,15.1 0,14 L0,2 C0,0.9 0.9,0 2,0 Z" id="Shape"></path>
                <polyline id="Shape" points="20 2 10 9 0 2"></polyline>
            </g>
        </g>
    </g>
</svg>