<?xml version="1.0" encoding="UTF-8"?>
<svg width="40px" height="40px" viewBox="0 0 40 40" version="1.1" xmlns="http://www.w3.org/2000/svg" xmlns:xlink="http://www.w3.org/1999/xlink">
    <!-- Generator: Sketch 51 (57462) - http://www.bohemiancoding.com/sketch -->
    <title>XLS</title>
    <desc>Created with Sketch.</desc>
    <defs>
        <linearGradient x1="0%" y1="0%" x2="100%" y2="100%" id="linearGradient-1">
            <stop stop-color="#C8EB89" offset="0%"></stop>
            <stop stop-color="#58C32C" offset="100%"></stop>
        </linearGradient>
    </defs>
    <g id="Press-Room" stroke="none" stroke-width="1" fill="none" fill-rule="evenodd">
        <g id="Desktop-HD" transform="translate(-894.000000, -693.000000)">
            <g id="BlogListItem" transform="translate(344.000000, 513.000000)">
                <g id="Download" transform="translate(417.000000, 180.000000)">
                    <g id="XLS" transform="translate(133.000000, 0.000000)">
                        <rect id="Rectangle-3" fill="url(#linearGradient-1)" x="0" y="0" width="40" height="40" rx="4"></rect>
                        <text font-family="Nunito-SemiBold, Nunito" font-size="12" font-weight="500" letter-spacing="1.020833" fill="#FFFFFF">
                            <tspan x="8.5907505" y="24">XLS</tspan>
                        </text>
                    </g>
                </g>
            </g>
        </g>
    </g>
</svg>