<?xml version="1.0" encoding="UTF-8"?>
<svg width="30px" height="21px" viewBox="0 0 30 21" version="1.1" xmlns="http://www.w3.org/2000/svg" xmlns:xlink="http://www.w3.org/1999/xlink">
    <!-- Generator: Sketch 51.1 (57501) - http://www.bohemiancoding.com/sketch -->
    <title>muted</title>
    <desc>Created with Sketch.</desc>
    <defs></defs>
    <g id="O-nas-(Update)" stroke="none" stroke-width="1" fill="none" fill-rule="evenodd">
        <g id="Desktop-STRONA-GLOWNA-1" transform="translate(-140.000000, -530.000000)" fill="#FED829" fill-rule="nonzero">
            <path d="M146.064199,535.217963 L152.228659,530.286395 C153.082698,529.603163 154.347826,530.211215 154.347826,531.304919 L154.347826,549.565789 C154.347826,550.659492 153.082698,551.267545 152.228659,550.584313 L146.064199,545.652745 L141.304348,545.652745 C140.583976,545.652745 140,545.068769 140,544.348397 L140,536.52231 C140,535.801939 140.583976,535.217963 141.304348,535.217963 L146.064199,535.217963 Z M166.627235,540.435354 L169.617965,543.426084 C170.127345,543.935464 170.127345,544.761331 169.617965,545.270711 C169.108586,545.78009 168.282718,545.78009 167.773339,545.270711 L164.782609,542.27998 L161.791878,545.270711 C161.282499,545.78009 160.456632,545.78009 159.947252,545.270711 C159.437873,544.761331 159.437873,543.935464 159.947252,543.426084 L162.937982,540.435354 L159.947252,537.444624 C159.437873,536.935244 159.437873,536.109377 159.947252,535.599997 C160.456632,535.090618 161.282499,535.090618 161.791878,535.599997 L164.782609,538.590728 L167.773339,535.599997 C168.282718,535.090618 169.108586,535.090618 169.617965,535.599997 C170.127345,536.109377 170.127345,536.935244 169.617965,537.444624 L166.627235,540.435354 Z M151.73913,534.018778 L151.73913,546.85193 L147.336559,543.329873 C147.105281,543.144851 146.817919,543.04405 146.521739,543.04405 L142.608696,543.04405 L142.608696,537.826658 L146.521739,537.826658 C146.817919,537.826658 147.105281,537.725857 147.336559,537.540835 L151.73913,534.018778 Z" id="muted"></path>
        </g>
    </g>
</svg>