<?xml version="1.0" encoding="UTF-8"?>
<svg width="360px" height="185px" viewBox="0 0 360 185" version="1.1" xmlns="http://www.w3.org/2000/svg" xmlns:xlink="http://www.w3.org/1999/xlink">
    <!-- Generator: Sketch 50.2 (55047) - http://www.bohemiancoding.com/sketch -->
    <title>Rectangle</title>
    <desc>Created with Sketch.</desc>
    <defs>
        <radialGradient cx="73.7001425%" cy="50%" fx="73.7001425%" fy="50%" r="148.227355%" gradientTransform="translate(0.737001,0.500000),scale(0.385002,1.000000),rotate(162.294816),translate(-0.737001,-0.500000)" id="radialGradient-1">
            <stop stop-color="#F6F6F6" offset="0%"></stop>
            <stop stop-color="#D8D8D8" offset="100%"></stop>
        </radialGradient>
    </defs>
    <g id="Oferta---Single" stroke="none" stroke-width="1" fill="none" fill-rule="evenodd">
        <g id="Desktop-HD" transform="translate(-735.000000, -867.000000)" fill="url(#radialGradient-1)">
            <g id="Group" transform="translate(345.000000, 867.000000)">
                <g id="Group-3" transform="translate(390.000000, 0.000000)">
                    <g id="Right">
                        <g id="Rectangle">
                            <path d="M0,0 L480,0 L480,160.21419 C464.253906,147.596787 447.547201,144.858398 429.879883,151.999023 C403.378906,162.709961 382.865234,144.618415 360.539062,154.066406 C338.212891,163.514397 336.050781,181.737305 308.999023,184.618164 C281.947266,187.499023 259.3125,155.133942 207.800781,171.878906 C156.289063,188.62387 138.328125,181.214844 109.933594,160.21419 C81.5390625,139.213536 61.890625,171.878906 41.0898438,171.878906 C27.2226562,171.878906 13.5260417,167.990668 0,160.21419 L0,0 Z"></path>
                        </g>
                    </g>
                </g>
            </g>
        </g>
    </g>
</svg>