<?xml version="1.0" encoding="UTF-8"?>
<svg width="1920px" height="489px" viewBox="0 0 1920 489" version="1.1" xmlns="http://www.w3.org/2000/svg" xmlns:xlink="http://www.w3.org/1999/xlink">
    <!-- Generator: Sketch 50.2 (55047) - http://www.bohemiancoding.com/sketch -->
    <title>Rectangle</title>
    <desc>Created with Sketch.</desc>
    <defs>
        <linearGradient x1="12.7001984%" y1="99.777044%" x2="87.4556447%" y2="4.25743142%" id="linearGradient-1">
            <stop stop-color="#FFE56F" offset="0%"></stop>
            <stop stop-color="#63C9AC" offset="52.7027637%"></stop>
            <stop stop-color="#42A7E6" offset="100%"></stop>
        </linearGradient>
        <path d="M-27,-1310 L1939,-1310 L1939,331.402105 C1878.61312,322.366957 1812.05583,327.834277 1739.32813,347.804063 C1630.23656,377.758743 1613.30925,407.547594 1481.45062,389.630565 C1349.59198,371.713536 1363.81141,331.402105 1208.02174,331.402105 C1052.23208,331.402105 1024.29322,415.260772 867.875586,434.63796 C711.457951,454.015149 622.173584,347.804063 469.619792,347.804063 C317.065999,347.804063 209.821899,401.126319 135.953369,404.932024 C90.1774524,407.290398 35.8596627,382.780425 -27,331.402105 L-27,-1310 Z" id="path-2"></path>
        <filter x="-4.2%" y="-4.8%" width="108.4%" height="109.5%" filterUnits="objectBoundingBox" id="filter-3">
            <feMorphology radius="8" operator="dilate" in="SourceAlpha" result="shadowSpreadOuter1"></feMorphology>
            <feOffset dx="0" dy="0" in="shadowSpreadOuter1" result="shadowOffsetOuter1"></feOffset>
            <feGaussianBlur stdDeviation="25" in="shadowOffsetOuter1" result="shadowBlurOuter1"></feGaussianBlur>
            <feComposite in="shadowBlurOuter1" in2="SourceAlpha" operator="out" result="shadowBlurOuter1"></feComposite>
            <feColorMatrix values="0 0 0 0 0.539700255   0 0 0 0 0.539700255   0 0 0 0 0.539700255  0 0 0 0.303442029 0" type="matrix" in="shadowBlurOuter1"></feColorMatrix>
        </filter>
        <mask id="mask-4" maskContentUnits="userSpaceOnUse" maskUnits="objectBoundingBox" x="-8" y="-8" width="1982" height="1763">
            <rect x="-35" y="-1318" width="1982" height="1763" fill="white"></rect>
            <use xlink:href="#path-2" fill="black"></use>
        </mask>
    </defs>
    <g id="Metody-płatności---Single" stroke="none" stroke-width="1" fill="none" fill-rule="evenodd" stroke-dasharray="240,120,120" stroke-linecap="round">
        <g id="Visa">
            <g id="Rectangle">
                <use fill="black" fill-opacity="1" filter="url(#filter-3)" xlink:href="#path-2"></use>
                <use stroke="url(#linearGradient-1)" mask="url(#mask-4)" stroke-width="16" fill="#FFFFFF" fill-rule="evenodd" xlink:href="#path-2"></use>
            </g>
        </g>
    </g>
</svg>