<?xml version="1.0" encoding="UTF-8"?>
<svg width="86px" height="90px" viewBox="0 0 86 90" version="1.1" xmlns="http://www.w3.org/2000/svg" xmlns:xlink="http://www.w3.org/1999/xlink">
    <!-- Generator: Sketch 51.1 (57501) - http://www.bohemiancoding.com/sketch -->
    <title>4_star</title>
    <desc>Created with Sketch.</desc>
    <defs>
        <linearGradient x1="100%" y1="100%" x2="0%" y2="2.83276945e-14%" id="linearGradient-1">
            <stop stop-color="#F6C693" offset="0%"></stop>
            <stop stop-color="#FF818B" offset="100%"></stop>
        </linearGradient>
    </defs>
    <g id="404---gra" stroke="none" stroke-width="1" fill="none" fill-rule="evenodd">
        <g id="Desktop-HD" transform="translate(-820.000000, -1201.000000)" fill="url(#linearGradient-1)" fill-rule="nonzero">
            <path d="M870.340444,1207.68159 L853.227616,1226.50116 C852.762906,1227.01221 852.07668,1227.2622 851.392138,1227.16979 L826.166356,1223.76472 L838.79303,1245.84238 C839.136573,1246.44306 839.162303,1247.17439 838.861826,1247.79773 L827.819707,1270.70467 L852.73531,1265.53132 C853.412305,1265.39075 854.115123,1265.59228 854.614758,1266.07024 L873.00293,1283.66075 L875.77751,1258.38313 C875.853012,1257.69528 876.262378,1257.08871 876.872032,1256.76135 L899.279436,1244.72955 L876.082343,1234.2496 C875.452853,1233.96521 875.00337,1233.38956 874.880093,1232.7099 L870.340444,1207.68159 Z M850.736932,1222.8406 L869.969925,1201.68941 C871.141154,1200.40137 873.2809,1201.01493 873.591601,1202.72791 L878.693683,1230.85707 L904.763988,1242.63508 C906.350747,1243.35195 906.426921,1245.57704 904.892902,1246.40074 L879.709747,1259.923 L876.591283,1288.33355 C876.401283,1290.06454 874.308863,1290.82624 873.050527,1289.62249 L852.384168,1269.85262 L824.381669,1275.66692 C822.676648,1276.02094 821.305818,1274.26617 822.061973,1272.69752 L834.472662,1246.95147 L820.28184,1222.13891 C819.417413,1220.62747 820.661134,1218.78084 822.386662,1219.01376 L850.736932,1222.8406 Z M867.790683,1256.80758 C868.26818,1256.80758 868.639561,1256.92695 868.904838,1257.1657 C869.170114,1257.40445 869.30275,1257.73604 869.30275,1258.16048 C869.30275,1258.61145 869.170114,1258.95631 868.904838,1259.19506 C868.639561,1259.4338 868.26818,1259.55318 867.790683,1259.55318 L849.805039,1259.55318 C849.327542,1259.55318 848.95616,1259.4338 848.690884,1259.19506 C848.425608,1258.95631 848.292971,1258.61145 848.292971,1258.16048 C848.292971,1257.73604 848.425608,1257.40445 848.690884,1257.1657 C848.95616,1256.92695 849.327542,1256.80758 849.805039,1256.80758 L852.510844,1256.80758 L852.510844,1246.66081 L849.486709,1246.66081 C849.14185,1246.66081 848.856682,1246.5547 848.631197,1246.34248 C848.405712,1246.13026 848.292971,1245.85173 848.292971,1245.50687 C848.292971,1245.16201 848.405712,1244.88347 848.631197,1244.67125 C848.856682,1244.45903 849.14185,1244.35292 849.486709,1244.35292 L852.510844,1244.35292 L852.510844,1238.82194 C852.510844,1236.48751 853.19392,1234.6306 854.560093,1233.25116 C855.926266,1231.87173 857.816331,1231.18202 860.230346,1231.18202 C861.822004,1231.18202 863.347319,1231.47382 864.806339,1232.05742 C866.265359,1232.64103 867.55193,1233.45011 868.66609,1234.48469 C869.090532,1234.88261 869.30275,1235.34683 869.30275,1235.87738 C869.30275,1236.24877 869.196641,1236.57373 868.98442,1236.85227 C868.772199,1237.13081 868.52019,1237.27008 868.228386,1237.27008 C867.910055,1237.27008 867.538674,1237.12418 867.114232,1236.83237 C865.814378,1235.77127 864.640548,1235.02187 863.592706,1234.58417 C862.544865,1234.14646 861.450616,1233.92761 860.309928,1233.92761 C858.930491,1233.92761 857.829611,1234.34542 857.007255,1235.18104 C856.184898,1236.01666 855.773726,1237.30986 855.773726,1239.06068 L855.773726,1244.35292 L862.060743,1244.35292 C862.405602,1244.35292 862.69077,1244.45903 862.916255,1244.67125 C863.14174,1244.88347 863.254481,1245.16201 863.254481,1245.50687 C863.254481,1245.85173 863.14174,1246.13026 862.916255,1246.34248 C862.69077,1246.5547 862.405602,1246.66081 862.060743,1246.66081 L855.773726,1246.66081 L855.773726,1256.80758 L867.790683,1256.80758 Z" id="4_star"></path>
        </g>
    </g>
</svg>