<?xml version="1.0" encoding="UTF-8"?>
<svg width="293px" height="185px" viewBox="0 0 293 185" version="1.1" xmlns="http://www.w3.org/2000/svg" xmlns:xlink="http://www.w3.org/1999/xlink">
    <!-- Generator: Sketch 50.2 (55047) - http://www.bohemiancoding.com/sketch -->
    <title>Cloud 1</title>
    <desc>Created with Sketch.</desc>
    <defs>
        <linearGradient x1="0%" y1="5.44615186%" x2="75.733488%" y2="89.8824897%" id="linearGradient-1">
            <stop stop-color="#61A3FA" offset="0%"></stop>
            <stop stop-color="#2AA9EE" offset="100%"></stop>
        </linearGradient>
        <path d="M112.432657,129.312485 C108.679171,131.649806 104.247263,133 99.5,133 C88.80667,133 79.7134092,126.149289 76.369722,116.597371 C65.5765773,114.885827 56.5522883,107.861098 52.0608026,98.2871346 C39.2324275,93.9387588 30,81.7975539 30,67.5 C30,49.5507456 44.5507456,35 62.5,35 C67.7657276,35 72.7389643,36.2523024 77.1381326,38.4753296 C80.9691978,29.9425726 89.5406178,24 99.5,24 C104.837208,24 109.775813,25.7066247 113.799874,28.6039335 C119.744962,20.9357216 129.046081,16 139.5,16 C148.692045,16 156.992798,19.816073 162.904441,25.9504007 C165.851328,24.6948091 169.094523,24 172.5,24 C180.454344,24 187.523325,27.7906916 191.999011,33.6641433 C195.294461,31.9615321 199.034941,31 203,31 C211.306613,31 218.627592,35.2200006 222.936007,41.6330709 C243.417836,45.1609728 259,63.0107817 259,84.5 C259,108.524387 239.524387,128 215.5,128 C207.30131,128 199.63238,125.731831 193.086468,121.788752 C188.722615,128.535174 181.132716,133 172.5,133 C167.97739,133 163.740993,131.774571 160.104735,129.637638 C153.403535,134.280002 145.269412,137 136.5,137 C127.527784,137 119.220581,134.15274 112.432657,129.312485 Z" id="path-2"></path>
        <filter x="-21.0%" y="-39.7%" width="141.9%" height="179.3%" filterUnits="objectBoundingBox" id="filter-3">
            <feMorphology radius="3" operator="dilate" in="SourceAlpha" result="shadowSpreadOuter1"></feMorphology>
            <feOffset dx="0" dy="0" in="shadowSpreadOuter1" result="shadowOffsetOuter1"></feOffset>
            <feGaussianBlur stdDeviation="15" in="shadowOffsetOuter1" result="shadowBlurOuter1"></feGaussianBlur>
            <feComposite in="shadowBlurOuter1" in2="SourceAlpha" operator="out" result="shadowBlurOuter1"></feComposite>
            <feColorMatrix values="0 0 0 0 0.844322128   0 0 0 0 0.945195035   0 0 0 0 1  0 0 0 1 0" type="matrix" in="shadowBlurOuter1"></feColorMatrix>
        </filter>
    </defs>
    <g id="Oferta---Płatności-międzynarodowe" stroke="none" stroke-width="1" fill="none" fill-rule="evenodd" stroke-dasharray="120,15" stroke-linecap="round" stroke-linejoin="round">
        <g id="Desktop-HD" transform="translate(-1011.000000, -461.000000)">
            <g id="Cloud-1" transform="translate(1141.000000, 552.000000) scale(-1, 1) translate(-1141.000000, -552.000000) translate(926.000000, 402.000000)">
                <g id="Cloud-1-Orange" transform="translate(54.000000, 75.000000)">
                    <g id="Combined-Shape">
                        <use fill="black" fill-opacity="1" filter="url(#filter-3)" xlink:href="#path-2"></use>
                        <use stroke="url(#linearGradient-1)" stroke-width="6" fill="#FFFFFF" fill-rule="evenodd" xlink:href="#path-2"></use>
                    </g>
                </g>
            </g>
        </g>
    </g>
</svg>