<?xml version="1.0" encoding="UTF-8"?>
<svg width="169px" height="209px" viewBox="0 0 169 209" version="1.1" xmlns="http://www.w3.org/2000/svg" xmlns:xlink="http://www.w3.org/1999/xlink">
    <!-- Generator: Sketch 50.2 (55047) - http://www.bohemiancoding.com/sketch -->
    <title>€</title>
    <desc>Created with Sketch.</desc>
    <defs></defs>
    <g id="Oferta---Płatności-międzynarodowe" stroke="none" stroke-width="1" fill="none" fill-rule="evenodd">
        <g id="Desktop-HD" transform="translate(-91.000000, -607.000000)" fill="#F6F6F6">
            <path d="M251.82,771.816 C254.124012,771.816 255.995993,772.77599 257.436,774.696 C258.876007,776.61601 259.596,779.015986 259.596,781.896 C259.596,785.544018 258.060015,788.807986 254.988,791.688 C246.539958,799.176037 237.180051,804.983979 226.908,809.112 C216.635949,813.240021 206.700048,815.304 197.1,815.304 C177.323901,815.304 161.148063,808.920064 148.572,796.152 C135.995937,783.383936 127.884018,765.192118 124.236,741.576 L100.332,741.576 C97.8359875,741.576 95.7720082,740.760008 94.14,739.128 C92.5079918,737.495992 91.692,735.528012 91.692,733.224 C91.692,730.727988 92.5079918,728.664008 94.14,727.032 C95.7720082,725.399992 97.8359875,724.584 100.332,724.584 L122.22,724.584 C122.027999,721.703986 121.932,717.28803 121.932,711.336 C121.932,705.38397 122.027999,700.968014 122.22,698.088 L100.332,698.088 C97.8359875,698.088 95.7720082,697.272008 94.14,695.64 C92.5079918,694.007992 91.692,691.944012 91.692,689.448 C91.692,686.951988 92.5079918,684.936008 94.14,683.4 C95.7720082,681.863992 97.8359875,681.096 100.332,681.096 L124.236,681.096 C128.076019,657.479882 136.235938,639.336063 148.716,626.664 C161.196062,613.991937 177.323901,607.656 197.1,607.656 C207.08405,607.656 217.259948,609.62398 227.628,613.56 C237.996052,617.49602 247.115961,623.399961 254.988,631.272 C258.060015,634.152014 259.596,637.415982 259.596,641.064 C259.596,643.944014 258.828008,646.34399 257.292,648.264 C255.755992,650.18401 253.932011,651.144 251.82,651.144 C248.747985,651.144 245.964012,650.088011 243.468,647.976 C235.595961,640.679964 228.012036,635.496015 220.716,632.424 C213.419964,629.351985 205.74004,627.816 197.676,627.816 C170.027862,627.816 153.324029,645.575822 147.564,681.096 L191.34,681.096 C193.836012,681.096 195.899992,681.863992 197.532,683.4 C199.164008,684.936008 199.98,686.951988 199.98,689.448 C199.98,691.944012 199.164008,694.007992 197.532,695.64 C195.899992,697.272008 193.836012,698.088 191.34,698.088 L145.836,698.088 C145.643999,700.968014 145.548,705.38397 145.548,711.336 C145.548,717.28803 145.643999,721.703986 145.836,724.584 L191.34,724.584 C194.028013,724.584 196.139992,725.351992 197.676,726.888 C199.212008,728.424008 199.98,730.535987 199.98,733.224 C199.98,735.528012 199.164008,737.495992 197.532,739.128 C195.899992,740.760008 193.836012,741.576 191.34,741.576 L147.564,741.576 C152.940027,777.288179 169.64386,795.144 197.676,795.144 C204.972036,795.144 212.027966,793.560016 218.844,790.392 C225.660034,787.223984 233.867952,782.088036 243.468,774.984 C246.732016,772.871989 249.515988,771.816 251.82,771.816 Z" id="€"></path>
        </g>
    </g>
</svg>