<?xml version="1.0" encoding="UTF-8"?>
<svg width="962px" height="2px" viewBox="0 0 962 2" version="1.1" xmlns="http://www.w3.org/2000/svg" xmlns:xlink="http://www.w3.org/1999/xlink">
    <!-- Generator: Sketch 50.2 (55047) - http://www.bohemiancoding.com/sketch -->
    <title>Line1</title>
    <desc>Created with Sketch.</desc>
    <defs>
        <linearGradient x1="2.31811523%" y1="14.6395146%" x2="97.8377279%" y2="89.3949609%" id="linearGradient-1">
            <stop stop-color="#FFE56F" offset="0%"></stop>
            <stop stop-color="#63C9AC" offset="52.7027637%"></stop>
            <stop stop-color="#42A7E6" offset="100%"></stop>
        </linearGradient>
    </defs>
    <g id="Blog" stroke="none" stroke-width="1" fill="none" fill-rule="evenodd" stroke-linecap="round">
        <g id="Desktop-HD" transform="translate(-239.000000, -467.000000)" stroke="url(#linearGradient-1)">
            <g id="Stripes" transform="translate(150.000000, 459.000000)">
                <path d="M90,9 L1050,9" id="Line1"></path>
            </g>
        </g>
    </g>
</svg>