<?xml version="1.0" encoding="UTF-8"?>
<svg width="1440px" height="4px" viewBox="0 0 1440 4" version="1.1" xmlns="http://www.w3.org/2000/svg" xmlns:xlink="http://www.w3.org/1999/xlink">
    <!-- Generator: Sketch 50.2 (55047) - http://www.bohemiancoding.com/sketch -->
    <title>Rectangle 2</title>
    <desc>Created with Sketch.</desc>
    <defs>
        <linearGradient x1="2.31811523%" y1="14.6395146%" x2="97.8377279%" y2="89.3949609%" id="linearGradient-1">
            <stop stop-color="#FFE56F" offset="0%"></stop>
            <stop stop-color="#63C9AC" offset="52.7027637%"></stop>
            <stop stop-color="#42A7E6" offset="100%"></stop>
        </linearGradient>
    </defs>
    <g id="Blog" stroke="none" stroke-width="1" fill="none" fill-rule="evenodd">
        <g id="Desktop-HD" transform="translate(0.000000, -72.000000)" fill="url(#linearGradient-1)" fill-rule="nonzero">
            <g id="Menu" transform="translate(-4.000000, -4.000000)">
                <path d="M4,4 L4,76 L1444,76 L1444,4 L4,4 Z M0,0 L1448,0 L1448,80 L0,80 L0,0 Z" id="Rectangle-2"></path>
            </g>
        </g>
    </g>
</svg>