<?xml version="1.0" encoding="UTF-8"?>
<svg width="1144px" height="18px" viewBox="0 0 1144 18" version="1.1" xmlns="http://www.w3.org/2000/svg" xmlns:xlink="http://www.w3.org/1999/xlink">
    <!-- Generator: Sketch 51.1 (57501) - http://www.bohemiancoding.com/sketch -->
    <title>Stripes</title>
    <desc>Created with Sketch.</desc>
    <defs>
        <radialGradient cx="73.7001425%" cy="50%" fx="73.7001425%" fy="50%" r="62138.9386%" gradientTransform="translate(0.737001,0.500000),scale(0.000875,1.000000),rotate(179.958435),translate(-0.737001,-0.500000)" id="radialGradient-1">
            <stop stop-color="#878787" offset="0%"></stop>
            <stop stop-color="#D8D8D8" offset="100%"></stop>
        </radialGradient>
        <radialGradient cx="73.7001425%" cy="50%" fx="73.7001425%" fy="50%" r="52244.5551%" gradientTransform="translate(0.737001,0.500000),scale(0.001041,1.000000),rotate(179.950563),translate(-0.737001,-0.500000)" id="radialGradient-2">
            <stop stop-color="#878787" offset="0%"></stop>
            <stop stop-color="#D8D8D8" offset="100%"></stop>
        </radialGradient>
        <radialGradient cx="73.7001425%" cy="50%" fx="73.7001425%" fy="50%" r="39197.0189%" gradientTransform="translate(0.737001,0.500000),scale(0.001387,1.000000),rotate(179.934107),translate(-0.737001,-0.500000)" id="radialGradient-3">
            <stop stop-color="#878787" offset="0%"></stop>
            <stop stop-color="#D8D8D8" offset="100%"></stop>
        </radialGradient>
    </defs>
    <g id="Księga-wiedzy" stroke="none" stroke-width="1" fill="none" fill-rule="evenodd">
        <g id="Desktop-HD" transform="translate(-149.000000, -459.000000)" fill-rule="nonzero">
            <g id="Stripes" transform="translate(150.000000, 459.000000)">
                <path d="M0,1.5 C-0.276142375,1.5 -0.5,1.27614237 -0.5,1 C-0.5,0.723857625 -0.276142375,0.5 0,0.5 L1142,0.5 C1142.27614,0.5 1142.5,0.723857625 1142.5,1 C1142.5,1.27614237 1142.27614,1.5 1142,1.5 L0,1.5 Z" id="Line" fill="url(#radialGradient-1)"></path>
                <path d="M90,9.5 C89.7238576,9.5 89.5,9.27614237 89.5,9 C89.5,8.72385763 89.7238576,8.5 90,8.5 L1050,8.5 C1050.27614,8.5 1050.5,8.72385763 1050.5,9 C1050.5,9.27614237 1050.27614,9.5 1050,9.5 L90,9.5 Z" id="Line" fill="url(#radialGradient-2)"></path>
                <path d="M210,17.5 C209.723858,17.5 209.5,17.2761424 209.5,17 C209.5,16.7238576 209.723858,16.5 210,16.5 L930,16.5 C930.276142,16.5 930.5,16.7238576 930.5,17 C930.5,17.2761424 930.276142,17.5 930,17.5 L210,17.5 Z" id="Line" fill="url(#radialGradient-3)"></path>
            </g>
        </g>
    </g>
</svg>